base/dump.vcd
$date
   Sat Dec  9 23:56:44 2023
$end
$version
  2023.1
$end
$timescale
  1ps
$end
$scope module bfis_tb $end
$var reg 1 [" clk_in $end
$var reg 1 \" rst_in $end
$var reg 32 ]" vertex_in [31:0] $end
$var reg 32 ^" vertex_id_in [31:0] $end
$var reg 1 _" valid_in $end
$var reg 16 `" k_in [15:0] $end
$var reg 32 & top_k_out [31:0] $end
$var reg 1 ' valid_out $end
$var reg 32 a" query_pos_in0 [31:0] $end
$var reg 32 b" query_pos_in1 [31:0] $end
$var reg 32 c" query_pos_in2 [31:0] $end
$var reg 32 d" query_pos_in3 [31:0] $end
$var reg 32 e" query_pos_in4 [31:0] $end
$var reg 32 f" query_pos_in5 [31:0] $end
$var reg 32 g" query_pos_in6 [31:0] $end
$var reg 32 h" query_pos_in7 [31:0] $end
$var reg 3 ( state [2:0] $end
$scope module bfis_m $end
$var wire 1 ! clk_in $end
$var wire 1 " rst_in $end
$var wire 32 # vertex_id_in [31:0] $end
$var wire 1 $ valid_in $end
$var wire 16 % k_in [15:0] $end
$var reg 32 & top_k_out [31:0] $end
$var reg 1 ' valid_out $end
$var reg 3 ( state [2:0] $end
$var reg 32 ) debug [31:0] $end
$var reg 32 * debug2 [31:0] $end
$var reg 32 + point_addr [31:0] $end
$var reg 4 , ct_dist [3:0] $end
$var reg 32 - neigh_fifo_out [31:0] $end
$var reg 32 . data_out [31:0] $end
$var reg 32 / v_addr_in [31:0] $end
$var reg 1 0 pos_empty_out $end
$var reg 1 1 pos_full_out $end
$var reg 1 2 fetch_data_valid_out $end
$var reg 1 3 pos_deq_in $end
$var reg 1 4 ready_out $end
$var reg 1 5 neigh_full_out $end
$var reg 1 6 neigh_empty_out $end
$var reg 1 7 neigh_valid_out $end
$var reg 1 8 reached_neigh_end_out $end
$var reg 32 9 pq_out [31:0] $end
$var reg 32 : pq_dist_out [31:0] $end
$var reg 1 ; pq_valid_out $end
$var reg 4 < pq_size [3:0] $end
$var reg 1 = pq_deq_in $end
$var reg 1 > pq_stall_out $end
$var reg 1 ? pq_empty_out $end
$var reg 1 @ mem_valid_in $end
$var reg 1 A mem_valid_out $end
$var reg 32 B mem_data_in [31:0] $end
$var reg 32 C mem_req_out [31:0] $end
$var reg 1 D mem_valid_in2 $end
$var reg 1 E mem_valid_out2 $end
$var reg 32 F mem_data_in2 [31:0] $end
$var reg 32 G mem_req_out2 [31:0] $end
$var reg 1 H data_valid_out $end
$var reg 1 I neigh_deq $end
$var reg 1 J pos_deq $end
$var reg 32 K dist_out [31:0] $end
$var reg 1 L dist_valid_out $end
$var reg 1 M distance_complete $end
$var reg 1 N visited $end
$var reg 1 O valid_visited $end
$var reg 32 P visited_addr_in [31:0] $end
$var reg 1 Q visited_addr_valid_in $end
$var reg 1 R checked_valid_in $end
$var reg 1 S checked_valid_out $end
$var reg 1 T checked_max_deq $end
$var reg 1 U checked_min_deq $end
$var reg 1 V checked_full_out $end
$var reg 1 W checked_empty_out $end
$var reg 32 X checked_data_in [31:0] $end
$var reg 32 Y checked_tag_in [31:0] $end
$var reg 32 Z checked_data_out [31:0] $end
$var reg 32 [ checked_tag_out [31:0] $end
$var reg 32 \ checked_max_tag [31:0] $end
$var reg 32 ] curval [31:0] $end
$var reg 4 ^ checked_size [3:0] $end
$var reg 6 _ checked_counter [5:0] $end
$var reg 1 ` checked_stall_out $end
$var reg 1 a remove_checked $end
$var reg 4 b read_ptr_min [3:0] $end
$var reg 4 c read_ptr_max [3:0] $end
$var reg 4 d write_ptr [3:0] $end
$var reg 16 e k_count [15:0] $end
$var reg 1 f initial_lookup $end
$var reg 32 g idx_lookup_addr [31:0] $end
$var reg 1 h idx_lookup_addr_valid $end
$var reg 32 i idxaddr_out [31:0] $end
$var reg 1 j idxaddr_out_valid $end
$var reg 1 k checked_proc_deq $end
$var reg 1 l vertex_addr_in $end
$var reg 32 m vertex_in [31:0] $end
$var reg 32 n first_pos_lookup_addr [31:0] $end
$var reg 32 o mem_req_out2_route [31:0] $end
$var reg 32 p mem_data_in2_route [31:0] $end
$var reg 1 q vertex_valid_in $end
$var reg 1 r first_pos_lookup_addr_valid $end
$var reg 1 s mem_valid_out2_route $end
$var reg 1 t mem_valid_in2_route $end
$var reg 1 u add_checked $end
$var reg 4 v prev_checked_size [3:0] $end
$var reg 1 w checked_enq_in $end
$scope module distance_calc $end
$var wire 1 ! clk_in $end
$var wire 1 " rst_in $end
$var reg 32 K distance_sq_out [31:0] $end
$var reg 1 L data_valid_out $end
$var reg 3 x state [2:0] $end
$var reg 32 y distance [31:0] $end
$var reg 1 z valid_add_out $end
$var reg 3 { i [2:0] $end
$var reg 3 | k [2:0] $end
$scope begin Block79_2 $end
$var reg 32 } j [31:0] $end
$upscope $end
$upscope $end
$scope module checked $end
$var wire 1 ! clk_in $end
$var wire 1 " rst_in $end
$var wire 1 ~ deq_smallest_in $end
$var wire 1 !! deq_largest_in $end
$var wire 32 "! enq_data_in [31:0] $end
$var wire 32 #! enq_tag_in [31:0] $end
$var wire 1 $! enq_in $end
$var reg 1 V full_out $end
$var reg 32 Z data_out [31:0] $end
$var reg 32 [ tag_out [31:0] $end
$var reg 4 ^ size_out [3:0] $end
$var reg 1 W empty_out $end
$var reg 1 S valid_out $end
$var reg 32 \ max_tag_out [31:0] $end
$var reg 32 ] curval [31:0] $end
$var reg 1 k proc_deq_ready $end
$var reg 1 ` deq_stall_out $end
$var reg 1 w checked_enq_in $end
$var reg 4 b read_ptr_min [3:0] $end
$var reg 4 %! read_ptr_max [3:0] $end
$var reg 4 d write_ptr2 [3:0] $end
$var reg 5 &! prev_read_ptr [4:0] $end
$var reg 32 '! maxval [31:0] $end
$var reg 1 (! rem_lru $end
$var reg 1 )! push_lru $end
$var reg 1 *! deq_high $end
$var reg 5 +! i [4:0] $end
$var reg 1 ,! ready $end
$var reg 1 -! cal_min_max $end
$var reg 33 .! tmp_out [32:0] $end
$var reg 2 /! in_req_out [1:0] $end
$var reg 1 0! in_req_valid_out $end
$scope module buf_out_max $end
$var wire 1 ! clk_in $end
$var wire 1 " rst_in $end
$var wire 1 1! deq_in $end
$var wire 2 2! enq_data_in [1:0] $end
$var wire 1 3! enq_in $end
$var reg 1 4! full_out $end
$var reg 2 /! data_out [1:0] $end
$var reg 1 k empty_out $end
$var reg 1 0! valid_out $end
$var reg 4 5! read_ptr [3:0] $end
$var reg 4 6! write_ptr [3:0] $end
$scope begin Block27_5 $end
$var reg 32 7! i [31:0] $end
$upscope $end
$upscope $end
$scope module lru_cache $end
$var wire 1 ! clk_in $end
$var wire 1 " rst_in $end
$var wire 1 8! deq_in $end
$var wire 4 9! enq_data_in [3:0] $end
$var wire 1 :! enq_in $end
$var reg 1 ;! full_out $end
$var reg 4 d data_out [3:0] $end
$var reg 1 <! empty_out $end
$var reg 1 =! valid_out $end
$var reg 4 >! read_ptr [3:0] $end
$var reg 4 ?! write_ptr [3:0] $end
$var reg 1 @! start $end
$scope begin Block302_8 $end
$var reg 32 A! i [31:0] $end
$upscope $end
$scope begin Block313_9 $end
$var reg 32 B! i [31:0] $end
$upscope $end
$upscope $end
$scope begin Block202_11 $end
$var reg 32 C! i [31:0] $end
$upscope $end
$upscope $end
$scope module pq $end
$var wire 1 ! clk_in $end
$var wire 1 " rst_in $end
$var wire 1 D! deq_smallest_in $end
$var wire 1 E! deq_largest_in $end
$var wire 32 F! enq_data_in [31:0] $end
$var wire 32 G! enq_tag_in [31:0] $end
$var wire 1 H! enq_in $end
$var reg 1 I! full_out $end
$var reg 32 / data_out [31:0] $end
$var reg 32 : tag_out [31:0] $end
$var reg 4 < size_out [3:0] $end
$var reg 1 ? empty_out $end
$var reg 1 ; valid_out $end
$var reg 32 J! max_tag_out [31:0] $end
$var reg 32 K! curval [31:0] $end
$var reg 1 L! proc_deq_ready $end
$var reg 1 > deq_stall_out $end
$var reg 1 M! checked_enq_in $end
$var reg 4 N! read_ptr_min [3:0] $end
$var reg 4 O! read_ptr_max [3:0] $end
$var reg 4 P! write_ptr2 [3:0] $end
$var reg 5 Q! prev_read_ptr [4:0] $end
$var reg 32 R! maxval [31:0] $end
$var reg 1 S! rem_lru $end
$var reg 1 T! push_lru $end
$var reg 1 U! deq_high $end
$var reg 5 V! i [4:0] $end
$var reg 1 W! ready $end
$var reg 1 X! cal_min_max $end
$var reg 33 Y! tmp_out [32:0] $end
$var reg 2 Z! in_req_out [1:0] $end
$var reg 1 [! in_req_valid_out $end
$scope module buf_out_max $end
$var wire 1 ! clk_in $end
$var wire 1 " rst_in $end
$var wire 1 \! deq_in $end
$var wire 2 ]! enq_data_in [1:0] $end
$var wire 1 ^! enq_in $end
$var reg 1 _! full_out $end
$var reg 2 Z! data_out [1:0] $end
$var reg 1 L! empty_out $end
$var reg 1 [! valid_out $end
$var reg 4 `! read_ptr [3:0] $end
$var reg 4 a! write_ptr [3:0] $end
$scope begin Block27_5 $end
$var reg 32 b! i [31:0] $end
$upscope $end
$upscope $end
$scope module lru_cache $end
$var wire 1 ! clk_in $end
$var wire 1 " rst_in $end
$var wire 1 c! deq_in $end
$var wire 4 d! enq_data_in [3:0] $end
$var wire 1 e! enq_in $end
$var reg 1 f! full_out $end
$var reg 4 P! data_out [3:0] $end
$var reg 1 g! empty_out $end
$var reg 1 h! valid_out $end
$var reg 4 i! read_ptr [3:0] $end
$var reg 4 j! write_ptr [3:0] $end
$var reg 1 k! start $end
$scope begin Block302_16 $end
$var reg 32 l! i [31:0] $end
$upscope $end
$scope begin Block313_17 $end
$var reg 32 m! i [31:0] $end
$upscope $end
$upscope $end
$scope begin Block202_19 $end
$var reg 32 n! i [31:0] $end
$upscope $end
$upscope $end
$scope module gmem $end
$var wire 1 ! clk_in $end
$var wire 1 " rst_in $end
$var wire 32 o! idx_addr [31:0] $end
$var wire 1 p! idx_validin $end
$var wire 32 q! data_addra [31:0] $end
$var wire 32 r! data_addrb [31:0] $end
$var wire 1 s! data_validina $end
$var wire 1 t! data_validinb $end
$var reg 32 i rowidx_out [31:0] $end
$var reg 32 B data_outa [31:0] $end
$var reg 32 p data_outb [31:0] $end
$var reg 1 @ data_valid_outa $end
$var reg 1 t data_valid_outb $end
$var reg 1 j rowidx_valid_out $end
$var reg 32 u! addra [31:0] $end
$var reg 32 v! addrb [31:0] $end
$var reg 32 w! addrc [31:0] $end
$var reg 2 x! cta [1:0] $end
$var reg 1 y! ctb $end
$var reg 2 z! ctc [1:0] $end
$scope module data_mem $end
$var wire 14 {! addra [13:0] $end
$var wire 14 |! addrb [13:0] $end
$var wire 32 }! dina [31:0] $end
$var wire 32 ~! dinb [31:0] $end
$var wire 1 ! clka $end
$var wire 1 ! clkb $end
$var wire 1 !" wea $end
$var wire 1 "" web $end
$var wire 1 #" ena $end
$var wire 1 $" enb $end
$var wire 1 " rsta $end
$var wire 1 " rstb $end
$var wire 1 %" regcea $end
$var wire 1 &" regceb $end
$var wire 32 '" douta [31:0] $end
$var wire 32 (" doutb [31:0] $end
$var reg 32 )" ram_data_a [31:0] $end
$var reg 32 *" ram_data_b [31:0] $end
$var integer 32 +" idx [31:0] $end
$var reg 32 ," \output_register.douta_reg  [31:0] $end
$var reg 32 -" \output_register.doutb_reg  [31:0] $end
$upscope $end
$scope module ptr_mem $end
$var wire 12 ." addra [11:0] $end
$var wire 32 /" dina [31:0] $end
$var wire 1 ! clka $end
$var wire 1 0" wea $end
$var wire 1 1" ena $end
$var wire 1 " rsta $end
$var wire 1 2" regcea $end
$var wire 32 3" douta [31:0] $end
$var reg 32 4" ram_data [31:0] $end
$var reg 32 5" \output_register.douta_reg  [31:0] $end
$upscope $end
$upscope $end
$scope module vmem $end
$var wire 1 ! clk_in $end
$var wire 1 " rst_in $end
$var wire 32 6" v_addr_in [31:0] $end
$var wire 1 7" v_addr_valid_in $end
$var reg 1 N visited_out $end
$var reg 1 O valid_v_out $end
$var reg 2 8" counter2 [1:0] $end
$var reg 1 9" visited $end
$var reg 1 :" write_v_valid_in $end
$scope module bram_3_2 $end
$var wire 12 ;" addra [11:0] $end
$var wire 1 <" dina [0:0] $end
$var wire 1 ! clka $end
$var wire 1 =" wea $end
$var wire 1 >" ena $end
$var wire 1 " rsta $end
$var wire 1 ?" regcea $end
$var wire 1 @" douta [0:0] $end
$var reg 1 A" ram_data [0:0] $end
$var reg 1 B" \output_register.douta_reg  [0:0] $end
$upscope $end
$upscope $end
$scope module graph $end
$var wire 1 ! clk_in $end
$var wire 1 " rst_in $end
$var wire 32 C" v_addr_in [31:0] $end
$var wire 1 D" valid_in $end
$var reg 1 4 ready_out $end
$var wire 1 E" pos_deq_in $end
$var reg 32 . data_out [31:0] $end
$var reg 1 2 data_valid_out $end
$var reg 1 1 pos_full_out $end
$var reg 1 0 pos_empty_out $end
$var wire 1 F" neigh_deq_in $end
$var reg 32 - neigh_fifo_out [31:0] $end
$var reg 1 7 neigh_valid_out $end
$var reg 1 5 neigh_full_out $end
$var reg 1 6 neigh_empty_out $end
$var reg 1 8 reached_neigh_end_out $end
$var wire 1 G" mem_valid_in $end
$var wire 32 H" mem_data_in [31:0] $end
$var reg 1 A mem_valid_out $end
$var reg 32 C mem_req_out [31:0] $end
$var wire 1 I" mem_valid_in2 $end
$var wire 32 J" mem_data_in2 [31:0] $end
$var reg 1 E mem_valid_out2 $end
$var reg 32 G mem_req_out2 [31:0] $end
$var reg 32 P visited_req_out [31:0] $end
$var reg 1 Q visited_req_valid_out $end
$var wire 1 K" visited_val_returned_in $end
$var wire 1 L" visited_val_returned_valid_in $end
$var reg 5 M" ct [4:0] $end
$var reg 1 N" req_ready_n $end
$var reg 1 O" req_ready_d $end
$var reg 1 P" valid_bit $end
$var reg 1 Q" req_ready_v $end
$scope module neighbors $end
$var wire 1 ! clk_in $end
$var wire 1 " rst_in $end
$var wire 1 F" deq_in $end
$var wire 32 J" enq_data_in [31:0] $end
$var wire 1 R" enq_in $end
$var reg 1 5 full_out $end
$var reg 32 - data_out [31:0] $end
$var reg 1 6 empty_out $end
$var reg 1 7 valid_out $end
$var reg 3 S" read_ptr [2:0] $end
$var reg 3 T" write_ptr [2:0] $end
$scope begin Block27_35 $end
$var reg 32 U" i [31:0] $end
$upscope $end
$upscope $end
$scope module position $end
$var wire 1 ! clk_in $end
$var wire 1 " rst_in $end
$var wire 1 E" deq_in $end
$var wire 32 H" enq_data_in [31:0] $end
$var wire 1 V" enq_in $end
$var reg 1 1 full_out $end
$var reg 32 . data_out [31:0] $end
$var reg 1 0 empty_out $end
$var reg 1 2 valid_out $end
$var reg 6 W" read_ptr [5:0] $end
$var reg 6 X" write_ptr [5:0] $end
$scope begin Block27_37 $end
$var reg 32 Y" i [31:0] $end
$upscope $end
$upscope $end
$upscope $end
$upscope $end
$scope begin Block80_41 $end
$var reg 32 Z" i [31:0] $end
$upscope $end
$upscope $end
$enddefinitions $end
#0
$dumpvars
0!
x!!
0!"
0"
bx "!
0""
bx #
bx #!
1#"
x$
x$!
1$"
bx %
bx %!
1%"
bx &
bx &!
1&"
x'
bx '!
b0 '"
bx (
x(!
b0 ("
b0xxxx )
x)!
b0 )"
b0xxxx *
x*!
b0 *"
bx +
bx +!
b100000000000000 +"
bx ,
x,!
b0 ,"
bx -
x-!
b0 -"
bx .
bx .!
bx ."
bx /
bx /!
b0 /"
x0
x0!
00"
x1
x1!
11"
x2
bx 2!
12"
x3
x3!
b0 3"
x4
x4!
b0 4"
x5
bx 5!
b0 5"
x6
bx 6!
bx 6"
x7
b0 7!
x7"
x8
x8!
bx 8"
bx 9
bx 9!
x9"
bx :
x:!
x:"
x;
x;!
bx ;"
bx <
x<!
1<"
x=
x=!
1="
x>
bx >!
1>"
x?
bx ?!
1?"
x@
x@!
0@"
xA
b0 A!
0A"
b0 B
b0 B!
0B"
bx C
b0 C!
bx C"
xD
xD!
xD"
xE
0E!
xE"
bx F
bx F!
xF"
bx G
bx G!
xG"
xH
xH!
b0 H"
xI
xI!
xI"
xJ
bx J!
b0 J"
bx K
bx K!
0K"
xL
xL!
xL"
xM
xM!
bx M"
0N
bx N!
xN"
xO
bx O!
xO"
bx P
bx P!
xP"
xQ
bx Q!
xQ"
xR
bx R!
0R"
xS
xS!
bx S"
xT
xT!
bx T"
xU
xU!
b0 U"
xV
bx V!
xV"
xW
xW!
bx W"
bx X
xX!
bx X"
bx Y
bx Y!
b0 Y"
bx Z
bx Z!
b10 Z"
bx [
x[!
0["
bx \
x\!
0\"
bx ]
bx0 ]!
bx ]"
bx ^
x^!
bx ^"
bx _
x_!
x_"
x`
bx `!
bx `"
xa
bx a!
bx a"
bx b
b0 b!
bx b"
bx c
xc!
bx c"
bx d
bx d!
bx d"
bx e
xe!
bx e"
xf
xf!
bx f"
bx g
xg!
bx g"
xh
xh!
bx h"
b0 i
bx i!
xj
bx j!
xk
xk!
xl
b0 l!
bx m
b0 m!
bx n
b0 n!
bx o
bx o!
b0 p
xp!
xq
bx q!
xr
bx r!
xs
xs!
xt
xt!
xu
bx u!
bx v
bx v!
xw
bx w!
bx x
bx x!
bx y
xy!
xz
bx z!
bx {
bx {!
bx |
bx |!
b0 }
b0 }!
x~
b0 ~!
$end
#5000
1!
0(!
0)!
bx )"
bx *"
00!
02
bx 4"
07
07"
08!
0:!
0;
0@
0A
xA"
0D"
0E
0G"
0I"
0L"
0M!
0O
0O"
0Q
0S
0S!
0T!
0V"
0[!
1["
b0 a"
b0 b"
0c!
0e!
0j
0s!
0t
0w
b0 x!
0y!
b0 z!
#10000
0!
1"
b1 #
1$
b100 %
0["
1\"
b1 ^"
1_"
b100 `"
b101 a"
b111 b"
b1 c"
b1 d"
b101 e"
b111 f"
b1 g"
b1 h"
#15000
1!
0!!
b0 "!
b0 #!
0$!
b0 &!
0'
b0 '!
b0 (
b0 *
0*!
b0 +
b0 +!
b0 ,
0,!
b0 -
0-!
b0 .
b0 /
b0 /!
01!
b0 2!
03!
14
b0 5!
b0 6!
b1000 7!
08
b0 9!
b0 :
b0 <
0=
1=!
0>
b0 >!
1?
b0 ?!
0@!
b101 A!
b101 C!
b0 C"
0D!
b0 F!
b0 G!
0H!
0I!
b0 J!
b0 K
b11111111111111111111111111111111 K!
0L
0M
b0 M"
0N"
b0 P!
b0 Q!
0Q"
0R
b0 R!
b0 S"
0T
b0 T"
0U
0U!
b100 U"
0V
b0 V!
1W
0W!
b0 W"
0X!
b0 X"
b100000 Y"
b0 Z
b0 Z!
b0 [
1["
b0 \
0\!
b11111111111111111111111111111111 ]
b0 ]!
b0 ^
0^!
0`
b0 `!
0a
b0 a!
b1000 b!
b0 d
b0 d!
b0 e
0f
1h!
b0 i!
b0 j!
0k!
b1000 l!
b1000 n!
0t!
0u
b0 v
b0 x
b0 y
b0 {
0~
#20000
0!
0"
0["
0\"
#25000
1!
b0 %!
bx '"
bx ("
b0 )
bx ,"
bx -"
10
01
bx 3"
04!
05
bx 5"
16
1@!
x@"
bx B
b101 B!
xB"
bx H"
bx J"
xK"
1L!
xN
b0 N!
b0 O!
1["
0_!
b0 b
1f
bx i
1k
1k!
b1000 m!
bx p
b1000 }
#30000
0!
0["
#35000
1!
b1 ."
1["
0f
b1 g
1h
b1 o!
1p!
b1000 }
#40000
0!
0["
#45000
1!
b1 4"
1["
1f
0h
0p!
b1 z!
b1000 }
#50000
0!
0["
#55000
1!
b1 3"
b1 5"
1["
0f
1h
b1 i
1j
1p!
b0 z!
b1000 }
#60000
0!
0["
#65000
1!
b1 (
b1 +
b1 F!
1["
1f
0h
0j
b10 n
0p!
1r
b10 r!
1t!
b1 z!
b10 |!
b1000 }
#70000
0!
0["
#75000
1!
b1101001000 *"
1["
1j
0r
0t!
1y!
b0 z!
b1000 }
#80000
0!
0["
#85000
1!
b1101001000 ("
b1101001000 -"
1I"
b1101001000 J"
1["
0j
b1101001000 p
1t
0y!
b1000 }
#90000
0!
0["
#95000
1!
b1 ,
1A
b1101001000 C
0I"
1Q"
1["
b11 n
b1101001000 q!
1r
b11 r!
1s!
0t
1t!
b1101001000 {!
b11 |!
b1000 }
#100000
0!
0["
#105000
1!
b110001010 *"
0A
1["
0r
0s!
0t!
b1 x!
1y!
b1 {
b1000 }
#110000
0!
0["
#115000
1!
b110001010 ("
b110001010 -"
1@
1G"
1I"
b110001010 J"
1["
b110001010 p
1t
b0 x!
0y!
b1000 }
#120000
0!
0["
#125000
1!
b10 ,
0@
1A
b110001010 C
0G"
0I"
1["
b100 n
b110001010 q!
1r
b100 r!
1s!
0t
1t!
b110001010 {!
b100 |!
b1000 }
#130000
0!
0["
#135000
1!
b1100001111 *"
0A
1["
0r
0s!
0t!
b1 x!
1y!
b10 {
b1000 }
#140000
0!
0["
#145000
1!
b1100001111 ("
b1100001111 -"
1@
1G"
1I"
b1100001111 J"
1["
b1100001111 p
1t
b0 x!
0y!
b1000 }
#150000
0!
0["
#155000
1!
b11 ,
0@
1A
b1100001111 C
0G"
0I"
1["
b101 n
b1100001111 q!
1r
b101 r!
1s!
0t
1t!
b1100001111 {!
b101 |!
b1000 }
#160000
0!
0["
#165000
1!
b1100011110 *"
0A
1["
0r
0s!
0t!
b1 x!
1y!
b11 {
b1000 }
#170000
0!
0["
#175000
1!
b1100011110 ("
b1100011110 -"
1@
1G"
1I"
b1100011110 J"
1["
b1100011110 p
1t
b0 x!
0y!
b1000 }
#180000
0!
0["
#185000
1!
b100 ,
0@
1A
b1100011110 C
0G"
0I"
1["
b110 n
b1100011110 q!
1r
b110 r!
1s!
0t
1t!
b1100011110 {!
b110 |!
b1000 }
#190000
0!
0["
#195000
1!
b1110001111 *"
0A
1["
0r
0s!
0t!
b1 x!
1y!
b100 {
b1000 }
#200000
0!
0["
#205000
1!
b1110001111 ("
b1110001111 -"
1@
1G"
1I"
b1110001111 J"
1["
b1110001111 p
1t
b0 x!
0y!
b1000 }
#210000
0!
0["
#215000
1!
b101 ,
0@
1A
b1110001111 C
0G"
0I"
1["
b111 n
b1110001111 q!
1r
b111 r!
1s!
0t
1t!
b1110001111 {!
b111 |!
b1000 }
#220000
0!
0["
#225000
1!
b11000101 *"
0A
1["
0r
0s!
0t!
b1 x!
1y!
b101 {
b1000 }
#230000
0!
0["
#235000
1!
b11000101 ("
b11000101 -"
1@
1G"
1I"
b11000101 J"
1["
b11000101 p
1t
b0 x!
0y!
b1000 }
#240000
0!
0["
#245000
1!
b110 ,
0@
1A
b11000101 C
0G"
0I"
1["
b1000 n
b11000101 q!
1r
b1000 r!
1s!
0t
1t!
b11000101 {!
b1000 |!
b1000 }
#250000
0!
0["
#255000
1!
b101001111 *"
0A
1["
0r
0s!
0t!
b1 x!
1y!
b110 {
b1000 }
#260000
0!
0["
#265000
1!
b101001111 ("
b101001111 -"
1@
1G"
1I"
b101001111 J"
1["
b101001111 p
1t
b0 x!
0y!
b1000 }
#270000
0!
0["
#275000
1!
b111 ,
0@
1A
b101001111 C
0G"
0I"
1["
b1001 n
b101001111 q!
1r
b1001 r!
1s!
0t
1t!
b101001111 {!
b1001 |!
b1000 }
#280000
0!
0["
#285000
1!
b1100000000 *"
0A
1["
0r
0s!
0t!
b1 x!
1y!
b111 {
b1000 }
#290000
0!
0["
#295000
1!
b1100000000 ("
b1100000000 -"
1@
1G"
1I"
b1100000000 J"
1["
b1100000000 p
1t
b0 x!
0y!
b1000 }
#300000
0!
0["
#305000
1!
b1000 ,
0@
1A
b1100000000 C
0G"
0I"
1["
b1010 n
b1100000000 q!
1r
b1010 r!
1s!
0t
1t!
b1100000000 {!
b1010 |!
b1000 }
#310000
0!
0["
#315000
1!
b1101 *"
0A
1["
0r
0s!
0t!
b1 x!
1y!
b0 {
b1000 }
#320000
0!
0["
#325000
1!
b1101 ("
b1101 -"
1@
1G"
1I"
b1101 J"
1["
b1101 p
1t
b0 x!
0y!
b1000 }
#330000
0!
0["
#335000
1!
0@
1A
b1101 C
0G"
0I"
1["
b1101 q!
1s!
0t
b1101 {!
b1000 }
#340000
0!
0["
#345000
1!
b10 )"
0A
1["
0s!
b1 x!
b1000 }
#350000
0!
0["
#355000
1!
b10 '"
b10 ,"
1@
b10 B
1G"
b10 H"
1["
b0 x!
b1000 }
#360000
0!
0["
#365000
1!
b10 6"
17"
b10 ;"
0@
0G"
b10 P
1Q
1["
b1000 }
#370000
0!
0["
#375000
1!
07"
b1 8"
0A"
0Q
1["
b1000 }
#380000
0!
0["
#385000
1!
b0 8"
0@"
1A"
0B"
0K"
1L"
0N
1O
1R"
1["
b1000 }
#390000
0!
0["
#395000
1!
1@"
1B"
1K"
0L"
1N
0O
1O"
0R"
b1 T"
1["
b1000 }
#400000
0!
0["
#405000
1!
06
1A
b1110 C
0Q"
1["
b1110 q!
1s!
b1110 {!
b1000 }
#410000
0!
0["
#415000
1!
b100010101 )"
b1111 C
1["
b1111 q!
b1 x!
b1111 {!
b1000 }
#420000
0!
0["
#425000
1!
b100010101 '"
b1000101001 )"
b100010101 ,"
1@
b100010101 B
b10000 C
1G"
b100010101 H"
1V"
1["
b10000 q!
b10000 {!
b1000 }
#430000
0!
0["
#435000
1!
b1000101001 '"
b111011101 )"
b1000101001 ,"
1@
b1000101001 B
b10001 C
b1000101001 H"
b1 M"
b1 X"
1["
b10001 q!
b10001 {!
b0 |
b1000 }
#440000
0!
0["
#445000
1!
b111011101 '"
b1001110100 )"
b111011101 ,"
00
1@
b111011101 B
b10010 C
b111011101 H"
b10 M"
b10 X"
1["
b10010 q!
b10101010001110001001 y
b10010 {!
b1000 }
#450000
0!
0["
#455000
1!
b1001110100 '"
b101101100 )"
b1001110100 ,"
1@
b1001110100 B
b10011 C
b1001110100 H"
b11 M"
b11 X"
1["
b10011 q!
b10011 {!
b1000 }
#460000
0!
0["
#465000
1!
b101101100 '"
b1000000001 )"
b101101100 ,"
1@
b101101100 B
b10100 C
b101101100 H"
b100 M"
b100 X"
1["
b10100 q!
b10100 {!
b1 |
b1000 }
#470000
0!
0["
#475000
1!
b1000000001 '"
b1110111000 )"
b1000000001 ,"
1@
b1000000001 B
b10101 C
b1000000001 H"
b101 M"
b101 X"
1["
b10101 q!
b11001110110010010010 y
b10101 {!
b1000 }
#480000
0!
0["
#485000
1!
b1110111000 '"
b1110010100 )"
b1110111000 ,"
1@
0A
b1110111000 B
b1110111000 H"
b110 M"
0O"
b110 X"
1["
0s!
b1000 }
#490000
0!
0["
#495000
1!
b1110010100 '"
b1110010100 ,"
b1110010100 B
b1110010100 H"
b111 M"
b111 X"
1["
b0 x!
b10 |
b1000 }
#500000
0!
0["
#505000
1!
0@
1E
0G"
b0 M"
0V"
b1000 X"
1["
b101100100000101010110 y
b1000 }
#510000
0!
0["
#515000
1!
0E
1["
b1000 }
#520000
0!
0["
#525000
1!
1["
b11 |
b1000 }
#530000
0!
0["
#535000
1!
1["
b111111111001010011111 y
b1000 }
#540000
0!
0["
#545000
1!
1["
b1000 }
#550000
0!
0["
#555000
1!
1["
b100 |
b1000 }
#560000
0!
0["
#565000
1!
1["
b1011000111100100000011 y
b1000 }
#570000
0!
0["
#575000
1!
1["
b1000 }
#580000
0!
0["
#585000
1!
1["
b101 |
b1000 }
#590000
0!
0["
#595000
1!
1["
b1011010000011000000111 y
b1000 }
#600000
0!
0["
#605000
1!
1["
b1000 }
#610000
0!
0["
#615000
1!
1["
b110 |
b1000 }
#620000
0!
0["
#625000
1!
1["
b1011101011100111001011 y
b1000 }
#630000
0!
0["
#635000
1!
1["
b1000 }
#640000
0!
0["
#645000
1!
1["
b111 |
b1000 }
#650000
0!
0["
#655000
1!
b1101111011001111001100 G!
1H!
b1101111011001111001100 K
1L
1["
b0 y
b0 |
b1000 }
#660000
0!
0["
#665000
1!
b10 (
b0 ,
b1 <
1=
0?
1D!
b0 G!
0H!
b1101111011001111001100 J!
b0 K
b1101111011001111001100 K!
0L
1M!
1S!
1["
b10 ]!
1^!
1c!
b0 n
bx r!
bx |!
b1000 }
#670000
0!
0["
#675000
1!
bx *"
0=
1>
0D!
0M!
b1 P!
0S!
1U!
1W!
1["
1\!
b0 ]!
0^!
b1 a!
0c!
b1 i!
b1000 }
#680000
0!
0["
#685000
1!
bx ("
bx -"
bx J"
0L!
1["
bx p
b1000 }
#690000
0!
0["
#695000
1!
b10 Z!
1[!
1["
b1 `!
b1000 }
#700000
0!
0["
#705000
1!
b1 "!
b1101111011001111001100 #!
b1 /
b1101111011001111001100 :
1;
b0 <
1?
b1 C"
1D"
1L!
1T!
0[!
1["
1e!
b1000 }
#710000
0!
0["
#715000
1!
0;
0D"
1E
b1010 G
b0 J!
b11111111111111111111111111111111 K!
0T!
0U!
1X!
1["
0e!
b1 j!
b1010 r!
1t!
1u
b1010 |!
b1000 }
#720000
0!
0["
#725000
1!
b1101 *"
0E
b1 V!
0W!
1["
0\!
0t!
1y!
b1000 }
#730000
0!
0["
#735000
1!
b1101 ("
b1101 -"
1I"
b1101 J"
b10 V!
1["
b1101 p
1t
0y!
b1000 }
#740000
0!
0["
#745000
1!
1A
b1101 C
0I"
1Q"
b11 V!
1["
b1101 q!
1s!
0t
b1101 {!
b1000 }
#750000
0!
0["
#755000
1!
b10 )"
0A
b100 V!
1["
0s!
b1 x!
b1000 }
#760000
0!
0["
#765000
1!
b10 '"
b10 ,"
1@
b10 B
1G"
b10 H"
b101 V!
1["
b0 x!
b1000 }
#770000
0!
0["
#775000
1!
17"
0@
0G"
1Q
b110 V!
1["
b1000 }
#780000
0!
0["
#785000
1!
07"
b1 8"
0Q
b111 V!
1["
b1000 }
#790000
0!
0["
#795000
1!
b0 8"
1L"
1O
b1000 V!
1["
b1000 }
#800000
0!
0["
#805000
1!
0>
0L"
1N"
0O
0Q"
1W!
0X!
1["
1\!
b1000 }
#810000
0!
0["
