base/dump.vcd
$date
   Thu Dec  7 02:05:11 2023
$end
$version
  2023.1
$end
$timescale
  1ps
$end
$scope module bfis_tb $end
$var reg 1 /" clk_in $end
$var reg 1 0" rst_in $end
$var reg 32 1" vertex_in [31:0] $end
$var reg 32 2" vertex_id_in [31:0] $end
$var reg 16 3" k_in [15:0] $end
$var reg 32 % top_k_out [31:0] $end
$var reg 1 & valid_out $end
$var reg 32 4" query_pos_in0 [31:0] $end
$var reg 32 5" query_pos_in1 [31:0] $end
$var reg 32 6" query_pos_in2 [31:0] $end
$var reg 32 7" query_pos_in3 [31:0] $end
$var reg 3 ' state [2:0] $end
$scope module bfis_m $end
$var wire 1 ! clk_in $end
$var wire 1 " rst_in $end
$var wire 32 # vertex_id_in [31:0] $end
$var wire 16 $ k_in [15:0] $end
$var reg 32 % top_k_out [31:0] $end
$var reg 1 & valid_out $end
$var reg 3 ' state [2:0] $end
$var reg 32 ( point_addr [31:0] $end
$var reg 3 ) ct_dist [2:0] $end
$var reg 32 * neigh_fifo_out [31:0] $end
$var reg 32 + data_out [31:0] $end
$var reg 32 , v_addr_in [31:0] $end
$var reg 1 - pos_empty_out $end
$var reg 1 . pos_full_out $end
$var reg 1 / fetch_data_valid_out $end
$var reg 1 0 pos_deq_in $end
$var reg 1 1 valid_in $end
$var reg 1 2 ready_out $end
$var reg 1 3 neigh_full_out $end
$var reg 1 4 neigh_empty_out $end
$var reg 1 5 neigh_valid_out $end
$var reg 1 6 reached_neigh_end_out $end
$var reg 32 7 pq_out [31:0] $end
$var reg 32 8 pq_dist_out [31:0] $end
$var reg 1 9 pq_valid_out $end
$var reg 16 : pq_size [15:0] $end
$var reg 1 ; pq_deq_in $end
$var reg 1 < pq_empty_out $end
$var reg 1 = mem_valid_in $end
$var reg 1 > mem_valid_out $end
$var reg 32 ? mem_data_in [31:0] $end
$var reg 32 @ mem_req_out [31:0] $end
$var reg 1 A mem_valid_in2 $end
$var reg 1 B mem_valid_out2 $end
$var reg 32 C mem_data_in2 [31:0] $end
$var reg 32 D mem_req_out2 [31:0] $end
$var reg 1 E data_valid_out $end
$var reg 1 F neigh_deq $end
$var reg 1 G pos_deq $end
$var reg 32 H dist_out [31:0] $end
$var reg 1 I dist_valid_out $end
$var reg 1 J distance_complete $end
$var reg 1 K visited $end
$var reg 1 L valid_visited $end
$var reg 32 M visited_addr_in [31:0] $end
$var reg 1 N visited_addr_valid_in $end
$var reg 1 O checked_valid_in $end
$var reg 1 P checked_valid_out $end
$var reg 1 Q checked_max_deq $end
$var reg 1 R checked_min_deq $end
$var reg 1 S checked_full_out $end
$var reg 1 T checked_empty_out $end
$var reg 32 U checked_data_in [31:0] $end
$var reg 32 V checked_tag_in [31:0] $end
$var reg 32 W checked_data_out [31:0] $end
$var reg 32 X checked_tag_out [31:0] $end
$var reg 32 Y checked_max_tag [31:0] $end
$var reg 4 Z checked_size [3:0] $end
$var reg 6 [ checked_counter [5:0] $end
$var reg 4 \ k_count [3:0] $end
$var reg 1 ] initial_lookup $end
$var reg 32 ^ idx_lookup_addr [31:0] $end
$var reg 1 _ idx_lookup_addr_valid $end
$var reg 32 ` idxaddr_out [31:0] $end
$var reg 1 a idxaddr_out_valid $end
$var reg 1 b vertex_addr_in $end
$var reg 32 c vertex_in [31:0] $end
$var reg 32 d first_pos_lookup_addr [31:0] $end
$var reg 32 e mem_req_out2_route [31:0] $end
$var reg 32 f mem_data_in2_route [31:0] $end
$var reg 1 g vertex_valid_in $end
$var reg 1 h first_pos_lookup_addr_valid $end
$var reg 1 i mem_valid_out2_route $end
$var reg 1 j mem_valid_in2_route $end
$scope module distance_calc $end
$var wire 1 ! clk_in $end
$var wire 1 " rst_in $end
$var reg 32 H distance_sq_out [31:0] $end
$var reg 1 I data_valid_out $end
$var reg 3 k state [2:0] $end
$var reg 32 l distance [31:0] $end
$var reg 1 m valid_add_out $end
$var reg 2 n i [1:0] $end
$var reg 2 o j [1:0] $end
$var reg 2 p k [1:0] $end
$upscope $end
$scope module checked $end
$var wire 1 ! clk_in $end
$var wire 1 " rst_in $end
$var wire 1 q deq_smallest_in $end
$var wire 1 r deq_largest_in $end
$var wire 32 s enq_data_in [31:0] $end
$var wire 32 t enq_tag_in [31:0] $end
$var wire 1 u enq_in $end
$var reg 1 S full_out $end
$var reg 32 W data_out [31:0] $end
$var reg 32 X tag_out [31:0] $end
$var reg 4 Z size_out [3:0] $end
$var reg 1 T empty_out $end
$var reg 1 P valid_out $end
$var reg 32 Y max_tag_out [31:0] $end
$var reg 4 v read_ptr [3:0] $end
$var reg 4 w prev_read_ptr [3:0] $end
$var reg 4 x write_ptr [3:0] $end
$var reg 32 y curval [31:0] $end
$var reg 32 z maxval [31:0] $end
$var reg 1 { rem_lru $end
$var reg 1 | push_lru $end
$var reg 1 } deq_in $end
$scope begin Block46_4 $end
$var reg 32 ~ i [31:0] $end
$upscope $end
$scope begin Block58_5 $end
$var reg 32 !! i [31:0] $end
$upscope $end
$scope module lru_cache $end
$var wire 1 ! clk_in $end
$var wire 1 " rst_in $end
$var wire 1 "! deq_in $end
$var wire 4 #! enq_data_in [3:0] $end
$var wire 1 $! enq_in $end
$var reg 1 %! full_out $end
$var reg 4 x data_out [3:0] $end
$var reg 1 &! empty_out $end
$var reg 1 '! valid_out $end
$var reg 4 (! read_ptr [3:0] $end
$var reg 4 )! write_ptr [3:0] $end
$scope begin Block134_8 $end
$var reg 32 *! i [31:0] $end
$upscope $end
$upscope $end
$scope begin Block83_10 $end
$var reg 32 +! i [31:0] $end
$upscope $end
$upscope $end
$scope module s $end
$var wire 1 ! clk_in $end
$var wire 1 " rst_in $end
$var wire 1 ,! deq_in $end
$var wire 32 -! enq_data_in [31:0] $end
$var wire 32 .! enq_tag_in [31:0] $end
$var wire 1 /! enq_in $end
$var reg 1 0! full_out $end
$var reg 32 , data_out [31:0] $end
$var reg 32 8 tag_out [31:0] $end
$var reg 4 1! size_out [3:0] $end
$var reg 1 < empty_out $end
$var reg 1 9 valid_out $end
$var reg 4 2! read_ptr [3:0] $end
$var reg 4 3! prev_read_ptr [3:0] $end
$var reg 4 4! write_ptr [3:0] $end
$var reg 32 5! curval [31:0] $end
$var reg 1 6! rem_lru $end
$var reg 1 7! push_lru $end
$scope begin Block39_12 $end
$var reg 32 8! i [31:0] $end
$upscope $end
$scope module lru_cache $end
$var wire 1 ! clk_in $end
$var wire 1 " rst_in $end
$var wire 1 9! deq_in $end
$var wire 4 :! enq_data_in [3:0] $end
$var wire 1 ;! enq_in $end
$var reg 1 <! full_out $end
$var reg 4 4! data_out [3:0] $end
$var reg 1 =! empty_out $end
$var reg 1 >! valid_out $end
$var reg 4 ?! read_ptr [3:0] $end
$var reg 4 @! write_ptr [3:0] $end
$scope begin Block134_15 $end
$var reg 32 A! i [31:0] $end
$upscope $end
$upscope $end
$scope begin Block62_17 $end
$var reg 32 B! i [31:0] $end
$upscope $end
$upscope $end
$scope module gmem $end
$var wire 1 ! clk_in $end
$var wire 1 " rst_in $end
$var wire 32 C! idx_addr [31:0] $end
$var wire 1 D! idx_validin $end
$var wire 32 E! data_addra [31:0] $end
$var wire 32 F! data_addrb [31:0] $end
$var wire 1 G! data_validina $end
$var wire 1 H! data_validinb $end
$var reg 32 ` rowidx_out [31:0] $end
$var reg 32 ? data_outa [31:0] $end
$var reg 32 f data_outb [31:0] $end
$var reg 1 = data_valid_outa $end
$var reg 1 j data_valid_outb $end
$var reg 1 a rowidx_valid_out $end
$var reg 32 I! addra [31:0] $end
$var reg 32 J! addrb [31:0] $end
$var reg 32 K! addrc [31:0] $end
$var reg 2 L! cta [1:0] $end
$var reg 1 M! ctb $end
$var reg 2 N! ctc [1:0] $end
$scope module data_mem $end
$var wire 10 O! addra [9:0] $end
$var wire 10 P! addrb [9:0] $end
$var wire 32 Q! dina [31:0] $end
$var wire 32 R! dinb [31:0] $end
$var wire 1 ! clka $end
$var wire 1 ! clkb $end
$var wire 1 S! wea $end
$var wire 1 T! web $end
$var wire 1 U! ena $end
$var wire 1 V! enb $end
$var wire 1 " rsta $end
$var wire 1 " rstb $end
$var wire 1 W! regcea $end
$var wire 1 X! regceb $end
$var wire 32 Y! douta [31:0] $end
$var wire 32 Z! doutb [31:0] $end
$var reg 32 [! ram_data_a [31:0] $end
$var reg 32 \! ram_data_b [31:0] $end
$var integer 32 ]! idx [31:0] $end
$var reg 32 ^! \output_register.douta_reg  [31:0] $end
$var reg 32 _! \output_register.doutb_reg  [31:0] $end
$upscope $end
$scope module ptr_mem $end
$var wire 10 `! addra [9:0] $end
$var wire 32 a! dina [31:0] $end
$var wire 1 ! clka $end
$var wire 1 b! wea $end
$var wire 1 c! ena $end
$var wire 1 " rsta $end
$var wire 1 d! regcea $end
$var wire 32 e! douta [31:0] $end
$var reg 32 f! ram_data [31:0] $end
$var reg 32 g! \output_register.douta_reg  [31:0] $end
$upscope $end
$upscope $end
$scope module vmem $end
$var wire 1 ! clk_in $end
$var wire 1 " rst_in $end
$var wire 32 h! v_addr_in [31:0] $end
$var wire 1 i! v_addr_valid_in $end
$var reg 1 K visited_out $end
$var reg 1 L valid_v_out $end
$var reg 2 j! counter2 [1:0] $end
$var reg 1 k! visited $end
$var reg 1 l! write_v_valid_in $end
$scope module bram_3_2 $end
$var wire 10 m! addra [9:0] $end
$var wire 1 n! dina [0:0] $end
$var wire 1 ! clka $end
$var wire 1 o! wea $end
$var wire 1 p! ena $end
$var wire 1 " rsta $end
$var wire 1 q! regcea $end
$var wire 1 r! douta [0:0] $end
$var reg 1 s! ram_data [0:0] $end
$var reg 1 t! \output_register.douta_reg  [0:0] $end
$upscope $end
$upscope $end
$scope module graph $end
$var wire 1 ! clk_in $end
$var wire 1 " rst_in $end
$var wire 32 u! v_addr_in [31:0] $end
$var wire 1 v! valid_in $end
$var reg 1 2 ready_out $end
$var wire 1 w! pos_deq_in $end
$var reg 32 + data_out [31:0] $end
$var reg 1 / data_valid_out $end
$var reg 1 . pos_full_out $end
$var reg 1 - pos_empty_out $end
$var wire 1 x! neigh_deq_in $end
$var reg 32 * neigh_fifo_out [31:0] $end
$var reg 1 5 neigh_valid_out $end
$var reg 1 3 neigh_full_out $end
$var reg 1 4 neigh_empty_out $end
$var reg 1 6 reached_neigh_end_out $end
$var wire 1 y! mem_valid_in $end
$var wire 32 z! mem_data_in [31:0] $end
$var reg 1 > mem_valid_out $end
$var reg 32 @ mem_req_out [31:0] $end
$var wire 1 {! mem_valid_in2 $end
$var wire 32 |! mem_data_in2 [31:0] $end
$var reg 1 B mem_valid_out2 $end
$var reg 32 D mem_req_out2 [31:0] $end
$var reg 32 M visited_req_out [31:0] $end
$var reg 1 N visited_req_valid_out $end
$var wire 1 }! visited_val_returned_in $end
$var wire 1 ~! visited_val_returned_valid_in $end
$var reg 4 !" ct [3:0] $end
$var reg 1 "" req_ready_n $end
$var reg 1 #" req_ready_d $end
$var reg 1 $" valid_bit $end
$var reg 1 %" req_ready_v $end
$scope module neighbors $end
$var wire 1 ! clk_in $end
$var wire 1 " rst_in $end
$var wire 1 x! deq_in $end
$var wire 32 |! enq_data_in [31:0] $end
$var wire 1 &" enq_in $end
$var reg 1 3 full_out $end
$var reg 32 * data_out [31:0] $end
$var reg 1 4 empty_out $end
$var reg 1 5 valid_out $end
$var reg 3 '" read_ptr [2:0] $end
$var reg 3 (" write_ptr [2:0] $end
$scope begin Block27_34 $end
$var reg 32 )" i [31:0] $end
$upscope $end
$upscope $end
$scope module position $end
$var wire 1 ! clk_in $end
$var wire 1 " rst_in $end
$var wire 1 w! deq_in $end
$var wire 32 z! enq_data_in [31:0] $end
$var wire 1 *" enq_in $end
$var reg 1 . full_out $end
$var reg 32 + data_out [31:0] $end
$var reg 1 - empty_out $end
$var reg 1 / valid_out $end
$var reg 5 +" read_ptr [4:0] $end
$var reg 5 ," write_ptr [4:0] $end
$scope begin Block27_37 $end
$var reg 32 -" i [31:0] $end
$upscope $end
$upscope $end
$upscope $end
$upscope $end
$scope begin Block72_41 $end
$var reg 32 ." i [31:0] $end
$upscope $end
$upscope $end
$enddefinitions $end
#0
$dumpvars
0!
b1000 !!
bx !"
0"
x"!
x""
bx #
bx #!
x#"
bx $
x$!
x$"
bx %
x%!
x%"
x&
x&!
0&"
bx '
x'!
bx '"
bx (
bx (!
bx ("
bx )
bx )!
b0 )"
bx *
b0 *!
x*"
bx +
b0 +!
bx +"
bx ,
x,!
bx ,"
x-
bx -!
b0 -"
x.
bx .!
b10 ."
x/
x/!
0/"
x0
x0!
00"
x1
bx 1!
bx 1"
x2
bx 2!
bx 2"
x3
bx 3!
bx 3"
x4
bx 4!
bx 4"
x5
b11111111111111111111111111111111 5!
bx 5"
x6
x6!
bx 6"
bx 7
x7!
bx 7"
bx 8
b1000 8!
x9
x9!
bzxxxx :
bx :!
x;
x;!
x<
x<!
x=
x=!
x>
x>!
b0 ?
bx ?!
bx @
bx @!
xA
b0 A!
xB
b0 B!
b0 C
bx C!
bx D
xD!
xE
bx E!
xF
bx F!
xG
xG!
bx H
xH!
xI
bx I!
xJ
bx J!
0K
bx K!
xL
bx L!
bx M
xM!
xN
bx N!
xO
bx O!
xP
bx P!
xQ
b0 Q!
xR
b0 R!
xS
0S!
xT
0T!
bx U
1U!
bx V
1V!
bx W
1W!
bx X
1X!
bx Y
b0 Y!
bx Z
b0 Z!
bx [
b0 [!
bx \
b0 \!
x]
b10000000000 ]!
bx ^
b0 ^!
x_
b0 _!
b0 `
bx `!
xa
b0 a!
xb
0b!
bx c
1c!
bx d
1d!
bx e
b0 e!
b0 f
b0 f!
xg
b0 g!
xh
bx h!
xi
xi!
xj
bx j!
bx k
xk!
bx l
xl!
xm
bx m!
bx n
1n!
bx o
1o!
bx p
1p!
xq
1q!
xr
0r!
bx s
0s!
bx t
0t!
xu
bx u!
bx v
xv!
bx w
xw!
bx x
xx!
bx y
xy!
b0 z
b0 z!
x{
x{!
x|
b0 |!
x}
0}!
b0 ~
x~!
$end
#5000
1!
0"!
0#"
0$!
0*"
0/
1/"
b0 4"
05
b0 5"
06!
07!
09
09!
0;!
0=
0>
0A
0B
0G!
0H!
0L
b0 L!
0M!
0N
b0 N!
0P
b0 Y
bx [!
bx \!
0a
bx f!
0i
0i!
0j
xs!
0v!
0y!
0{
0{!
0|
0~!
#10000
0!
1"
b1 #
b100 $
0/"
10"
b1 2"
b100 3"
b101 4"
b111 5"
b1 6"
b1 7"
#15000
1!
b1000 !!
b0 !"
0""
b0 #!
1%!
0%"
0&
0&!
b0 '
1'!
b0 '"
b0x (
b0 (!
b0 ("
b0 )
b0 )!
b100 )"
b0 *
b1000 *!
b0 +
b1000 +!
b0 +"
b0 ,
0,!
b0 ,"
1-
b0x -!
b10000 -"
0.
b0 .!
0/!
1/"
00!
b0 1!
12
03
b0 3!
14
b0 4!
06
b1000 8!
bz0000 :
b0 :!
0;
1<
1<!
0=!
1>!
b0 ?!
b0 @!
b1000 A!
b1000 B!
b0 H
xH!
0I
0J
0O
0Q
0R
0S
1T
b0 W
b0 Z
b0 \
1]
b0 c
0g
xi
b0 k
b0 l
b0 n
0q
0r
b0 s
0u
b0 u!
b0 w
b0 x
b0 y
#20000
0!
0"
0/"
00"
#25000
1!
1/"
bx ?
b1 C!
1D!
xK
bx Y!
bx Z!
b1 ^
bx ^!
1_
bx _!
bx `
b1 `!
bx c
bx e!
bx f
bx g!
xr!
xt!
bx z!
x}!
#30000
0!
0/"
#35000
1!
1/"
b1 N!
b1 f!
#40000
0!
0/"
#45000
1!
1/"
b1 `
1a
b1 e!
b1 g!
#50000
0!
0/"
#55000
1!
1/"
0D!
0]
0_
1a
1b
#60000
0!
0/"
#65000
1!
b1 (
b1 -!
1/"
b10 F!
1H!
b0 N!
b10 P!
b10 d
b10 e
1h
1i
#70000
0!
0/"
#75000
1!
1/"
1M!
b1101001000 \!
0a
#80000
0!
0/"
#85000
1!
1/"
b1101001000 Z!
b1101001000 _!
b1101001000 c
b1101001000 f
1g
1j
#90000
0!
0/"
#95000
1!
b1 )
1/"
1j
#100000
0!
0/"
#105000
1!
b10 )
1/"
b11 F!
b11 P!
b11 d
b11 e
1j
b1 n
b0 o
#110000
0!
0/"
#115000
1!
b11 )
1/"
b100 F!
b100 P!
b110001010 \!
b100 d
b100 e
1j
b10 n
b1 o
b0 p
#120000
0!
0/"
#125000
1!
b100 )
1/"
b101 F!
b101 P!
b110001010 Z!
b1100001111 \!
b110001010 _!
b110001010 c
b101 d
b101 e
b110001010 f
1j
b10101010001110001001 l
b11 n
b10 o
b1 p
#130000
0!
0/"
#135000
1!
1/"
b110 F!
b110 P!
b1100001111 Z!
b1100011110 \!
b1100001111 _!
b1100001111 c
b110 d
b110 e
b1100001111 f
1j
b101010011101000001010 l
b0 n
b11 o
b10 p
#140000
0!
0/"
#145000
1!
1/"
b1100011110 Z!
b1001 \!
b1100011110 _!
b1100011110 c
b1100011110 f
1j
b111111111011110111011 l
b0 o
b11 p
#150000
0!
0/"
#155000
1!
b1010101011010101101100 .!
1/!
1/"
b1010101011010101101100 H
1I
b1001 Z!
b1001 _!
b1001 c
b1001 f
1j
b0 l
b0 p
#160000
0!
0/"
#165000
1!
b1 '
b0 )
1,!
b0 .!
0/!
1/"
b1 1!
b0 2!
b1010101011010101101100 5!
16!
b1000 8!
19!
bz0001 :
1;
0<
1A
b1001 C
bx F!
b0 H
0H!
0I
bx P!
b0 d
bx e
0h
0i
1j
1{!
b1001 |!
#170000
0!
0/"
#175000
1!
1%"
b1 ,
0,!
1/"
b0 1!
b1 4!
b11111111111111111111111111111111 5!
06!
17!
b1010101011010101101100 8
b1000 8!
19
09!
bz0000 :
0;
1;!
1<
0<!
1>
b1 ?!
b1001 @
b1001 E!
1G!
0M!
b1001 O!
bx \!
b1 s
b1010101011010101101100 t
b1 u!
1v!
#180000
0!
0/"
#185000
1!
0%"
b10 '
1/"
07!
09
0;!
1<!
b1 @!
0A
1B
bx C
b110 D
b110 F!
1H!
b1 L!
1O
b110 P!
bx Z!
b0 [
b10 [!
bx _!
b110 e
bx f
1i
0j
1u
0v!
0{!
bx |!
#190000
0!
0/"
#195000
1!
b1000 !!
1"!
1*"
1/"
1=
0>
b10 ?
0B
0G!
0H!
1M!
0O
0T
b10 Y!
b1 Z
b1001 \!
b10 ^!
0i
0u
b0 v
b1010101011010101101100 y
1y!
b1010101011010101101100 z
b10 z!
1{
#200000
0!
0/"
#205000
1!
b1 !"
0"!
0%!
b1 (!
b1 ,"
0-
1/"
1A
b1001 C
b0 L!
0M!
b1010101011010101101100 Y
b1001 Z!
b1001 _!
b1001 f
1j
b1 x
0{
1{!
b1001 |!
#210000
0!
0/"
#215000
1!
b10 !"
1%"
0*"
b10 ,"
1/"
0=
1>
0A
1G!
0j
0y!
0{!
#220000
0!
0/"
#225000
1!
1/"
0>
0G!
b1 L!
#230000
0!
0/"
#235000
1!
1/"
1=
b0 L!
1y!
#240000
0!
0/"
#245000
1!
1/"
0=
b10 M
1N
b10 h!
1i!
b10 m!
0y!
#250000
0!
0/"
#255000
1!
1/"
0N
0i!
b1 j!
0s!
#260000
0!
0/"
#265000
1!
1&"
1/"
0K
1L
b0 j!
0r!
1s!
0t!
0}!
1~!
#270000
0!
0/"
#275000
1!
1#"
0&"
b1 ("
1/"
04
1K
0L
1r!
1t!
1}!
0~!
#280000
0!
0/"
#285000
1!
0%"
b11 '
1/"
1>
b1010 @
b1010 E!
1F
1G!
b1010 O!
1x!
#290000
0!
0/"
#295000
1!
b1 '"
b1001 *
1/"
14
15
b1011 @
b1011 E!
0F
b1 L!
b1011 O!
b1110001111 [!
0x!
#300000
0!
0/"
#305000
1!
b1001 (
1*"
b1001 -!
1/"
05
1=
b1110001111 ?
b1100 @
b1100 E!
1G
b1100 O!
b1110001111 Y!
b11000101 [!
b1110001111 ^!
1w!
1y!
b1110001111 z!
#310000
0!
0/"
#315000
1!
b11 !"
b10 +
b1 +"
b11 ,"
1/
1/"
1=
b11000101 ?
b1101 @
b1101 E!
b1101 O!
b11000101 Y!
b101001111 [!
b11000101 ^!
b11000101 z!
#320000
0!
0/"
#325000
1!
b0 !"
0#"
b1 )
b10 +"
b100 ,"
1/"
1=
0>
b101001111 ?
1B
b111 D
b111 F!
0G!
1H!
b111 P!
b101001111 Y!
b1100000000 [!
b101001111 ^!
b111 e
1i
b101001111 z!
#330000
0!
0/"
#335000
1!
b1 !"
b10 )
b1110001111 +
b11 +"
b101 ,"
1/"
b1100000000 ?
0B
0H!
b0 L!
1M!
b1100000000 Y!
b10001 \!
b1100000000 ^!
0i
b1 n
b1100000000 z!
#340000
0!
0/"
#345000
1!
b10 !"
b11 )
0*"
b11000101 +
b100 +"
b110 ,"
1/"
0=
1A
b10001 C
0M!
b10001 Z!
b10001 _!
b10001 f
1j
b10 n
b1 o
0y!
1{!
b10001 |!
#350000
0!
0/"
#355000
1!
1%"
b100 )
b101001111 +
b101 +"
1/"
1>
b10001 @
0A
b10001 E!
1G!
b10001 O!
0j
b1001 l
b11 n
b10 o
b1 p
0{!
#360000
0!
0/"
#365000
1!
b1100000000 +
b110 +"
1-
1/"
0>
0G!
b1 L!
b11 [!
b100010 l
b0 n
b11 o
b10 p
#370000
0!
0/"
#375000
1!
0/
1/"
1=
b11 ?
b0 L!
b11 Y!
b11 ^!
b11001010001011100110 l
b0 o
b11 p
1y!
b11 z!
#380000
0!
0/"
#385000
1!
b11010011100011110110 .!
1/!
1/"
0=
b11010011100011110110 H
1I
b11 M
1N
b11 h!
1i!
b0 l
b11 m!
b0 p
0y!
#390000
0!
0/"
#395000
1!
b0 .!
0/!
1/"
b1 1!
b1 2!
b11010011100011110110 5!
16!
b1000 8!
19!
bz0001 :
0<
b0 H
0I
1J
0N
0i!
b1 j!
0s!
#400000
0!
0/"
#405000
1!
1&"
1/"
b10 4!
06!
09!
0<!
b10 ?!
0K
1L
b0 j!
0r!
1s!
0t!
0}!
1~!
#410000
0!
0/"
#415000
1!
1#"
0&"
b10 ("
1/"
04
1K
0L
1r!
1t!
1}!
0~!
#420000
0!
0/"
#425000
1!
0%"
1/"
1>
b10010 @
b10010 E!
1F
0G
1G!
0J
b10010 O!
0w!
1x!
#430000
0!
0/"
#435000
1!
b10 '"
b10001 *
1/"
14
15
b10011 @
b10011 E!
0F
b1 L!
b10011 O!
b100010101 [!
0x!
#440000
0!
0/"
#445000
1!
b10001 (
b0 )
1*"
b10001 -!
1/"
05
1=
b100010101 ?
b10100 @
b10100 E!
1G
b10100 O!
b100010101 Y!
b1000101001 [!
b100010101 ^!
1w!
1y!
b100010101 z!
#450000
0!
0/"
#455000
1!
b11 !"
b111 ,"
0-
1/"
1=
b1000101001 ?
b10101 @
b10101 E!
b10101 O!
b1000101001 Y!
b111011101 [!
b1000101001 ^!
b1000101001 z!
#460000
0!
0/"
#465000
1!
b0 !"
0#"
b100010101 +
b111 +"
b1000 ,"
1/
1/"
1=
0>
b111011101 ?
1B
b1000 D
b1000 F!
0G!
1H!
b1000 P!
b111011101 Y!
b1001110100 [!
b111011101 ^!
b1000 e
1i
b111011101 z!
#470000
0!
0/"
#475000
1!
b1 !"
b1 )
b1000101001 +
b1000 +"
b1001 ,"
1/"
b1001110100 ?
0B
0H!
b0 L!
1M!
b1001110100 Y!
b0 \!
b1001110100 ^!
0i
b1001110100 z!
#480000
0!
0/"
#485000
1!
b10 !"
b10 )
0*"
b111011101 +
b1001 +"
b1010 ,"
1/"
0=
1A
b0 C
0M!
b0 Z!
b0 _!
b0 f
1j
b1 n
0y!
1{!
b0 |!
#490000
0!
0/"
#495000
1!
b11 )
b1001110100 +
b1010 +"
1-
1/"
16
0A
0j
b10 n
b1 o
0{!
#500000
0!
0/"
#505000
1!
b100 )
0/
1/"
b10010000100000000 l
b11 n
b10 o
b1 p
#510000
0!
0/"
#515000
1!
1/"
b1011010110110000100 l
b0 n
b11 o
b10 p
#520000
0!
0/"
#525000
1!
1/"
b10010010001010010100 l
b0 o
b11 p
#530000
0!
0/"
#535000
1!
b11110010001000111101 .!
1/!
1/"
b11110010001000111101 H
1I
b0 l
b0 p
#540000
0!
0/"
#545000
1!
b100 '
b0 .!
0/!
1/"
b10 1!
b11010011100011110110 5!
16!
b1000 8!
19!
bz0010 :
b0 H
0I
#550000
0!
0/"
#555000
1!
b1 '
1,!
1/"
b11 4!
06!
09!
1;
b11 ?!
#560000
0!
0/"
#565000
1!
b1001 ,
0,!
1/"
b1 1!
b10 2!
b1 3!
b11110010001000111101 5!
17!
b11010011100011110110 8
b1000 8!
19
bz0001 :
b1 :!
0;
1;!
b1001 s
b11010011100011110110 t
b1001 u!
1v!
#570000
0!
0/"
#575000
1!
b0 !"
b10 '
1/"
06
07!
09
0;!
b10 @!
1B
b1110 D
b1110 F!
1H!
1O
b1110 P!
b1110 e
1i
1u
0v!
#580000
0!
0/"
#585000
1!
b1000 !!
1"!
1/"
0B
0H!
1M!
0O
b10 Z
b1 \!
0i
0u
b1010101011010101101100 y
b1010101011010101101100 z
1{
#590000
0!
0/"
#595000
1!
0"!
b10 (!
1/"
1A
b1 C
0M!
b1 Z!
b1 _!
b1 f
1j
b10 x
0{
1{!
b1 |!
#600000
0!
0/"
#605000
1!
1%"
1/"
1>
b1 @
0A
b1 E!
1G!
b1 O!
0j
0{!
#610000
0!
0/"
#615000
1!
1/"
0>
0G!
b1 L!
b1 [!
#620000
0!
0/"
#625000
1!
1/"
1=
b1 ?
b0 L!
b1 Y!
b1 ^!
1y!
b1 z!
#630000
0!
0/"
#635000
1!
1/"
0=
b1 M
1N
b1 h!
1i!
b1 m!
0y!
#640000
0!
0/"
#645000
1!
1/"
0N
0i!
b1 j!
#650000
0!
0/"
#655000
1!
1/"
1L
b0 j!
1~!
#660000
0!
0/"
#665000
1!
1""
0%"
1/"
0L
0~!
#670000
0!
0/"
#675000
1!
0""
1/"
1B
b1111 D
b1111 F!
1H!
b1111 P!
b1111 e
1i
#680000
0!
0/"
#685000
1!
1/"
0B
0H!
1M!
b10001 \!
0i
#690000
0!
0/"
#695000
1!
1/"
1A
b10001 C
0M!
b10001 Z!
b10001 _!
b10001 f
1j
1{!
b10001 |!
#700000
0!
0/"
#705000
1!
1%"
1/"
1>
b10001 @
0A
b10001 E!
1G!
b10001 O!
0j
0{!
#710000
0!
0/"
#715000
1!
1/"
0>
0G!
b1 L!
b11 [!
#720000
0!
0/"
#725000
1!
1/"
1=
b11 ?
b0 L!
b11 Y!
b11 ^!
1y!
b11 z!
#730000
0!
0/"
#735000
1!
1/"
0=
b11 M
1N
b11 h!
1i!
b11 m!
0y!
#740000
0!
0/"
#745000
1!
1/"
0N
0i!
b1 j!
#750000
0!
0/"
#755000
1!
1/"
1L
b0 j!
1~!
#760000
0!
0/"
#765000
1!
1""
0%"
1/"
0L
0~!
#770000
0!
0/"
#775000
1!
0""
1/"
1B
b10000 D
b10000 F!
1H!
b10000 P!
b10000 e
1i
#780000
0!
0/"
#785000
1!
1/"
0B
0H!
1M!
b0 \!
0i
#790000
0!
0/"
#795000
1!
1/"
1A
b0 C
0M!
b0 Z!
b0 _!
b0 f
1j
1{!
b0 |!
#800000
0!
0/"
#805000
1!
1/"
16
0A
0j
0{!
#810000
0!
0/"
#815000
1!
b100 '
1/"
#820000
0!
0/"
#825000
1!
b1 '
1,!
1/"
1;
#830000
0!
0/"
#835000
1!
b10001 ,
0,!
1/"
b0 1!
b10 3!
b11111111111111111111111111111111 5!
17!
b11110010001000111101 8
b1000 8!
19
bz0000 :
b10 :!
0;
1;!
1<
b10001 s
b11110010001000111101 t
b10001 u!
1v!
#840000
0!
0/"
#845000
1!
b10 '
1/"
06
07!
09
0;!
1<!
b11 @!
1B
b10110 D
b10110 F!
1H!
1O
b10110 P!
b10110 e
1i
1u
0v!
#850000
0!
0/"
#855000
1!
b1000 !!
1"!
1/"
0B
0H!
1M!
0O
b11 Z
b1 \!
0i
0u
b1010101011010101101100 y
b1010101011010101101100 z
1{
#860000
0!
0/"
#865000
1!
0"!
b11 (!
1/"
1A
b1 C
0M!
b1 Z!
b1 _!
b1 f
1j
b11 x
0{
1{!
b1 |!
#870000
0!
0/"
#875000
1!
1%"
1/"
1>
b1 @
0A
b1 E!
1G!
b1 O!
0j
0{!
#880000
0!
0/"
#885000
1!
1/"
0>
0G!
b1 L!
b1 [!
#890000
0!
0/"
#895000
1!
1/"
1=
b1 ?
b0 L!
b1 Y!
b1 ^!
1y!
b1 z!
#900000
0!
0/"
#905000
1!
1/"
0=
b1 M
1N
b1 h!
1i!
b1 m!
0y!
#910000
0!
0/"
#915000
1!
1/"
0N
0i!
b1 j!
#920000
0!
0/"
#925000
1!
1/"
1L
b0 j!
1~!
#930000
0!
0/"
#935000
1!
1""
0%"
1/"
0L
0~!
#940000
0!
0/"
#945000
1!
0""
1/"
1B
b10111 D
b10111 F!
1H!
b10111 P!
b10111 e
1i
#950000
0!
0/"
#955000
1!
1/"
0B
0H!
1M!
b1001 \!
0i
#960000
0!
0/"
#965000
1!
1/"
1A
b1001 C
0M!
b1001 Z!
b1001 _!
b1001 f
1j
1{!
b1001 |!
#970000
0!
0/"
#975000
1!
1%"
1/"
1>
b1001 @
0A
b1001 E!
1G!
b1001 O!
0j
0{!
#980000
0!
0/"
#985000
1!
1/"
0>
0G!
b1 L!
b10 [!
#990000
0!
0/"
#995000
1!
1/"
1=
b10 ?
b0 L!
b10 Y!
b10 ^!
1y!
b10 z!
#1000000
0!
0/"
#1005000
1!
1/"
0=
b10 M
1N
b10 h!
1i!
b10 m!
0y!
#1010000
0!
0/"
#1015000
1!
1/"
0N
0i!
b1 j!
#1020000
0!
0/"
#1025000
1!
1/"
1L
b0 j!
1~!
#1030000
0!
0/"
