base/dump.vcd
$date
   Fri Nov  3 14:47:31 2023
$end
$version
  2023.1
$end
$timescale
  1ps
$end
$scope module distance_tb $end
$var reg 1 / clk_in $end
$var reg 1 0 rst_in $end
$var reg 32 # distance_sq_out [31:0] $end
$var reg 1 $ data_valid_out $end
$var reg 32 1 vertex_pos_in0 [31:0] $end
$var reg 32 2 vertex_pos_in1 [31:0] $end
$var reg 32 3 vertex_pos_in2 [31:0] $end
$var reg 32 4 vertex_pos_in3 [31:0] $end
$var reg 32 5 vertex_pos_in4 [31:0] $end
$var reg 32 6 vertex_pos_in5 [31:0] $end
$var reg 32 7 vertex_pos_in6 [31:0] $end
$var reg 32 8 vertex_pos_in7 [31:0] $end
$var reg 32 9 vertex_pos_in8 [31:0] $end
$var reg 32 : query_pos_in0 [31:0] $end
$var reg 32 ; query_pos_in1 [31:0] $end
$var reg 32 < query_pos_in2 [31:0] $end
$var reg 32 = query_pos_in3 [31:0] $end
$var reg 32 > query_pos_in4 [31:0] $end
$var reg 32 ? query_pos_in5 [31:0] $end
$var reg 32 @ query_pos_in6 [31:0] $end
$var reg 32 A query_pos_in7 [31:0] $end
$var reg 32 B query_pos_in8 [31:0] $end
$var reg 1 C data_valid_in0 $end
$var reg 1 D data_valid_in1 $end
$var reg 1 E data_valid_in2 $end
$var reg 1 F data_valid_in3 $end
$var reg 1 G data_valid_in4 $end
$var reg 1 H data_valid_in5 $end
$var reg 1 I data_valid_in6 $end
$var reg 1 J data_valid_in7 $end
$var reg 1 K data_valid_in8 $end
$scope module distance_calculator $end
$var wire 1 ! clk_in $end
$var wire 1 " rst_in $end
$var reg 32 # distance_sq_out [31:0] $end
$var reg 1 $ data_valid_out $end
$var reg 3 % state [2:0] $end
$var reg 2 & i [1:0] $end
$var reg 2 ' j [1:0] $end
$scope module add_distances $end
$var wire 1 ! clk_in $end
$var wire 1 " rst_in $end
$var wire 1 ( data_valid_in $end
$var reg 32 # distance_sq_out [31:0] $end
$var reg 1 $ data_valid_out $end
$var reg 32 ) \genblk1.distance1  [31:0] $end
$var reg 32 * \genblk1.distance2  [31:0] $end
$var reg 32 + \genblk1.total_distance  [31:0] $end
$var reg 1 , \genblk1.add_valid1  $end
$var reg 1 - \genblk1.add_valid2  $end
$scope module genblk1.adder1 $end
$var wire 1 ! clk_in $end
$var wire 1 " rst_in $end
$var wire 1 ( data_valid_in $end
$var reg 32 ) distance_sq_out [31:0] $end
$var reg 1 , data_valid_out $end
$upscope $end
$scope module genblk1.adder2 $end
$var wire 1 ! clk_in $end
$var wire 1 " rst_in $end
$var wire 1 ( data_valid_in $end
$var reg 32 * distance_sq_out [31:0] $end
$var reg 1 - data_valid_out $end
$upscope $end
$upscope $end
$upscope $end
$scope begin Block98_6 $end
$var reg 32 . i [31:0] $end
$upscope $end
$upscope $end
$enddefinitions $end
#0
$dumpvars
0!
0"
b0 #
0$
bx %
bx &
bx '
x(
bx )
bx *
bx +
x,
x-
b11 .
0/
00
bx 1
bx 2
bx 3
bx 4
bx 5
bx 6
bx 7
bx 8
bx 9
bx :
bx ;
bx <
bx =
bx >
bx ?
bx @
bx A
bx B
xC
xD
xE
xF
xG
xH
xI
xJ
xK
$end
#5000
1!
0,
0-
1/
b0 1
b0 2
b0 3
b0 :
b0 ;
b0 <
0C
0D
0E
#10000
0!
1"
0/
10
#15000
1!
b0 %
b0 &
0(
b0 )
b0 *
1/
#20000
0!
0"
0/
00
b10010 :
b1100001 ;
b101101 <
#25000
1!
1/
#30000
0!
0/
#35000
1!
1/
#40000
0!
0/
b1111010100 1
1C
#45000
1!
b1 &
b0 '
1/
#50000
0!
0/
b1011001 2
0C
1D
#55000
1!
b10 &
b1 '
1/
#60000
0!
0/
b1100 3
0D
1E
#65000
1!
b0 &
b10 '
1/
#70000
0!
0/
0E
#75000
1!
b0 '
1/
#80000
0!
0/
#85000
1!
b1 %
1(
1/
#90000
0!
0/
#95000
1!
b11100010001110000101 #
1$
b11100001111100000100 )
b10010000001 *
1,
1-
1/
#100000
0!
0/
#105000
1!
b0 %
0(
1/
#110000
0!
0/
#115000
1!
b0 #
0$
0,
0-
1/
