base/dump.vcd
$date
   Fri Dec  8 14:25:31 2023
$end
$version
  2023.1
$end
$timescale
  1ps
$end
$scope module bfis_tb $end
$var reg 1 K" clk_in $end
$var reg 1 L" rst_in $end
$var reg 32 M" vertex_in [31:0] $end
$var reg 32 N" vertex_id_in [31:0] $end
$var reg 16 O" k_in [15:0] $end
$var reg 32 % top_k_out [31:0] $end
$var reg 1 & valid_out $end
$var reg 32 P" query_pos_in0 [31:0] $end
$var reg 32 Q" query_pos_in1 [31:0] $end
$var reg 32 R" query_pos_in2 [31:0] $end
$var reg 32 S" query_pos_in3 [31:0] $end
$var reg 3 ' state [2:0] $end
$scope module bfis_m $end
$var wire 1 ! clk_in $end
$var wire 1 " rst_in $end
$var wire 32 # vertex_id_in [31:0] $end
$var wire 16 $ k_in [15:0] $end
$var reg 32 % top_k_out [31:0] $end
$var reg 1 & valid_out $end
$var reg 3 ' state [2:0] $end
$var reg 32 ( point_addr [31:0] $end
$var reg 3 ) ct_dist [2:0] $end
$var reg 32 * neigh_fifo_out [31:0] $end
$var reg 32 + data_out [31:0] $end
$var reg 32 , v_addr_in [31:0] $end
$var reg 1 - pos_empty_out $end
$var reg 1 . pos_full_out $end
$var reg 1 / fetch_data_valid_out $end
$var reg 1 0 pos_deq_in $end
$var reg 1 1 valid_in $end
$var reg 1 2 ready_out $end
$var reg 1 3 neigh_full_out $end
$var reg 1 4 neigh_empty_out $end
$var reg 1 5 neigh_valid_out $end
$var reg 1 6 reached_neigh_end_out $end
$var reg 32 7 pq_out [31:0] $end
$var reg 32 8 pq_dist_out [31:0] $end
$var reg 1 9 pq_valid_out $end
$var reg 4 : pq_size [3:0] $end
$var reg 1 ; pq_deq_in $end
$var reg 1 < pq_empty_out $end
$var reg 1 = mem_valid_in $end
$var reg 1 > mem_valid_out $end
$var reg 32 ? mem_data_in [31:0] $end
$var reg 32 @ mem_req_out [31:0] $end
$var reg 1 A mem_valid_in2 $end
$var reg 1 B mem_valid_out2 $end
$var reg 32 C mem_data_in2 [31:0] $end
$var reg 32 D mem_req_out2 [31:0] $end
$var reg 1 E data_valid_out $end
$var reg 1 F neigh_deq $end
$var reg 1 G pos_deq $end
$var reg 32 H dist_out [31:0] $end
$var reg 1 I dist_valid_out $end
$var reg 1 J distance_complete $end
$var reg 1 K visited $end
$var reg 1 L valid_visited $end
$var reg 32 M visited_addr_in [31:0] $end
$var reg 1 N visited_addr_valid_in $end
$var reg 1 O checked_valid_in $end
$var reg 1 P checked_valid_out $end
$var reg 1 Q checked_max_deq $end
$var reg 1 R checked_min_deq $end
$var reg 1 S checked_full_out $end
$var reg 1 T checked_empty_out $end
$var reg 32 U checked_data_in [31:0] $end
$var reg 32 V checked_tag_in [31:0] $end
$var reg 32 W checked_data_out [31:0] $end
$var reg 32 X checked_tag_out [31:0] $end
$var reg 32 Y checked_max_tag [31:0] $end
$var reg 4 Z checked_size [3:0] $end
$var reg 6 [ checked_counter [5:0] $end
$var reg 16 \ k_count [15:0] $end
$var reg 1 ] initial_lookup $end
$var reg 32 ^ idx_lookup_addr [31:0] $end
$var reg 1 _ idx_lookup_addr_valid $end
$var reg 32 ` idxaddr_out [31:0] $end
$var reg 1 a idxaddr_out_valid $end
$var reg 1 b checked_proc_deq $end
$var reg 1 c vertex_addr_in $end
$var reg 32 d vertex_in [31:0] $end
$var reg 32 e first_pos_lookup_addr [31:0] $end
$var reg 32 f mem_req_out2_route [31:0] $end
$var reg 32 g mem_data_in2_route [31:0] $end
$var reg 1 h vertex_valid_in $end
$var reg 1 i first_pos_lookup_addr_valid $end
$var reg 1 j mem_valid_out2_route $end
$var reg 1 k mem_valid_in2_route $end
$scope module distance_calc $end
$var wire 1 ! clk_in $end
$var wire 1 " rst_in $end
$var reg 32 H distance_sq_out [31:0] $end
$var reg 1 I data_valid_out $end
$var reg 3 l state [2:0] $end
$var reg 32 m distance [31:0] $end
$var reg 1 n valid_add_out $end
$var reg 2 o i [1:0] $end
$var reg 2 p k [1:0] $end
$scope begin Block79_2 $end
$var reg 32 q j [31:0] $end
$upscope $end
$upscope $end
$scope module checked $end
$var wire 1 ! clk_in $end
$var wire 1 " rst_in $end
$var wire 1 r deq_smallest_in $end
$var wire 1 s deq_largest_in $end
$var wire 32 t enq_data_in [31:0] $end
$var wire 32 u enq_tag_in [31:0] $end
$var wire 1 v enq_in $end
$var reg 1 S full_out $end
$var reg 32 W data_out [31:0] $end
$var reg 32 X tag_out [31:0] $end
$var reg 4 Z size_out [3:0] $end
$var reg 1 T empty_out $end
$var reg 1 P valid_out $end
$var reg 32 Y max_tag_out [31:0] $end
$var reg 1 b proc_deq_ready $end
$var reg 4 w read_ptr_min [3:0] $end
$var reg 4 x read_ptr_max [3:0] $end
$var reg 4 y prev_read_ptr [3:0] $end
$var reg 4 z write_ptr [3:0] $end
$var reg 32 { curval [31:0] $end
$var reg 32 | maxval [31:0] $end
$var reg 1 } rem_lru $end
$var reg 1 ~ push_lru $end
$var reg 1 !! deq_high $end
$var reg 5 "! i [4:0] $end
$var reg 1 #! ready $end
$var reg 33 $! tmp_out [32:0] $end
$var reg 2 %! in_req_out [1:0] $end
$var reg 1 &! in_req_valid_out $end
$scope module buf_out_max $end
$var wire 1 ! clk_in $end
$var wire 1 " rst_in $end
$var wire 1 '! deq_in $end
$var wire 2 (! enq_data_in [1:0] $end
$var wire 1 )! enq_in $end
$var reg 1 *! full_out $end
$var reg 2 %! data_out [1:0] $end
$var reg 1 b empty_out $end
$var reg 1 &! valid_out $end
$var reg 4 +! read_ptr [3:0] $end
$var reg 4 ,! write_ptr [3:0] $end
$scope begin Block27_7 $end
$var reg 32 -! i [31:0] $end
$upscope $end
$upscope $end
$scope module lru_cache $end
$var wire 1 ! clk_in $end
$var wire 1 " rst_in $end
$var wire 1 .! deq_in $end
$var wire 4 /! enq_data_in [3:0] $end
$var wire 1 0! enq_in $end
$var reg 1 1! full_out $end
$var reg 4 z data_out [3:0] $end
$var reg 1 2! empty_out $end
$var reg 1 3! valid_out $end
$var reg 4 4! read_ptr [3:0] $end
$var reg 4 5! write_ptr [3:0] $end
$scope begin Block240_10 $end
$var reg 32 6! i [31:0] $end
$upscope $end
$upscope $end
$scope begin Block162_12 $end
$var reg 32 7! i [31:0] $end
$upscope $end
$upscope $end
$scope module s $end
$var wire 1 ! clk_in $end
$var wire 1 " rst_in $end
$var wire 1 8! deq_smallest_in $end
$var wire 1 9! deq_largest_in $end
$var wire 32 :! enq_data_in [31:0] $end
$var wire 32 ;! enq_tag_in [31:0] $end
$var wire 1 <! enq_in $end
$var reg 1 =! full_out $end
$var reg 32 , data_out [31:0] $end
$var reg 32 8 tag_out [31:0] $end
$var reg 4 : size_out [3:0] $end
$var reg 1 < empty_out $end
$var reg 1 9 valid_out $end
$var reg 32 >! max_tag_out [31:0] $end
$var reg 1 ?! proc_deq_ready $end
$var reg 4 @! read_ptr_min [3:0] $end
$var reg 4 A! read_ptr_max [3:0] $end
$var reg 4 B! prev_read_ptr [3:0] $end
$var reg 4 C! write_ptr [3:0] $end
$var reg 32 D! curval [31:0] $end
$var reg 32 E! maxval [31:0] $end
$var reg 1 F! rem_lru $end
$var reg 1 G! push_lru $end
$var reg 1 H! deq_high $end
$var reg 5 I! i [4:0] $end
$var reg 1 J! ready $end
$var reg 33 K! tmp_out [32:0] $end
$var reg 2 L! in_req_out [1:0] $end
$var reg 1 M! in_req_valid_out $end
$scope module buf_out_max $end
$var wire 1 ! clk_in $end
$var wire 1 " rst_in $end
$var wire 1 N! deq_in $end
$var wire 2 O! enq_data_in [1:0] $end
$var wire 1 P! enq_in $end
$var reg 1 Q! full_out $end
$var reg 2 L! data_out [1:0] $end
$var reg 1 ?! empty_out $end
$var reg 1 M! valid_out $end
$var reg 4 R! read_ptr [3:0] $end
$var reg 4 S! write_ptr [3:0] $end
$scope begin Block27_7 $end
$var reg 32 T! i [31:0] $end
$upscope $end
$upscope $end
$scope module lru_cache $end
$var wire 1 ! clk_in $end
$var wire 1 " rst_in $end
$var wire 1 U! deq_in $end
$var wire 4 V! enq_data_in [3:0] $end
$var wire 1 W! enq_in $end
$var reg 1 X! full_out $end
$var reg 4 C! data_out [3:0] $end
$var reg 1 Y! empty_out $end
$var reg 1 Z! valid_out $end
$var reg 4 [! read_ptr [3:0] $end
$var reg 4 \! write_ptr [3:0] $end
$scope begin Block240_19 $end
$var reg 32 ]! i [31:0] $end
$upscope $end
$upscope $end
$scope begin Block162_21 $end
$var reg 32 ^! i [31:0] $end
$upscope $end
$upscope $end
$scope module gmem $end
$var wire 1 ! clk_in $end
$var wire 1 " rst_in $end
$var wire 32 _! idx_addr [31:0] $end
$var wire 1 `! idx_validin $end
$var wire 32 a! data_addra [31:0] $end
$var wire 32 b! data_addrb [31:0] $end
$var wire 1 c! data_validina $end
$var wire 1 d! data_validinb $end
$var reg 32 ` rowidx_out [31:0] $end
$var reg 32 ? data_outa [31:0] $end
$var reg 32 g data_outb [31:0] $end
$var reg 1 = data_valid_outa $end
$var reg 1 k data_valid_outb $end
$var reg 1 a rowidx_valid_out $end
$var reg 32 e! addra [31:0] $end
$var reg 32 f! addrb [31:0] $end
$var reg 32 g! addrc [31:0] $end
$var reg 2 h! cta [1:0] $end
$var reg 1 i! ctb $end
$var reg 2 j! ctc [1:0] $end
$scope module data_mem $end
$var wire 10 k! addra [9:0] $end
$var wire 10 l! addrb [9:0] $end
$var wire 32 m! dina [31:0] $end
$var wire 32 n! dinb [31:0] $end
$var wire 1 ! clka $end
$var wire 1 ! clkb $end
$var wire 1 o! wea $end
$var wire 1 p! web $end
$var wire 1 q! ena $end
$var wire 1 r! enb $end
$var wire 1 " rsta $end
$var wire 1 " rstb $end
$var wire 1 s! regcea $end
$var wire 1 t! regceb $end
$var wire 32 u! douta [31:0] $end
$var wire 32 v! doutb [31:0] $end
$var reg 32 w! ram_data_a [31:0] $end
$var reg 32 x! ram_data_b [31:0] $end
$var integer 32 y! idx [31:0] $end
$var reg 32 z! \output_register.douta_reg  [31:0] $end
$var reg 32 {! \output_register.doutb_reg  [31:0] $end
$upscope $end
$scope module ptr_mem $end
$var wire 10 |! addra [9:0] $end
$var wire 32 }! dina [31:0] $end
$var wire 1 ! clka $end
$var wire 1 ~! wea $end
$var wire 1 !" ena $end
$var wire 1 " rsta $end
$var wire 1 "" regcea $end
$var wire 32 #" douta [31:0] $end
$var reg 32 $" ram_data [31:0] $end
$var reg 32 %" \output_register.douta_reg  [31:0] $end
$upscope $end
$upscope $end
$scope module vmem $end
$var wire 1 ! clk_in $end
$var wire 1 " rst_in $end
$var wire 32 &" v_addr_in [31:0] $end
$var wire 1 '" v_addr_valid_in $end
$var reg 1 K visited_out $end
$var reg 1 L valid_v_out $end
$var reg 2 (" counter2 [1:0] $end
$var reg 1 )" visited $end
$var reg 1 *" write_v_valid_in $end
$scope module bram_3_2 $end
$var wire 10 +" addra [9:0] $end
$var wire 1 ," dina [0:0] $end
$var wire 1 ! clka $end
$var wire 1 -" wea $end
$var wire 1 ." ena $end
$var wire 1 " rsta $end
$var wire 1 /" regcea $end
$var wire 1 0" douta [0:0] $end
$var reg 1 1" ram_data [0:0] $end
$var reg 1 2" \output_register.douta_reg  [0:0] $end
$upscope $end
$upscope $end
$scope module graph $end
$var wire 1 ! clk_in $end
$var wire 1 " rst_in $end
$var wire 32 3" v_addr_in [31:0] $end
$var wire 1 4" valid_in $end
$var reg 1 2 ready_out $end
$var wire 1 5" pos_deq_in $end
$var reg 32 + data_out [31:0] $end
$var reg 1 / data_valid_out $end
$var reg 1 . pos_full_out $end
$var reg 1 - pos_empty_out $end
$var wire 1 6" neigh_deq_in $end
$var reg 32 * neigh_fifo_out [31:0] $end
$var reg 1 5 neigh_valid_out $end
$var reg 1 3 neigh_full_out $end
$var reg 1 4 neigh_empty_out $end
$var reg 1 6 reached_neigh_end_out $end
$var wire 1 7" mem_valid_in $end
$var wire 32 8" mem_data_in [31:0] $end
$var reg 1 > mem_valid_out $end
$var reg 32 @ mem_req_out [31:0] $end
$var wire 1 9" mem_valid_in2 $end
$var wire 32 :" mem_data_in2 [31:0] $end
$var reg 1 B mem_valid_out2 $end
$var reg 32 D mem_req_out2 [31:0] $end
$var reg 32 M visited_req_out [31:0] $end
$var reg 1 N visited_req_valid_out $end
$var wire 1 ;" visited_val_returned_in $end
$var wire 1 <" visited_val_returned_valid_in $end
$var reg 4 =" ct [3:0] $end
$var reg 1 >" req_ready_n $end
$var reg 1 ?" req_ready_d $end
$var reg 1 @" valid_bit $end
$var reg 1 A" req_ready_v $end
$scope module neighbors $end
$var wire 1 ! clk_in $end
$var wire 1 " rst_in $end
$var wire 1 6" deq_in $end
$var wire 32 :" enq_data_in [31:0] $end
$var wire 1 B" enq_in $end
$var reg 1 3 full_out $end
$var reg 32 * data_out [31:0] $end
$var reg 1 4 empty_out $end
$var reg 1 5 valid_out $end
$var reg 3 C" read_ptr [2:0] $end
$var reg 3 D" write_ptr [2:0] $end
$scope begin Block27_38 $end
$var reg 32 E" i [31:0] $end
$upscope $end
$upscope $end
$scope module position $end
$var wire 1 ! clk_in $end
$var wire 1 " rst_in $end
$var wire 1 5" deq_in $end
$var wire 32 8" enq_data_in [31:0] $end
$var wire 1 F" enq_in $end
$var reg 1 . full_out $end
$var reg 32 + data_out [31:0] $end
$var reg 1 - empty_out $end
$var reg 1 / valid_out $end
$var reg 5 G" read_ptr [4:0] $end
$var reg 5 H" write_ptr [4:0] $end
$scope begin Block27_41 $end
$var reg 32 I" i [31:0] $end
$upscope $end
$upscope $end
$upscope $end
$upscope $end
$scope begin Block72_45 $end
$var reg 32 J" i [31:0] $end
$upscope $end
$upscope $end
$enddefinitions $end
#0
$dumpvars
0!
x!!
1!"
0"
bx "!
1""
bx #
x#!
b0 #"
bx $
bx $!
b0 $"
bx %
bx %!
b0 %"
x&
x&!
bx &"
bx '
x'!
x'"
bx (
bx (!
bx ("
bx )
x)!
x)"
bx *
x*!
x*"
bx +
bx +!
bx +"
bx ,
bx ,!
1,"
x-
b0 -!
1-"
x.
x.!
1."
x/
bx /!
1/"
x0
x0!
00"
x1
x1!
01"
x2
x2!
02"
x3
x3!
bx 3"
x4
bx 4!
x4"
x5
bx 5!
x5"
x6
b0 6!
x6"
bx 7
b0 7!
x7"
bx 8
x8!
b0 8"
x9
z9!
x9"
bx :
bx :!
b0 :"
x;
bx ;!
0;"
x<
x<!
x<"
x=
x=!
bx ="
x>
bx >!
x>"
b0 ?
x?!
x?"
bx @
bx @!
x@"
xA
bx A!
xA"
xB
bx B!
0B"
bx C
bx C!
bx C"
bx D
bx D!
bx D"
xE
bx E!
b0 E"
xF
xF!
xF"
xG
xG!
bx G"
bx H
xH!
bx H"
xI
bx I!
b0 I"
xJ
xJ!
b10 J"
0K
bx K!
0K"
xL
bx L!
0L"
bx M
xM!
bx M"
xN
xN!
bx N"
xO
bxz O!
bx O"
xP
xP!
bx P"
xQ
xQ!
bx Q"
xR
bx R!
bx R"
xS
bx S!
bx S"
xT
b0 T!
bx U
xU!
bx V
bx V!
bx W
xW!
bx X
xX!
bx Y
xY!
bx Z
xZ!
bx [
bx [!
bx \
bx \!
x]
b0 ]!
bx ^
b0 ^!
x_
bx _!
b0 `
x`!
xa
bx a!
xb
bx b!
xc
xc!
bx d
xd!
bx e
bx e!
bx f
bx f!
b0 g
bx g!
xh
bx h!
xi
xi!
xj
bx j!
xk
bx k!
bx l
bx l!
bx m
b0 m!
xn
b0 n!
bx o
0o!
bx p
0p!
b0 q
1q!
xr
1r!
xs
1s!
bx t
1t!
bx u
b0 u!
xv
b0 v!
bx w
b0 w!
bx x
b0 x!
bx y
b10000000000 y!
bx z
b0 z!
bx {
b0 {!
bx |
bx |!
x}
b0 }!
x~
0~!
$end
#5000
1!
b0xxxxxxxxxxxxxxxxxxxxxxxxxxxxxxxx $!
bx $"
0&!
0'"
0.!
0/
00!
x1"
04"
05
07"
09
09"
0<"
0=
0>
0?"
0B
0F!
0F"
0G!
b0xxxxxxxxxxxxxxxxxxxxxxxxxxxxxxxx K!
1K"
0L
0M!
0N
0P
b0 P"
b0 Q"
0U!
0W!
0a
0c!
b0 h!
0i!
b0 j!
0k
bx w!
bx x!
0}
0~
#10000
0!
1"
b1 #
b100 $
0K"
1L"
b1 N"
b100 O"
b101 P"
b111 Q"
b1 R"
b1 S"
#15000
1!
0!!
b0 "!
b0 %!
0&
b0 '
b0 (
b0 (!
b0 )
0)!
b0 *
0*!
b0 +
b0 +!
b0 ,
b0 ,!
1-
b1000 -!
0.
b0 /!
11!
12
02!
03
13!
b0 3"
14
b0 4!
b0 5!
06
b101 6!
b101 7!
08!
b0 :
b0 :!
0;
b0 ;!
1<
0<!
0=!
b0 ="
b0 >!
0>"
1?!
0A"
b0 B!
b0 C!
b0 C"
b11111111111111111111111111111111 D!
b0 D"
b0 E!
b100 E"
b0 G"
b0 H
0H!
b0 H"
0I
b0 I!
b10000 I"
0J
1K"
b0 L!
0O
b0z O!
0Q
0Q!
0R
b0 R!
0S
b0 S!
1T
b1000 T!
b0 V!
b0 W
1X!
b0 Y
0Y!
b0 Z
1Z!
b0 [!
b0 \
b0 \!
1]
b1000 ]!
b1000 ^!
1b
0d!
b0 l
b0 m
b0 o
0r
0s
b0 t
0v
b0 y
b0 z
b11111111111111111111111111111111 {
b0 |
#20000
0!
0"
0K"
0L"
#25000
1!
b1 "!
0#!
bx #"
b0 $!
bx %"
0'!
x0"
x2"
bx 8"
bx :"
x;"
bx ?
b1 I!
0J!
xK
b0 K!
1K"
0N!
0]
b1 ^
1_
b1 _!
bx `
1`!
bx g
b100 q
bx u!
bx v!
bx z!
bx {!
b1 |!
#30000
0!
0K"
#35000
1!
b10 "!
b1 $"
b10 I!
1K"
0_
0`!
b1 j!
b100 q
#40000
0!
0K"
#45000
1!
b11 "!
b1 #"
b1 %"
b11 I!
1K"
b1 `
1a
b0 j!
b100 q
#50000
0!
0K"
#55000
1!
b100 "!
b1 '
b1 (
b1 :!
b100 I!
1K"
0a
b10 b!
1d!
b10 e
1i
b10 l!
b100 q
#60000
0!
0K"
#65000
1!
b101 "!
b101 I!
1K"
0d!
0i
1i!
b100 q
b1101001000 x!
#70000
0!
0K"
#75000
1!
b0 "!
1#!
b0xxxxxxxxxxxxxxxxxxxxxxxxxxxxxxxx $!
1'!
19"
b1101001000 :"
b110 I!
1K"
b1101001000 g
0i!
1k
b100 q
b1101001000 v!
b1101001000 {!
#80000
0!
0K"
#85000
1!
b1 "!
0#!
b0 $!
0'!
b1 )
09"
1>
b1101001000 @
1A"
b111 I!
1K"
b1101001000 a!
b11 b!
1c!
1d!
b11 e
1i
0k
b1101001000 k!
b11 l!
b100 q
#90000
0!
0K"
#95000
1!
b10 "!
0>
b1000 I!
1K"
0c!
0d!
b1 h!
0i
1i!
b1 o
b100 q
b110001010 x!
#100000
0!
0K"
#105000
1!
b11 "!
17"
19"
b110001010 :"
1=
b0 I!
1J!
b0xxxxxxxxxxxxxxxxxxxxxxxxxxxxxxxx K!
1K"
1N!
b110001010 g
b0 h!
0i!
1k
b100 q
b110001010 v!
b110001010 {!
#110000
0!
0K"
#115000
1!
b100 "!
b10 )
07"
09"
0=
1>
b110001010 @
b1 I!
0J!
b0 K!
1K"
0N!
b110001010 a!
b100 b!
1c!
1d!
b100 e
1i
0k
b110001010 k!
b100 l!
b100 q
#120000
0!
0K"
#125000
1!
b101 "!
0>
b10 I!
1K"
0c!
0d!
b1 h!
0i
1i!
b10 o
b100 q
b1100001111 x!
#130000
0!
0K"
#135000
1!
b0 "!
1#!
b0xxxxxxxxxxxxxxxxxxxxxxxxxxxxxxxx $!
1'!
17"
19"
b1100001111 :"
1=
b11 I!
1K"
b1100001111 g
b0 h!
0i!
1k
b100 q
b1100001111 v!
b1100001111 {!
#140000
0!
0K"
#145000
1!
b1 "!
0#!
b0 $!
0'!
b11 )
07"
09"
0=
1>
b1100001111 @
b100 I!
1K"
b1100001111 a!
b101 b!
1c!
1d!
b101 e
1i
0k
b1100001111 k!
b101 l!
b100 q
#150000
0!
0K"
#155000
1!
b10 "!
0>
b101 I!
1K"
0c!
0d!
b1 h!
0i
1i!
b11 o
b100 q
b1100011110 x!
#160000
0!
0K"
#165000
1!
b11 "!
17"
19"
b1100011110 :"
1=
b110 I!
1K"
b1100011110 g
b0 h!
0i!
1k
b100 q
b1100011110 v!
b1100011110 {!
#170000
0!
0K"
#175000
1!
b100 "!
b100 )
07"
09"
0=
1>
b1100011110 @
b111 I!
1K"
b1100011110 a!
b110 b!
1c!
1d!
b110 e
1i
0k
b1100011110 k!
b110 l!
b100 q
#180000
0!
0K"
#185000
1!
b101 "!
0>
b1000 I!
1K"
0c!
0d!
b1 h!
0i
1i!
b0 o
b100 q
b1001 x!
#190000
0!
0K"
#195000
1!
b0 "!
1#!
b0xxxxxxxxxxxxxxxxxxxxxxxxxxxxxxxx $!
1'!
17"
19"
b1001 :"
1=
b0 I!
1J!
b0xxxxxxxxxxxxxxxxxxxxxxxxxxxxxxxx K!
1K"
1N!
b1001 g
b0 h!
0i!
1k
b100 q
b1001 v!
b1001 {!
#200000
0!
0K"
#205000
1!
b1 "!
0#!
b0 $!
0'!
07"
09"
0=
1>
b1001 @
b1 I!
0J!
b0 K!
1K"
0N!
b1001 a!
1c!
0k
b1001 k!
b100 q
#210000
0!
0K"
#215000
1!
b10 "!
0>
b10 I!
1K"
0c!
b1 h!
b100 q
b10 w!
#220000
0!
0K"
#225000
1!
b11 "!
17"
b10 8"
1=
b10 ?
b11 I!
1K"
b0 h!
b100 q
b10 u!
b10 z!
#230000
0!
0K"
#235000
1!
b100 "!
b10 &"
1'"
b10 +"
07"
0=
b100 I!
1K"
b10 M
1N
b100 q
#240000
0!
0K"
#245000
1!
b101 "!
0'"
b1 ("
01"
b101 I!
1K"
0N
b100 q
#250000
0!
0K"
#255000
1!
b0 "!
1#!
b0xxxxxxxxxxxxxxxxxxxxxxxxxxxxxxxx $!
1'!
b0 ("
00"
11"
02"
0;"
1<"
1B"
b110 I!
0K
1K"
1L
b100 q
#260000
0!
0K"
#265000
1!
b1 "!
0#!
b0 $!
0'!
10"
12"
04
1;"
0<"
1?"
0B"
b1 D"
b111 I!
1K
1K"
0L
b100 q
#270000
0!
0K"
#275000
1!
b10 "!
1>
b1010 @
0A"
b1000 I!
1K"
b1010 a!
1c!
b1010 k!
b100 q
#280000
0!
0K"
#285000
1!
b11 "!
b1011 @
b0 I!
1J!
b0xxxxxxxxxxxxxxxxxxxxxxxxxxxxxxxx K!
1K"
1N!
b1011 a!
b1 h!
b1011 k!
b100 q
b1110001111 w!
#290000
0!
0K"
#295000
1!
b100 "!
17"
b1110001111 8"
1=
b1110001111 ?
b1100 @
1F"
b1 I!
0J!
b0 K!
1K"
0N!
b1100 a!
b1100 k!
b100 q
b1110001111 u!
b11000101 w!
b1110001111 z!
#300000
0!
0K"
#305000
1!
b101 "!
0-
b11000101 8"
1=
b1 ="
b11000101 ?
b1101 @
b1 H"
b10 I!
1K"
b1101 a!
b1101 k!
b100 q
b11000101 u!
b101001111 w!
b11000101 z!
#310000
0!
0K"
#315000
1!
b0 "!
1#!
b0xxxxxxxxxxxxxxxxxxxxxxxxxxxxxxxx $!
1'!
b101001111 8"
1=
b10 ="
0>
b101001111 ?
0?"
b10 H"
b11 I!
1K"
0c!
b100 q
b101001111 u!
b1100000000 w!
b101001111 z!
#320000
0!
0K"
#325000
1!
b1 "!
0#!
b0 $!
0'!
b1100000000 8"
b11 ="
b1100000000 ?
b11 H"
b100 I!
1K"
b0 h!
b100 q
b1100000000 u!
b1100000000 z!
#330000
0!
0K"
#335000
1!
b10 "!
07"
0=
b0 ="
1B
0F"
b100 H"
b101 I!
1K"
b100 q
#340000
0!
0K"
#345000
1!
b11 "!
0B
b110 I!
1K"
b100 q
#350000
0!
0K"
#355000
1!
b100 "!
b111 I!
1K"
b100 q
#360000
0!
0K"
#365000
1!
b101 "!
b1000 I!
1K"
b100 q
#370000
0!
0K"
#375000
1!
b0 "!
1#!
b0xxxxxxxxxxxxxxxxxxxxxxxxxxxxxxxx $!
1'!
b0 I!
1J!
b0xxxxxxxxxxxxxxxxxxxxxxxxxxxxxxxx K!
1K"
1N!
b100 q
#380000
0!
0K"
#385000
1!
b1 "!
0#!
b0 $!
0'!
b1 I!
0J!
b0 K!
1K"
0N!
b100 q
#390000
0!
0K"
#395000
1!
b10 "!
b10 I!
1K"
b100 q
#400000
0!
0K"
#405000
1!
b11 "!
b11 I!
1K"
b100 q
#410000
0!
0K"
#415000
1!
b100 "!
b100 I!
1K"
b100 q
#420000
0!
0K"
#425000
1!
b101 "!
b101 I!
1K"
b0 p
b100 q
#430000
0!
0K"
#435000
1!
b0 "!
1#!
b0xxxxxxxxxxxxxxxxxxxxxxxxxxxxxxxx $!
1'!
b110 I!
1K"
b10101010001110001001 m
b100 q
#440000
0!
0K"
#445000
1!
b1 "!
0#!
b0 $!
0'!
b111 I!
1K"
b100 q
#450000
0!
0K"
#455000
1!
b10 "!
b1000 I!
1K"
b1 p
b100 q
#460000
0!
0K"
#465000
1!
b11 "!
b0 I!
1J!
b0xxxxxxxxxxxxxxxxxxxxxxxxxxxxxxxx K!
1K"
1N!
b11001110110010010010 m
b100 q
#470000
0!
0K"
#475000
1!
b100 "!
b1 I!
0J!
b0 K!
1K"
0N!
b100 q
#480000
0!
0K"
#485000
1!
b101 "!
b10 I!
1K"
b10 p
b100 q
#490000
0!
0K"
#495000
1!
b0 "!
1#!
b0xxxxxxxxxxxxxxxxxxxxxxxxxxxxxxxx $!
1'!
b11 I!
1K"
b101100100000101010110 m
b100 q
#500000
0!
0K"
#505000
1!
b1 "!
0#!
b0 $!
0'!
b100 I!
1K"
b100 q
#510000
0!
0K"
#515000
1!
b10 "!
b101 I!
1K"
b11 p
b100 q
#520000
0!
0K"
#525000
1!
b11 "!
b111111111001010011111 ;!
1<!
b111111111001010011111 H
1I
b110 I!
1K"
b0 m
b0 p
b100 q
#530000
0!
0K"
#535000
1!
b100 "!
b10 '
b0 )
18!
b1 :
1;
b0 ;!
0<
0<!
1F!
b0 H
0I
b111 I!
1K"
b1z O!
1P!
1U!
bx b!
b0 e
bx l!
b100 q
#540000
0!
0K"
#545000
1!
b101 "!
08!
0;
0?!
b1 C!
0F!
1H!
b1000 I!
1K"
b0z O!
xP!
b1 S!
0U!
0X!
b1 [!
b100 q
bx x!
#550000
0!
0K"
#555000
1!
b0 "!
1#!
b0xxxxxxxxxxxxxxxxxxxxxxxxxxxxxxxx $!
1'!
bx :"
b0 I!
1J!
b0xxxxxxxxxxxxxxxxxxxxxxxxxxxxxxxx K!
1K"
1N!
bx g
b100 q
bx v!
bx {!
#560000
0!
0K"
#565000
1!
b1 "!
0#!
b0 $!
0'!
1?!
b0 @!
b0 A!
b111111111001010011111 D!
b111111111001010011111 E!
b1 I!
0J!
b111111111001010011111 K!
1K"
b1z L!
1M!
0N!
b1 R!
b100 q
#570000
0!
0K"
#575000
1!
b10 "!
b1 ,
b1 3"
14"
b111111111001010011111 8
19
b0 :
1<
b111111111001010011111 >!
1G!
b10 I!
b0 K!
1K"
0M!
1W!
b100 q
b1 t
b111111111001010011111 u
#580000
0!
0K"
#585000
1!
b11 "!
b11 '
04"
09
1B
b110 D
b11111111111111111111111111111111 D!
b0 E!
0G!
0H!
b11 I!
1K"
1O
0W!
1X!
b0 [
b1 \!
b110 b!
1d!
b110 l!
b100 q
1v
#590000
0!
0K"
#595000
1!
b100 "!
b100 '
1.!
16"
b0 >!
0B
1F
b100 I!
1K"
0O
0T
b1 Z
0d!
1i!
b100 q
0v
b1001 x!
1}
#600000
0!
0K"
#605000
1!
b101 "!
b0 %
b1001 *
0.!
01!
14
b1 4!
15
06"
19"
b1001 :"
b1 C"
0F
b101 I!
1K"
b1001 g
0i!
1k
b100 q
b1001 v!
b1 z
b1001 {!
0}
#610000
0!
0K"
#615000
1!
b0 "!
1#!
b0xxxxxxxxxxxxxxxxxxxxxxxxxxxxxxxx $!
b1001 %
1'!
b1001 (
05
15"
09"
b1001 :!
1>
b1001 @
1A"
1G
b110 I!
1K"
b1001 a!
1c!
0k
b1001 k!
b100 q
#620000
0!
0K"
#625000
1!
b1 "!
0#!
b111111111001010011111 $!
0'!
b1110001111 +
1/
0>
b1 G"
b111 I!
1K"
0c!
b1 h!
b100 q
b0 w
b10 w!
b0 x
b111111111001010011111 {
b111111111001010011111 |
#630000
0!
0K"
#635000
1!
b10 "!
b0 $!
b1 )
b11000101 +
17"
b10 8"
1=
b10 ?
b10 G"
b1000 I!
1K"
b111111111001010011111 Y
b0 h!
b100 q
b10 u!
b10 z!
#640000
0!
0K"
#645000
1!
b11 "!
1'"
b10 )
b101001111 +
07"
0=
b11 G"
b0 I!
1J!
b0xxxxxxxxxxxxxxxxxxxxxxxxxxxxxxxx K!
1K"
1N
1N!
b1 o
b100 q
#650000
0!
0K"
#655000
1!
b100 "!
0'"
b1 ("
b11 )
b1100000000 +
1-
b100 G"
b1 I!
0J!
b111111111001010011111 K!
1K"
0N
0N!
b10 o
b100 q
#660000
0!
0K"
#665000
1!
b101 "!
b0 ("
b100 )
0/
05"
1<"
0G
b10 I!
b0 K!
1K"
1L
b11 o
b100 q
#670000
0!
0K"
#675000
1!
b0 "!
1#!
b0xxxxxxxxxxxxxxxxxxxxxxxxxxxxxxxx $!
1'!
0<"
1>"
0A"
b11 I!
1K"
0L
b0 o
b100 q
#680000
0!
0K"
#685000
1!
b1 "!
0#!
b111111111001010011111 $!
0'!
0>"
1B
b111 D
b100 I!
1K"
b111 b!
1d!
b111 l!
b100 q
#690000
0!
0K"
