base/dump.vcd
$date
   Wed Dec  6 03:50:32 2023
$end
$version
  2023.1
$end
$timescale
  1ps
$end
$scope module bfis_tb $end
$var reg 1 [! clk_in $end
$var reg 1 \! rst_in $end
$var reg 32 ]! vertex_in [31:0] $end
$var reg 32 ^! vertex_addr_in [31:0] $end
$var reg 1 _! vertex_valid_in $end
$var reg 16 `! k_in [15:0] $end
$var reg 1 ' valid_out $end
$var reg 32 a! query_pos_in0 [31:0] $end
$var reg 32 b! query_pos_in1 [31:0] $end
$var reg 32 c! top_k_out0 [31:0] $end
$var reg 32 d! top_k_out1 [31:0] $end
$var reg 32 e! top_k_out2 [31:0] $end
$var reg 32 f! top_k_out3 [31:0] $end
$var reg 32 g! query_pos_in2 [31:0] $end
$var reg 32 h! query_pos_in3 [31:0] $end
$var reg 5 ( state [4:0] $end
$scope module bfis_m $end
$var wire 1 ! clk_in $end
$var wire 1 " rst_in $end
$var wire 32 # vertex_in [31:0] $end
$var wire 32 $ vertex_addr_in [31:0] $end
$var wire 1 % vertex_valid_in $end
$var wire 16 & k_in [15:0] $end
$var reg 1 ' valid_out $end
$var reg 5 ( state [4:0] $end
$var reg 32 ) point_addr [31:0] $end
$var reg 3 * ct_dist [2:0] $end
$var reg 32 + neigh_fifo_out [31:0] $end
$var reg 32 , data_out [31:0] $end
$var reg 32 - v_addr_in [31:0] $end
$var reg 1 . pos_empty_out $end
$var reg 1 / pos_full_out $end
$var reg 1 0 fetch_data_valid_out $end
$var reg 1 1 pos_deq_in $end
$var reg 1 2 valid_in $end
$var reg 1 3 ready_out $end
$var reg 1 4 neigh_full_out $end
$var reg 1 5 neigh_empty_out $end
$var reg 1 6 neigh_valid_out $end
$var reg 1 7 reached_neigh_end_out $end
$var reg 32 8 pq_out [31:0] $end
$var reg 32 9 pq_dist_out [31:0] $end
$var reg 1 : pq_valid_out $end
$var reg 4 ; pq_size [3:0] $end
$var reg 1 < pq_deq_in $end
$var reg 1 = mem_valid_in $end
$var reg 32 > mem_data_in [31:0] $end
$var reg 1 ? mem_valid_out $end
$var reg 32 @ mem_req_out [31:0] $end
$var reg 1 A mem_valid_in2 $end
$var reg 32 B mem_data_in2 [31:0] $end
$var reg 1 C mem_valid_out2 $end
$var reg 32 D mem_req_out2 [31:0] $end
$var reg 1 E data_valid_out $end
$var reg 1 F neigh_deq $end
$var reg 1 G pos_deq $end
$var reg 32 H dist_out [31:0] $end
$var reg 1 I dist_valid_out $end
$var reg 1 J checked $end
$var reg 1 K visited $end
$var reg 1 L valid_checked $end
$var reg 1 M valid_visited $end
$var reg 32 N visited_addr_in [31:0] $end
$var reg 1 O visited_addr_valid_in $end
$var reg 1 P distance_complete $end
$scope module distance_calc $end
$var wire 1 ! clk_in $end
$var wire 1 " rst_in $end
$var reg 32 H distance_sq_out [31:0] $end
$var reg 1 I data_valid_out $end
$var reg 3 Q state [2:0] $end
$var reg 32 R distance [31:0] $end
$var reg 1 S valid_add_out $end
$var reg 2 T i [1:0] $end
$var reg 2 U j [1:0] $end
$var reg 2 V k [1:0] $end
$upscope $end
$scope module s $end
$var wire 1 ! clk_in $end
$var wire 1 " rst_in $end
$var wire 1 W deq_in $end
$var wire 32 X enq_data_in [31:0] $end
$var wire 32 Y enq_tag_in [31:0] $end
$var wire 1 Z enq_in $end
$var reg 1 [ full_out $end
$var reg 32 - data_out [31:0] $end
$var reg 32 9 tag_out [31:0] $end
$var reg 4 ; size_out [3:0] $end
$var reg 1 \ empty_out $end
$var reg 1 : valid_out $end
$var reg 4 ] read_ptr [3:0] $end
$var reg 4 ^ write_ptr [3:0] $end
$var reg 32 _ curval [31:0] $end
$var reg 1 ` rem_lru $end
$var reg 1 a push_lru $end
$scope begin Block39_3 $end
$var reg 32 b i [31:0] $end
$upscope $end
$scope module lru_cache $end
$var wire 1 ! clk_in $end
$var wire 1 " rst_in $end
$var wire 1 c deq_in $end
$var wire 4 d enq_data_in [3:0] $end
$var wire 1 e enq_in $end
$var reg 1 f full_out $end
$var reg 4 ^ data_out [3:0] $end
$var reg 1 g empty_out $end
$var reg 1 h valid_out $end
$var reg 4 i read_ptr [3:0] $end
$var reg 4 j write_ptr [3:0] $end
$scope begin Block133_6 $end
$var reg 32 k i [31:0] $end
$upscope $end
$upscope $end
$scope begin Block62_8 $end
$var reg 32 l i [31:0] $end
$upscope $end
$upscope $end
$scope module gmem $end
$var wire 1 ! clk_in $end
$var wire 1 " rst_in $end
$var wire 32 m idx_addr [31:0] $end
$var wire 1 n idx_validin $end
$var wire 32 o data_addra [31:0] $end
$var wire 32 p data_addrb [31:0] $end
$var wire 1 q data_validina $end
$var wire 1 r data_validinb $end
$var reg 32 s rowidx_out [31:0] $end
$var reg 32 > data_outa [31:0] $end
$var reg 32 B data_outb [31:0] $end
$var reg 1 = data_valid_outa $end
$var reg 1 A data_valid_outb $end
$var reg 1 t rowidx_valid_out $end
$var reg 32 u addra [31:0] $end
$var reg 32 v addrb [31:0] $end
$var reg 32 w addrc [31:0] $end
$var reg 2 x cta [1:0] $end
$var reg 1 y ctb $end
$var reg 2 z ctc [1:0] $end
$scope module data_mem $end
$var wire 10 { addra [9:0] $end
$var wire 10 | addrb [9:0] $end
$var wire 32 } dina [31:0] $end
$var wire 32 ~ dinb [31:0] $end
$var wire 1 ! clka $end
$var wire 1 ! clkb $end
$var wire 1 !! wea $end
$var wire 1 "! web $end
$var wire 1 #! ena $end
$var wire 1 $! enb $end
$var wire 1 " rsta $end
$var wire 1 " rstb $end
$var wire 1 %! regcea $end
$var wire 1 &! regceb $end
$var wire 32 '! douta [31:0] $end
$var wire 32 (! doutb [31:0] $end
$var reg 32 )! ram_data_a [31:0] $end
$var reg 32 *! ram_data_b [31:0] $end
$var integer 32 +! idx [31:0] $end
$var reg 32 ,! \output_register.douta_reg  [31:0] $end
$var reg 32 -! \output_register.doutb_reg  [31:0] $end
$upscope $end
$scope module ptr_mem $end
$var wire 10 .! addra [9:0] $end
$var wire 32 /! dina [31:0] $end
$var wire 1 ! clka $end
$var wire 1 0! wea $end
$var wire 1 1! ena $end
$var wire 1 " rsta $end
$var wire 1 2! regcea $end
$var wire 32 3! douta [31:0] $end
$var reg 32 4! ram_data [31:0] $end
$var reg 32 5! \output_register.douta_reg  [31:0] $end
$upscope $end
$upscope $end
$scope module vmem $end
$var wire 1 ! clk_in $end
$var wire 1 " rst_in $end
$var wire 32 6! v_addr_in [31:0] $end
$var wire 1 7! v_addr_valid_in $end
$var reg 1 K visited_out $end
$var reg 1 M valid_v_out $end
$var reg 2 8! counter2 [1:0] $end
$var reg 1 9! visited $end
$var reg 1 :! write_v_valid_in $end
$scope module bram_3_2 $end
$var wire 10 ;! addra [9:0] $end
$var wire 1 <! dina [0:0] $end
$var wire 1 ! clka $end
$var wire 1 =! wea $end
$var wire 1 >! ena $end
$var wire 1 " rsta $end
$var wire 1 ?! regcea $end
$var wire 1 @! douta [0:0] $end
$var reg 1 A! ram_data [0:0] $end
$var reg 1 B! \output_register.douta_reg  [0:0] $end
$upscope $end
$upscope $end
$scope module graph $end
$var wire 1 ! clk_in $end
$var wire 1 " rst_in $end
$var wire 32 C! v_addr_in [31:0] $end
$var wire 1 D! valid_in $end
$var reg 1 3 ready_out $end
$var wire 1 E! pos_deq_in $end
$var reg 32 , data_out [31:0] $end
$var reg 1 0 data_valid_out $end
$var reg 1 / pos_full_out $end
$var reg 1 . pos_empty_out $end
$var wire 1 F! neigh_deq_in $end
$var reg 32 + neigh_fifo_out [31:0] $end
$var reg 1 6 neigh_valid_out $end
$var reg 1 4 neigh_full_out $end
$var reg 1 5 neigh_empty_out $end
$var reg 1 7 reached_neigh_end_out $end
$var wire 1 G! mem_valid_in $end
$var wire 32 H! mem_data_in [31:0] $end
$var reg 1 ? mem_valid_out $end
$var reg 32 @ mem_req_out [31:0] $end
$var wire 1 I! mem_valid_in2 $end
$var wire 32 J! mem_data_in2 [31:0] $end
$var reg 1 C mem_valid_out2 $end
$var reg 32 D mem_req_out2 [31:0] $end
$var reg 32 N visited_req_out [31:0] $end
$var reg 1 O visited_req_valid_out $end
$var wire 1 K! visited_val_returned_in $end
$var wire 1 L! visited_val_returned_valid_in $end
$var reg 4 M! ct [3:0] $end
$var reg 1 N! req_ready_n $end
$var reg 1 O! req_ready_d $end
$var reg 1 P! valid_bit $end
$var reg 1 Q! req_ready_v $end
$scope module neighbors $end
$var wire 1 ! clk_in $end
$var wire 1 " rst_in $end
$var wire 1 F! deq_in $end
$var wire 32 J! enq_data_in [31:0] $end
$var wire 1 R! enq_in $end
$var reg 1 4 full_out $end
$var reg 32 + data_out [31:0] $end
$var reg 1 5 empty_out $end
$var reg 1 6 valid_out $end
$var reg 3 S! read_ptr [2:0] $end
$var reg 3 T! write_ptr [2:0] $end
$scope begin Block27_25 $end
$var reg 32 U! i [31:0] $end
$upscope $end
$upscope $end
$scope module position $end
$var wire 1 ! clk_in $end
$var wire 1 " rst_in $end
$var wire 1 E! deq_in $end
$var wire 32 H! enq_data_in [31:0] $end
$var wire 1 V! enq_in $end
$var reg 1 / full_out $end
$var reg 32 , data_out [31:0] $end
$var reg 1 . empty_out $end
$var reg 1 0 valid_out $end
$var reg 5 W! read_ptr [4:0] $end
$var reg 5 X! write_ptr [4:0] $end
$scope begin Block27_28 $end
$var reg 32 Y! i [31:0] $end
$upscope $end
$upscope $end
$upscope $end
$upscope $end
$scope begin Block72_32 $end
$var reg 32 Z! i [31:0] $end
$upscope $end
$upscope $end
$enddefinitions $end
#0
$dumpvars
0!
0!!
0"
0"!
bx #
1#!
bx $
1$!
x%
1%!
bx &
1&!
x'
b0 '!
bx (
b0 (!
bx )
b0 )!
bx *
b0 *!
bx +
b10000000000 +!
bx ,
b0 ,!
bx -
b0 -!
x.
bz .!
x/
b0 /!
x0
00!
x1
11!
x2
12!
x3
b0 3!
x4
b0 4!
x5
b0 5!
x6
bx 6!
x7
x7!
bx 8
bx 8!
bx 9
x9!
x:
x:!
bx ;
bx ;!
x<
1<!
x=
1=!
b0 >
1>!
x?
1?!
bx @
0@!
xA
0A!
b0 B
0B!
xC
bx C!
bx D
xD!
xE
xE!
xF
xF!
xG
xG!
bx H
b0 H!
xI
xI!
xJ
b0 J!
0K
0K!
xL
xL!
xM
bx M!
bx N
xN!
xO
xO!
xP
xP!
bx Q
xQ!
bx R
0R!
xS
bx S!
bx T
bx T!
bx U
b0 U!
bx V
xV!
xW
bx W!
bx X
bx X!
bx Y
b0 Y!
xZ
b10 Z!
x[
0[!
x\
0\!
bx ]
bx ]!
bx ^
bx ^!
b11111111111111111111111111111111 _
x_!
x`
bx `!
xa
bx a!
b1000 b
bx b!
xc
bx c!
bx d
bx d!
xe
bx e!
xf
bx f!
xg
bx g!
xh
bx h!
bx i
bx j
b0 k
b0 l
bz m
zn
bx o
bx p
xq
xr
b0 s
xt
bx u
bx v
bx w
bx x
xy
bx z
bx {
bx |
b0 }
b0 ~
$end
#5000
1!
bx )!
bx *!
00
bx 4!
06
17
07!
0:
0=
0?
0A
xA!
0C
0D!
0G!
0I!
0L!
0M
0O
0O!
0V!
1[!
0`
0a
b0 a!
b0 b!
0c
0e
0q
0r
0t
b0 x
0y
#10000
0!
1"
0[!
1\!
#15000
1!
0'
b0 (
b0 *
b0 +
b0 ,
b0 -
1.
0/
13
04
15
07
b0 ;
0<
b0 C!
b0 H
0I
b0 M!
0N!
0P
b0 Q
0Q!
b0 R
b0 S!
b0 T
b0 T!
b100 U!
0W
b0 W!
b0 X!
b0 Y
b10000 Y!
0Z
0[
1[!
1\
b0 ]
b0 ^
b1000 b
b0 d
1f
0g
1h
b0 i
b0 j
b1000 k
b1000 l
#20000
0!
0"
b1101001000 #
b1 $
1%
0[!
0\!
b1101001000 ]!
b1 ^!
1_!
b101 a!
b111 b!
b1 g!
b1 h!
#25000
1!
bx '!
bx (!
b1 )
b1 *
bx ,!
bx -!
bx 3!
bx 5!
17
bx >
x@!
bx B
xB!
bx H!
bx J!
xK
xK!
b1 X
1[!
bx s
#30000
0!
0%
0[!
0_!
b0 e!
b0 f!
#35000
1!
07
b1 T
b0 U
1[!
#40000
0!
b110001010 #
1%
0[!
b110001010 ]!
1_!
#45000
1!
b10 *
b0 V
1[!
#50000
0!
0%
0[!
0_!
#55000
1!
b10101010001110001001 R
b10 T
b1 U
1[!
#60000
0!
b1100001111 #
1%
0[!
b1100001111 ]!
1_!
#65000
1!
b11 *
b1 V
1[!
#70000
0!
0%
0[!
0_!
#75000
1!
b11001110110010010010 R
b11 T
b10 U
1[!
#80000
0!
b1100011110 #
1%
0[!
b1100011110 ]!
1_!
#85000
1!
b100 *
b10 V
1[!
#90000
0!
0%
0[!
0_!
#95000
1!
b101100100000101010110 R
b0 T
b11 U
1[!
#100000
0!
0[!
#105000
1!
b0 U
b11 V
1[!
#110000
0!
0[!
#115000
1!
b111111111001010011111 H
1I
b0 R
b0 V
b111111111001010011111 Y
1Z
1[!
#120000
0!
0[!
#125000
1!
b1 (
b0 *
b1 ;
1<
b0 H
0I
1W
b0 Y
0Z
1[!
0\
b111111111001010011111 _
1`
b1000 b
1c
#130000
0!
0[!
b1 e!
b1 f!
#135000
1!
b1 -
b111111111001010011111 9
1:
b0 ;
0<
b1 C!
1D!
0W
1[!
1\
b1 ]
b1 ^
b11111111111111111111111111111111 _
0`
1a
b1000 b
0c
b1 d
1e
0f
b1 i
#140000
0!
0[!
b0 c!
b0 d!
b0 e!
b0 f!
#145000
1!
0:
1C
b110 D
0D!
1[!
0a
0e
1f
b1 j
b110 p
1r
b110 |
#150000
0!
0[!
#155000
1!
b1001 *!
0C
1[!
0r
1y
#160000
0!
0[!
#165000
1!
b1001 (!
b1001 -!
1A
b1001 B
1I!
b1001 J!
1[!
0y
#170000
0!
0[!
#175000
1!
1?
b1001 @
0A
0I!
1Q!
1[!
b1001 o
1q
b1001 {
#180000
0!
0[!
#185000
1!
b10 )!
0?
1[!
0q
b1 x
#190000
0!
0[!
#195000
1!
b10 '!
b10 ,!
1=
b10 >
1G!
b10 H!
1[!
b0 x
#200000
0!
0[!
#205000
1!
b10 6!
17!
b10 ;!
0=
0G!
b10 N
1O
1[!
#210000
0!
0[!
#215000
1!
07!
b1 8!
0A!
0O
1[!
#220000
0!
0[!
#225000
1!
b0 8!
0@!
1A!
0B!
0K
0K!
1L!
1M
1R!
1[!
#230000
0!
0[!
#235000
1!
05
1@!
1B!
1K
1K!
0L!
0M
1O!
0R!
b1 T!
1[!
#240000
0!
0[!
#245000
1!
b10 (
1?
b1010 @
1F
1F!
0Q!
1[!
b1010 o
1q
b1010 {
#250000
0!
0[!
#255000
1!
b1110001111 )!
b1001 +
15
16
b1011 @
0F
0F!
b1 S!
1[!
b1011 o
b1 x
b1011 {
#260000
0!
0[!
#265000
1!
b1110001111 '!
b1001 )
b11000101 )!
b1110001111 ,!
06
1=
b1110001111 >
b1100 @
1E!
1G
1G!
b1110001111 H!
1V!
b1001 X
1[!
b1100 o
b1100 {
#270000
0!
0[!
b1001 c!
b1 d!
#275000
1!
b11000101 '!
b101001111 )!
b11000101 ,!
0.
1=
b11000101 >
b1101 @
b11000101 H!
b1 M!
b1 X!
1[!
b1101 o
b1101 {
#280000
0!
0[!
b0 d!
#285000
1!
b101001111 '!
b1100000000 )!
b1110001111 ,
b101001111 ,!
10
1=
b101001111 >
0?
b101001111 H!
b10 M!
0O!
b1 W!
b10 X!
1[!
0q
#290000
0!
0[!
#295000
1!
b1100000000 '!
b1 *
b11000101 ,
b1100000000 ,!
b1100000000 >
b1100000000 H!
b11 M!
b10 W!
b11 X!
1[!
b0 x
#300000
0!
0[!
b1110001111 e!
b1 f!
#305000
1!
b10 *
b101001111 ,
0=
1C
b111 D
0G!
b0 M!
b1 T
0V!
b11 W!
b100 X!
1[!
b111 p
1r
b111 |
#310000
0!
0[!
b11000101 e!
#315000
1!
b11 *
b10001 *!
b1100000000 ,
1.
0C
b10 T
b1 U
b100 W!
1[!
0r
1y
#320000
0!
0[!
b101001111 e!
#325000
1!
b10001 (!
b100 *
b10001 -!
00
1A
b10001 B
1I!
b10001 J!
b11001000011001100100 R
b11 T
b10 U
b1 V
1[!
0y
#330000
0!
0[!
b1100000000 e!
#335000
1!
1?
b10001 @
0A
0I!
1Q!
b11010001001101101000 R
b0 T
b11 U
b10 V
1[!
b10001 o
1q
b10001 {
#340000
0!
0[!
b0 f!
#345000
1!
b11 )!
0?
b11101100011100101100 R
b0 U
b11 V
1[!
0q
b1 x
#350000
0!
0[!
#355000
1!
b11 '!
b11 ,!
1=
b11 >
1G!
b101111100000100101101 H
b11 H!
1I
b0 R
b0 V
b101111100000100101101 Y
1Z
1[!
b0 x
#360000
0!
0[!
#365000
1!
b11 6!
17!
b1 ;
b11 ;!
0=
0G!
b0 H
0I
b11 N
1O
1P
b0 Y
0Z
1[!
0\
b101111100000100101101 _
1`
b1000 b
1c
#370000
0!
0[!
#375000
1!
07!
b1 8!
0A!
0O
1[!
b10 ^
0`
0c
0f
b10 i
#380000
0!
0[!
#385000
1!
b0 8!
0@!
1A!
0B!
0K
0K!
1L!
1M
1R!
1[!
#390000
0!
0[!
#395000
1!
05
1@!
1B!
1K
1K!
0L!
0M
1O!
0R!
b10 T!
1[!
#400000
0!
0[!
#405000
1!
1?
b10010 @
0E!
1F
1F!
0G
0P
0Q!
1[!
b10010 o
1q
b10010 {
#410000
0!
0[!
#415000
1!
b100010101 )!
b10001 +
15
16
b10011 @
0F
0F!
b10 S!
1[!
b10011 o
b1 x
b10011 {
#420000
0!
0[!
#425000
1!
b100010101 '!
b10001 )
b1000101001 )!
b0 *
b100010101 ,!
06
1=
b100010101 >
b10100 @
1E!
1G
1G!
b100010101 H!
1V!
b10001 X
1[!
b10100 o
b10100 {
#430000
0!
0[!
b10001 c!
b1 d!
#435000
1!
b1000101001 '!
b111011101 )!
b1000101001 ,!
0.
1=
b1000101001 >
b10101 @
b1000101001 H!
b1 M!
b101 X!
1[!
b10101 o
b10101 {
#440000
0!
0[!
b0 d!
#445000
1!
b111011101 '!
b1001110100 )!
b100010101 ,
b111011101 ,!
10
1=
b111011101 >
0?
b111011101 H!
b10 M!
0O!
b101 W!
b110 X!
1[!
0q
#450000
0!
0[!
#455000
1!
b1001110100 '!
b1 *
b1000101001 ,
b1001110100 ,!
b1001110100 >
b1001110100 H!
b11 M!
b110 W!
b111 X!
1[!
b0 x
#460000
0!
0[!
b100010101 e!
b1 f!
#465000
1!
b10 *
b111011101 ,
0=
1C
b1000 D
0G!
b0 M!
b1 T
0V!
b111 W!
b1000 X!
1[!
b1000 p
1r
b1000 |
#470000
0!
0[!
b1000101001 e!
#475000
1!
b11 *
b0 *!
b1001110100 ,
1.
0C
b10 T
b1 U
b1000 W!
1[!
0r
1y
#480000
0!
0[!
b111011101 e!
#485000
1!
b0 (!
b100 *
b0 -!
00
1A
b0 B
1I!
b0 J!
b10010000100000000 R
b11 T
b10 U
b1 V
1[!
0y
#490000
0!
0[!
b1001110100 e!
#495000
1!
17
0A
0I!
b1011010110110000100 R
b0 T
b11 U
b10 V
1[!
#500000
0!
0[!
b0 f!
#505000
1!
b10010010001010010100 R
b0 U
b11 V
1[!
#510000
0!
0[!
#515000
1!
b11110010001000111101 H
1I
b0 R
b0 V
b11110010001000111101 Y
1Z
1[!
#520000
0!
0[!
#525000
1!
b11 (
b10 ;
b0 H
0I
b0 Y
0Z
1[!
b10 ]
b11110010001000111101 _
1`
b1000 b
1c
b10 d
#530000
0!
0[!
#535000
1!
b1 (
1<
1W
1[!
b11 ^
0`
0c
b11 i
#540000
0!
0[!
#545000
1!
b10001 -
b11110010001000111101 9
1:
b1 ;
0<
b10001 C!
1D!
0W
1[!
b1 ]
b101111100000100101101 _
1a
b1000 b
b1 d
1e
#550000
0!
0[!
#555000
1!
07
0:
1C
b10110 D
0D!
1[!
0a
0e
b10 j
b10110 p
1r
b10110 |
#560000
0!
0[!
#565000
1!
b1 *!
17
0C
1[!
0r
1y
#570000
0!
0[!
#575000
1!
b1 (!
b1 -!
1A
b1 B
1I!
b1 J!
1[!
0y
#580000
0!
0[!
#585000
1!
07
1?
b1 @
0A
0I!
1Q!
1[!
b1 o
1q
b1 {
#590000
0!
0[!
#595000
1!
b1 )!
0?
1[!
0q
b1 x
#600000
0!
0[!
#605000
1!
b1 '!
b1 ,!
1=
b1 >
1G!
b1 H!
1[!
b0 x
#610000
0!
0[!
#615000
1!
b1 6!
17!
b1 ;!
0=
0G!
b1 N
1O
1[!
#620000
0!
0[!
#625000
1!
07!
b1 8!
0O
1[!
#630000
0!
0[!
#635000
1!
b0 8!
1L!
1M
1[!
#640000
0!
0[!
#645000
1!
0L!
0M
1N!
0Q!
1[!
#650000
0!
0[!
#655000
1!
1C
b10111 D
0N!
1[!
b10111 p
1r
b10111 |
#660000
0!
0[!
#665000
1!
b1001 *!
0C
1[!
0r
1y
#670000
0!
0[!
#675000
1!
b1001 (!
b1001 -!
1A
b1001 B
1I!
b1001 J!
1[!
0y
#680000
0!
0[!
#685000
1!
1?
b1001 @
0A
0I!
1Q!
1[!
b1001 o
1q
b1001 {
#690000
0!
0[!
#695000
1!
b10 )!
0?
1[!
0q
b1 x
#700000
0!
0[!
#705000
1!
b10 '!
b10 ,!
1=
b10 >
1G!
b10 H!
1[!
b0 x
#710000
0!
0[!
#715000
1!
b10 6!
17!
b10 ;!
0=
0G!
b10 N
1O
1[!
#720000
0!
0[!
#725000
1!
07!
b1 8!
0O
1[!
#730000
0!
0[!
#735000
1!
b0 8!
1L!
1M
1[!
#740000
0!
0[!
#745000
1!
0L!
0M
1N!
0Q!
1[!
#750000
0!
0[!
#755000
1!
1C
b11000 D
0N!
1[!
b11000 p
1r
b11000 |
#760000
0!
0[!
#765000
1!
b11011 *!
0C
1[!
0r
1y
#770000
0!
0[!
#775000
1!
b11011 (!
b11011 -!
1A
b11011 B
1I!
b11011 J!
1[!
0y
#780000
0!
0[!
#785000
1!
1?
b11011 @
0A
0I!
1Q!
1[!
b11011 o
1q
b11011 {
#790000
0!
0[!
#795000
1!
b100 )!
0?
1[!
0q
b1 x
#800000
0!
0[!
#805000
1!
b100 '!
b100 ,!
1=
b100 >
1G!
b100 H!
1[!
b0 x
#810000
0!
0[!
#815000
1!
b100 6!
17!
b100 ;!
0=
0G!
b100 N
1O
1[!
#820000
0!
0[!
#825000
1!
07!
b1 8!
0A!
0O
1[!
#830000
0!
0[!
#835000
1!
b0 8!
0@!
1A!
0B!
0K
0K!
1L!
1M
1R!
1[!
#840000
0!
0[!
#845000
1!
05
1@!
1B!
1K
1K!
0L!
0M
1O!
0R!
b11 T!
1[!
#850000
0!
0[!
#855000
1!
b10 (
1?
b11100 @
1F
1F!
0Q!
1[!
b11100 o
1q
b11100 {
#860000
0!
0[!
#865000
1!
b101101100 )!
b11011 +
15
16
b11101 @
0F
0F!
b11 S!
1[!
b11101 o
b1 x
b11101 {
#870000
0!
0[!
#875000
1!
b101101100 '!
b11011 )
b1000000001 )!
b0 *
b101101100 ,!
06
1=
b101101100 >
b11110 @
1G!
b101101100 H!
1V!
b11011 X
1[!
b11110 o
b11110 {
#880000
0!
0[!
b11011 c!
b1 d!
#885000
1!
b1000000001 '!
b1110111000 )!
b1000000001 ,!
0.
1=
b1000000001 >
b11111 @
b1000000001 H!
b1 M!
b1001 X!
1[!
b11111 o
b11111 {
#890000
0!
0[!
b0 d!
#895000
1!
b1110111000 '!
b1110010100 )!
b101101100 ,
b1110111000 ,!
10
1=
b1110111000 >
0?
b1110111000 H!
b10 M!
0O!
b1001 W!
b1010 X!
1[!
0q
#900000
0!
0[!
#905000
1!
b1110010100 '!
b1 *
b1000000001 ,
b1110010100 ,!
b1110010100 >
b1110010100 H!
b11 M!
b1010 W!
b1011 X!
1[!
b0 x
#910000
0!
0[!
b101101100 e!
b1 f!
#915000
1!
b10 *
b1110111000 ,
0=
1C
b11001 D
0G!
b0 M!
b1 T
0V!
b1011 W!
b1100 X!
1[!
b11001 p
1r
b11001 |
#920000
0!
0[!
b1000000001 e!
#925000
1!
b11 *
b110111 *!
b1110010100 ,
1.
0C
b10 T
b1 U
b1100 W!
1[!
0r
1y
#930000
0!
0[!
b1110111000 e!
#935000
1!
b110111 (!
b100 *
b110111 -!
00
1A
b110111 B
1I!
b110111 J!
b11111011101110001 R
b11 T
b10 U
b1 V
1[!
0y
#940000
0!
0[!
b1110010100 e!
#945000
1!
1?
b110111 @
0A
0I!
1Q!
b1011101111110010101 R
b0 T
b11 U
b10 V
1[!
b110111 o
1q
b110111 {
#950000
0!
0[!
b0 f!
#955000
1!
b111 )!
0?
b100111010110001100110 R
b0 U
b11 V
1[!
0q
b1 x
#960000
0!
0[!
#965000
1!
b111 '!
b111 ,!
1=
b111 >
1G!
b1000000111001011001111 H
b111 H!
1I
b0 R
b0 V
b1000000111001011001111 Y
1Z
1[!
b0 x
#970000
0!
0[!
#975000
1!
b111 6!
17!
b10 ;
b111 ;!
0=
0G!
b0 H
0I
b111 N
1O
1P
b0 Y
0Z
1[!
b101111100000100101101 _
1`
b1000 b
1c
#980000
0!
0[!
#985000
1!
07!
b1 8!
0A!
0O
1[!
b100 ^
0`
0c
b100 i
#990000
0!
0[!
#995000
1!
b0 8!
0@!
1A!
0B!
0K
0K!
1L!
1M
1R!
1[!
#1000000
0!
0[!
#1005000
1!
05
1@!
1B!
1K
1K!
0L!
0M
1O!
0R!
b0 T!
1[!
#1010000
0!
0[!
#1015000
1!
1?
b111000 @
0E!
1F
1F!
0G
0P
0Q!
1[!
b111000 o
1q
b111000 {
#1020000
0!
0[!
#1025000
1!
b10011100 )!
b110111 +
15
16
b111001 @
0F
0F!
b0 S!
1[!
b111001 o
b1 x
b111001 {
#1030000
0!
0[!
#1035000
1!
b10011100 '!
b110111 )
b110010000 )!
b0 *
b10011100 ,!
06
1=
b10011100 >
b111010 @
1E!
1G
1G!
b10011100 H!
1V!
b110111 X
1[!
b111010 o
b111010 {
#1040000
0!
0[!
b110111 c!
b1 d!
#1045000
1!
b110010000 '!
b10000001 )!
b110010000 ,!
0.
1=
b110010000 >
b111011 @
b110010000 H!
b1 M!
b1101 X!
1[!
b111011 o
b111011 {
#1050000
0!
0[!
b0 d!
#1055000
1!
b10000001 '!
b1101100 )!
b10011100 ,
b10000001 ,!
10
1=
b10000001 >
0?
b10000001 H!
b10 M!
0O!
b1101 W!
b1110 X!
1[!
0q
#1060000
0!
0[!
#1065000
1!
b1101100 '!
b1 *
b110010000 ,
b1101100 ,!
b1101100 >
b1101100 H!
b11 M!
b1110 W!
b1111 X!
1[!
b0 x
#1070000
0!
0[!
b10011100 e!
b1 f!
#1075000
1!
b10 *
b10000001 ,
0=
1C
b11010 D
0G!
b0 M!
b1 T
0V!
b1111 W!
b0 X!
1[!
b11010 p
1r
b11010 |
#1080000
0!
0[!
b110010000 e!
#1085000
1!
b11 *
b0 *!
b1101100 ,
1.
0C
b10 T
b1 U
b0 W!
1[!
0r
1y
#1090000
0!
0[!
b10000001 e!
#1095000
1!
b0 (!
b100 *
b0 -!
00
1A
b0 B
1I!
b0 J!
b101100100010001 R
b11 T
b10 U
b1 V
1[!
0y
#1100000
0!
0[!
b1101100 e!
#1105000
1!
17
0A
0I!
b101011010001100010 R
b0 T
b11 U
b10 V
1[!
#1110000
0!
0[!
b0 f!
#1115000
1!
b101111010001100010 R
b0 U
b11 V
1[!
#1120000
0!
0[!
#1125000
1!
b110010000100011011 H
1I
b0 R
b0 V
b110010000100011011 Y
1Z
1[!
#1130000
0!
0[!
#1135000
1!
b11 (
b11 ;
b0 H
0I
b0 Y
0Z
1[!
b100 ]
b110010000100011011 _
1`
b1000 b
1c
b100 d
#1140000
0!
0[!
#1145000
1!
b1 (
1<
1W
1[!
b101 ^
0`
0c
b101 i
#1150000
0!
0[!
#1155000
1!
b110111 -
b110010000100011011 9
1:
b10 ;
0<
b110111 C!
1D!
0W
1[!
b1 ]
b101111100000100101101 _
1a
b1000 b
b1 d
1e
#1160000
0!
0[!
#1165000
1!
07
0:
1C
b111100 D
0D!
1[!
0a
0e
b11 j
b111100 p
1r
b111100 |
#1170000
0!
0[!
#1175000
1!
b10001 *!
17
0C
1[!
0r
1y
#1180000
0!
0[!
#1185000
1!
b10001 (!
b10001 -!
1A
b10001 B
1I!
b10001 J!
1[!
0y
#1190000
0!
0[!
#1195000
1!
07
1?
b10001 @
0A
0I!
1Q!
1[!
b10001 o
1q
b10001 {
#1200000
0!
0[!
#1205000
1!
b11 )!
0?
1[!
0q
b1 x
#1210000
0!
0[!
#1215000
1!
b11 '!
b11 ,!
1=
b11 >
1G!
b11 H!
1[!
b0 x
#1220000
0!
0[!
#1225000
1!
b11 6!
17!
b11 ;!
0=
0G!
b11 N
1O
1[!
#1230000
0!
0[!
#1235000
1!
07!
b1 8!
0O
1[!
#1240000
0!
0[!
#1245000
1!
b0 8!
1L!
1M
1[!
#1250000
0!
0[!
#1255000
1!
0L!
0M
1N!
0Q!
1[!
#1260000
0!
0[!
#1265000
1!
1C
b111101 D
0N!
1[!
b111101 p
1r
b111101 |
#1270000
0!
0[!
#1275000
1!
b101101 *!
0C
1[!
0r
1y
#1280000
0!
0[!
#1285000
1!
b101101 (!
b101101 -!
1A
b101101 B
1I!
b101101 J!
1[!
0y
#1290000
0!
0[!
#1295000
1!
1?
b101101 @
0A
0I!
1Q!
1[!
b101101 o
1q
b101101 {
#1300000
0!
0[!
#1305000
1!
b110 )!
0?
1[!
0q
b1 x
#1310000
0!
0[!
#1315000
1!
b110 '!
b110 ,!
1=
b110 >
1G!
b110 H!
1[!
b0 x
#1320000
0!
0[!
#1325000
1!
b110 6!
17!
b110 ;!
0=
0G!
b110 N
1O
1[!
#1330000
0!
0[!
