base/dump.vcd
$date
   Sat Dec  9 08:47:43 2023
$end
$version
  2023.1
$end
$timescale
  1ps
$end
$scope module bfis_tb $end
$var reg 1 Q" clk_in $end
$var reg 1 R" rst_in $end
$var reg 32 S" vertex_in [31:0] $end
$var reg 32 T" vertex_id_in [31:0] $end
$var reg 1 U" valid_in $end
$var reg 16 V" k_in [15:0] $end
$var reg 32 & top_k_out [31:0] $end
$var reg 1 ' valid_out $end
$var reg 32 W" query_pos_in0 [31:0] $end
$var reg 32 X" query_pos_in1 [31:0] $end
$var reg 32 Y" query_pos_in2 [31:0] $end
$var reg 32 Z" query_pos_in3 [31:0] $end
$var reg 3 ( state [2:0] $end
$scope module bfis_m $end
$var wire 1 ! clk_in $end
$var wire 1 " rst_in $end
$var wire 32 # vertex_id_in [31:0] $end
$var wire 1 $ valid_in $end
$var wire 16 % k_in [15:0] $end
$var reg 32 & top_k_out [31:0] $end
$var reg 1 ' valid_out $end
$var reg 3 ( state [2:0] $end
$var reg 32 ) debug [31:0] $end
$var reg 32 * debug2 [31:0] $end
$var reg 32 + point_addr [31:0] $end
$var reg 3 , ct_dist [2:0] $end
$var reg 32 - neigh_fifo_out [31:0] $end
$var reg 32 . data_out [31:0] $end
$var reg 32 / v_addr_in [31:0] $end
$var reg 1 0 pos_empty_out $end
$var reg 1 1 pos_full_out $end
$var reg 1 2 fetch_data_valid_out $end
$var reg 1 3 pos_deq_in $end
$var reg 1 4 ready_out $end
$var reg 1 5 neigh_full_out $end
$var reg 1 6 neigh_empty_out $end
$var reg 1 7 neigh_valid_out $end
$var reg 1 8 reached_neigh_end_out $end
$var reg 32 9 pq_out [31:0] $end
$var reg 32 : pq_dist_out [31:0] $end
$var reg 1 ; pq_valid_out $end
$var reg 4 < pq_size [3:0] $end
$var reg 1 = pq_deq_in $end
$var reg 1 > pq_empty_out $end
$var reg 1 ? mem_valid_in $end
$var reg 1 @ mem_valid_out $end
$var reg 32 A mem_data_in [31:0] $end
$var reg 32 B mem_req_out [31:0] $end
$var reg 1 C mem_valid_in2 $end
$var reg 1 D mem_valid_out2 $end
$var reg 32 E mem_data_in2 [31:0] $end
$var reg 32 F mem_req_out2 [31:0] $end
$var reg 1 G data_valid_out $end
$var reg 1 H neigh_deq $end
$var reg 1 I pos_deq $end
$var reg 32 J dist_out [31:0] $end
$var reg 1 K dist_valid_out $end
$var reg 1 L distance_complete $end
$var reg 1 M visited $end
$var reg 1 N valid_visited $end
$var reg 32 O visited_addr_in [31:0] $end
$var reg 1 P visited_addr_valid_in $end
$var reg 1 Q checked_valid_in $end
$var reg 1 R checked_valid_out $end
$var reg 1 S checked_max_deq $end
$var reg 1 T checked_min_deq $end
$var reg 1 U checked_full_out $end
$var reg 1 V checked_empty_out $end
$var reg 32 W checked_data_in [31:0] $end
$var reg 32 X checked_tag_in [31:0] $end
$var reg 32 Y checked_data_out [31:0] $end
$var reg 32 Z checked_tag_out [31:0] $end
$var reg 32 [ checked_max_tag [31:0] $end
$var reg 4 \ checked_size [3:0] $end
$var reg 6 ] checked_counter [5:0] $end
$var reg 16 ^ k_count [15:0] $end
$var reg 1 _ initial_lookup $end
$var reg 32 ` idx_lookup_addr [31:0] $end
$var reg 1 a idx_lookup_addr_valid $end
$var reg 32 b idxaddr_out [31:0] $end
$var reg 1 c idxaddr_out_valid $end
$var reg 1 d checked_proc_deq $end
$var reg 1 e vertex_addr_in $end
$var reg 32 f vertex_in [31:0] $end
$var reg 32 g first_pos_lookup_addr [31:0] $end
$var reg 32 h mem_req_out2_route [31:0] $end
$var reg 32 i mem_data_in2_route [31:0] $end
$var reg 1 j vertex_valid_in $end
$var reg 1 k first_pos_lookup_addr_valid $end
$var reg 1 l mem_valid_out2_route $end
$var reg 1 m mem_valid_in2_route $end
$var reg 1 n add_checked $end
$var reg 4 o prev_checked_size [3:0] $end
$scope module distance_calc $end
$var wire 1 ! clk_in $end
$var wire 1 " rst_in $end
$var reg 32 J distance_sq_out [31:0] $end
$var reg 1 K data_valid_out $end
$var reg 3 p state [2:0] $end
$var reg 32 q distance [31:0] $end
$var reg 1 r valid_add_out $end
$var reg 2 s i [1:0] $end
$var reg 2 t k [1:0] $end
$scope begin Block79_2 $end
$var reg 32 u j [31:0] $end
$upscope $end
$upscope $end
$scope module checked $end
$var wire 1 ! clk_in $end
$var wire 1 " rst_in $end
$var wire 1 v deq_smallest_in $end
$var wire 1 w deq_largest_in $end
$var wire 32 x enq_data_in [31:0] $end
$var wire 32 y enq_tag_in [31:0] $end
$var wire 1 z enq_in $end
$var reg 1 U full_out $end
$var reg 32 Y data_out [31:0] $end
$var reg 32 Z tag_out [31:0] $end
$var reg 4 \ size_out [3:0] $end
$var reg 1 V empty_out $end
$var reg 1 R valid_out $end
$var reg 32 [ max_tag_out [31:0] $end
$var reg 1 d proc_deq_ready $end
$var reg 4 { read_ptr_min [3:0] $end
$var reg 4 | read_ptr_max [3:0] $end
$var reg 4 } prev_read_ptr [3:0] $end
$var reg 4 ~ write_ptr [3:0] $end
$var reg 32 !! curval [31:0] $end
$var reg 32 "! maxval [31:0] $end
$var reg 1 #! rem_lru $end
$var reg 1 $! push_lru $end
$var reg 1 %! deq_high $end
$var reg 5 &! i [4:0] $end
$var reg 1 '! ready $end
$var reg 1 (! cal_min_max $end
$var reg 33 )! tmp_out [32:0] $end
$var reg 2 *! in_req_out [1:0] $end
$var reg 1 +! in_req_valid_out $end
$scope module buf_out_max $end
$var wire 1 ! clk_in $end
$var wire 1 " rst_in $end
$var wire 1 ,! deq_in $end
$var wire 2 -! enq_data_in [1:0] $end
$var wire 1 .! enq_in $end
$var reg 1 /! full_out $end
$var reg 2 *! data_out [1:0] $end
$var reg 1 d empty_out $end
$var reg 1 +! valid_out $end
$var reg 4 0! read_ptr [3:0] $end
$var reg 4 1! write_ptr [3:0] $end
$scope begin Block27_5 $end
$var reg 32 2! i [31:0] $end
$upscope $end
$upscope $end
$scope module lru_cache $end
$var wire 1 ! clk_in $end
$var wire 1 " rst_in $end
$var wire 1 3! deq_in $end
$var wire 4 4! enq_data_in [3:0] $end
$var wire 1 5! enq_in $end
$var reg 1 6! full_out $end
$var reg 4 ~ data_out [3:0] $end
$var reg 1 7! empty_out $end
$var reg 1 8! valid_out $end
$var reg 4 9! read_ptr [3:0] $end
$var reg 4 :! write_ptr [3:0] $end
$scope begin Block261_8 $end
$var reg 32 ;! i [31:0] $end
$upscope $end
$upscope $end
$scope begin Block181_10 $end
$var reg 32 <! i [31:0] $end
$upscope $end
$upscope $end
$scope module pq $end
$var wire 1 ! clk_in $end
$var wire 1 " rst_in $end
$var wire 1 =! deq_smallest_in $end
$var wire 1 >! deq_largest_in $end
$var wire 32 ?! enq_data_in [31:0] $end
$var wire 32 @! enq_tag_in [31:0] $end
$var wire 1 A! enq_in $end
$var reg 1 B! full_out $end
$var reg 32 / data_out [31:0] $end
$var reg 32 : tag_out [31:0] $end
$var reg 4 < size_out [3:0] $end
$var reg 1 > empty_out $end
$var reg 1 ; valid_out $end
$var reg 32 C! max_tag_out [31:0] $end
$var reg 1 D! proc_deq_ready $end
$var reg 4 E! read_ptr_min [3:0] $end
$var reg 4 F! read_ptr_max [3:0] $end
$var reg 4 G! prev_read_ptr [3:0] $end
$var reg 4 H! write_ptr [3:0] $end
$var reg 32 I! curval [31:0] $end
$var reg 32 J! maxval [31:0] $end
$var reg 1 K! rem_lru $end
$var reg 1 L! push_lru $end
$var reg 1 M! deq_high $end
$var reg 5 N! i [4:0] $end
$var reg 1 O! ready $end
$var reg 1 P! cal_min_max $end
$var reg 33 Q! tmp_out [32:0] $end
$var reg 2 R! in_req_out [1:0] $end
$var reg 1 S! in_req_valid_out $end
$scope module buf_out_max $end
$var wire 1 ! clk_in $end
$var wire 1 " rst_in $end
$var wire 1 T! deq_in $end
$var wire 2 U! enq_data_in [1:0] $end
$var wire 1 V! enq_in $end
$var reg 1 W! full_out $end
$var reg 2 R! data_out [1:0] $end
$var reg 1 D! empty_out $end
$var reg 1 S! valid_out $end
$var reg 4 X! read_ptr [3:0] $end
$var reg 4 Y! write_ptr [3:0] $end
$scope begin Block27_5 $end
$var reg 32 Z! i [31:0] $end
$upscope $end
$upscope $end
$scope module lru_cache $end
$var wire 1 ! clk_in $end
$var wire 1 " rst_in $end
$var wire 1 [! deq_in $end
$var wire 4 \! enq_data_in [3:0] $end
$var wire 1 ]! enq_in $end
$var reg 1 ^! full_out $end
$var reg 4 H! data_out [3:0] $end
$var reg 1 _! empty_out $end
$var reg 1 `! valid_out $end
$var reg 4 a! read_ptr [3:0] $end
$var reg 4 b! write_ptr [3:0] $end
$scope begin Block261_15 $end
$var reg 32 c! i [31:0] $end
$upscope $end
$upscope $end
$scope begin Block181_17 $end
$var reg 32 d! i [31:0] $end
$upscope $end
$upscope $end
$scope module gmem $end
$var wire 1 ! clk_in $end
$var wire 1 " rst_in $end
$var wire 32 e! idx_addr [31:0] $end
$var wire 1 f! idx_validin $end
$var wire 32 g! data_addra [31:0] $end
$var wire 32 h! data_addrb [31:0] $end
$var wire 1 i! data_validina $end
$var wire 1 j! data_validinb $end
$var reg 32 b rowidx_out [31:0] $end
$var reg 32 A data_outa [31:0] $end
$var reg 32 i data_outb [31:0] $end
$var reg 1 ? data_valid_outa $end
$var reg 1 m data_valid_outb $end
$var reg 1 c rowidx_valid_out $end
$var reg 32 k! addra [31:0] $end
$var reg 32 l! addrb [31:0] $end
$var reg 32 m! addrc [31:0] $end
$var reg 2 n! cta [1:0] $end
$var reg 1 o! ctb $end
$var reg 2 p! ctc [1:0] $end
$scope module data_mem $end
$var wire 10 q! addra [9:0] $end
$var wire 10 r! addrb [9:0] $end
$var wire 32 s! dina [31:0] $end
$var wire 32 t! dinb [31:0] $end
$var wire 1 ! clka $end
$var wire 1 ! clkb $end
$var wire 1 u! wea $end
$var wire 1 v! web $end
$var wire 1 w! ena $end
$var wire 1 x! enb $end
$var wire 1 " rsta $end
$var wire 1 " rstb $end
$var wire 1 y! regcea $end
$var wire 1 z! regceb $end
$var wire 32 {! douta [31:0] $end
$var wire 32 |! doutb [31:0] $end
$var reg 32 }! ram_data_a [31:0] $end
$var reg 32 ~! ram_data_b [31:0] $end
$var integer 32 !" idx [31:0] $end
$var reg 32 "" \output_register.douta_reg  [31:0] $end
$var reg 32 #" \output_register.doutb_reg  [31:0] $end
$upscope $end
$scope module ptr_mem $end
$var wire 10 $" addra [9:0] $end
$var wire 32 %" dina [31:0] $end
$var wire 1 ! clka $end
$var wire 1 &" wea $end
$var wire 1 '" ena $end
$var wire 1 " rsta $end
$var wire 1 (" regcea $end
$var wire 32 )" douta [31:0] $end
$var reg 32 *" ram_data [31:0] $end
$var reg 32 +" \output_register.douta_reg  [31:0] $end
$upscope $end
$upscope $end
$scope module vmem $end
$var wire 1 ! clk_in $end
$var wire 1 " rst_in $end
$var wire 32 ," v_addr_in [31:0] $end
$var wire 1 -" v_addr_valid_in $end
$var reg 1 M visited_out $end
$var reg 1 N valid_v_out $end
$var reg 2 ." counter2 [1:0] $end
$var reg 1 /" visited $end
$var reg 1 0" write_v_valid_in $end
$scope module bram_3_2 $end
$var wire 10 1" addra [9:0] $end
$var wire 1 2" dina [0:0] $end
$var wire 1 ! clka $end
$var wire 1 3" wea $end
$var wire 1 4" ena $end
$var wire 1 " rsta $end
$var wire 1 5" regcea $end
$var wire 1 6" douta [0:0] $end
$var reg 1 7" ram_data [0:0] $end
$var reg 1 8" \output_register.douta_reg  [0:0] $end
$upscope $end
$upscope $end
$scope module graph $end
$var wire 1 ! clk_in $end
$var wire 1 " rst_in $end
$var wire 32 9" v_addr_in [31:0] $end
$var wire 1 :" valid_in $end
$var reg 1 4 ready_out $end
$var wire 1 ;" pos_deq_in $end
$var reg 32 . data_out [31:0] $end
$var reg 1 2 data_valid_out $end
$var reg 1 1 pos_full_out $end
$var reg 1 0 pos_empty_out $end
$var wire 1 <" neigh_deq_in $end
$var reg 32 - neigh_fifo_out [31:0] $end
$var reg 1 7 neigh_valid_out $end
$var reg 1 5 neigh_full_out $end
$var reg 1 6 neigh_empty_out $end
$var reg 1 8 reached_neigh_end_out $end
$var wire 1 =" mem_valid_in $end
$var wire 32 >" mem_data_in [31:0] $end
$var reg 1 @ mem_valid_out $end
$var reg 32 B mem_req_out [31:0] $end
$var wire 1 ?" mem_valid_in2 $end
$var wire 32 @" mem_data_in2 [31:0] $end
$var reg 1 D mem_valid_out2 $end
$var reg 32 F mem_req_out2 [31:0] $end
$var reg 32 O visited_req_out [31:0] $end
$var reg 1 P visited_req_valid_out $end
$var wire 1 A" visited_val_returned_in $end
$var wire 1 B" visited_val_returned_valid_in $end
$var reg 4 C" ct [3:0] $end
$var reg 1 D" req_ready_n $end
$var reg 1 E" req_ready_d $end
$var reg 1 F" valid_bit $end
$var reg 1 G" req_ready_v $end
$scope module neighbors $end
$var wire 1 ! clk_in $end
$var wire 1 " rst_in $end
$var wire 1 <" deq_in $end
$var wire 32 @" enq_data_in [31:0] $end
$var wire 1 H" enq_in $end
$var reg 1 5 full_out $end
$var reg 32 - data_out [31:0] $end
$var reg 1 6 empty_out $end
$var reg 1 7 valid_out $end
$var reg 3 I" read_ptr [2:0] $end
$var reg 3 J" write_ptr [2:0] $end
$scope begin Block27_33 $end
$var reg 32 K" i [31:0] $end
$upscope $end
$upscope $end
$scope module position $end
$var wire 1 ! clk_in $end
$var wire 1 " rst_in $end
$var wire 1 ;" deq_in $end
$var wire 32 >" enq_data_in [31:0] $end
$var wire 1 L" enq_in $end
$var reg 1 1 full_out $end
$var reg 32 . data_out [31:0] $end
$var reg 1 0 empty_out $end
$var reg 1 2 valid_out $end
$var reg 5 M" read_ptr [4:0] $end
$var reg 5 N" write_ptr [4:0] $end
$scope begin Block27_35 $end
$var reg 32 O" i [31:0] $end
$upscope $end
$upscope $end
$upscope $end
$upscope $end
$scope begin Block74_39 $end
$var reg 32 P" i [31:0] $end
$upscope $end
$upscope $end
$enddefinitions $end
#0
$dumpvars
0!
bx !!
b10000000000 !"
0"
bx "!
b0 ""
bx #
x#!
b0 #"
x$
x$!
bx $"
bx %
x%!
b0 %"
bx &
bx &!
0&"
x'
x'!
1'"
bx (
x(!
1("
b0xxxx )
bx )!
b0 )"
b0xxx *
bx *!
b0 *"
bx +
x+!
b0 +"
bx ,
x,!
bx ,"
bx -
bx -!
x-"
bx .
x.!
bx ."
bx /
x/!
x/"
x0
bx 0!
x0"
x1
bx 1!
bx 1"
x2
b0 2!
12"
x3
x3!
13"
x4
bx 4!
14"
x5
x5!
15"
x6
x6!
06"
x7
x7!
07"
x8
x8!
08"
bx 9
bx 9!
bx 9"
bx :
bx :!
x:"
x;
b0 ;!
x;"
bx <
b0 <!
x<"
x=
x=!
x="
x>
0>!
b0 >"
x?
bx ?!
x?"
x@
bx @!
b0 @"
b0 A
xA!
0A"
bx B
xB!
xB"
xC
bx C!
bx C"
xD
xD!
xD"
bx E
bx E!
xE"
bx F
bx F!
xF"
xG
bx G!
xG"
xH
bx H!
0H"
xI
bx I!
bx I"
bx J
bx J!
bx J"
xK
xK!
b0 K"
xL
xL!
xL"
0M
xM!
bx M"
xN
bx N!
bx N"
bx O
xO!
b0 O"
xP
xP!
b10 P"
xQ
bx Q!
0Q"
xR
bx R!
0R"
xS
xS!
bx S"
xT
xT!
bx T"
xU
bx0 U!
xU"
xV
xV!
bx V"
bx W
xW!
bx W"
bx X
bx X!
bx X"
bx Y
bx Y!
bx Y"
bx Z
b0 Z!
bx Z"
bx [
x[!
bx \
bx \!
bx ]
x]!
bx ^
x^!
x_
x_!
bx `
x`!
xa
bx a!
b0 b
bx b!
xc
b0 c!
xd
b0 d!
xe
bx e!
bx f
xf!
bx g
bx g!
bx h
bx h!
b0 i
xi!
xj
xj!
xk
bx k!
xl
bx l!
xm
bx m!
xn
bx n!
bx o
xo!
bx p
bx p!
bx q
bx q!
xr
bx r!
bx s
b0 s!
bx t
b0 t!
b0 u
0u!
xv
0v!
xw
1w!
bx x
1x!
bx y
1y!
xz
1z!
bx {
b0 {!
bx |
b0 |!
bx }
b0 }!
bx ~
b0 ~!
$end
#5000
1!
0#!
0$!
bx *"
0+!
0-"
02
03!
05!
07
x7"
0:"
0;
0="
0?
0?"
0@
0B"
0D
0E"
0K!
0L!
0L"
0N
0P
1Q"
0R
0S!
b0 W"
b0 X"
0[!
0]!
0c
0i!
0m
b0 n!
0o!
b0 p!
bx }!
bx ~!
#10000
0!
1"
b1 #
1$
b100 %
0Q"
1R"
b1 T"
1U"
b100 V"
b101 W"
b111 X"
b1 Y"
b1 Z"
#15000
1!
b11111111111111111111111111111111 !!
b0 "!
0%!
b0 &!
0'
0'!
b0 (
0(!
b0 )
b0 *
b0 *!
b0 +
b0 ,
0,!
b0 -
b0 -!
b0 .
0.!
b0 /
b0 0!
b0 1!
b1000 2!
14
b0 4!
08
18!
b0 9!
b0 9"
b0 :!
b101 ;!
b0 <
b101 <!
0=
0=!
b0 ?!
b0 @!
0A!
b0 C!
b0 C"
0D"
b0 G!
0G"
b0 H!
b11111111111111111111111111111111 I!
b0 I"
b0 J
b0 J!
b0 J"
0K
b100 K"
0L
0M!
b0 M"
b0 N!
b0 N"
0O!
b10000 O"
0P!
0Q
1Q"
b0 R!
0S
0T
0T!
b0 U!
0V!
b0 X!
b0 Y
b0 Y!
b1000 Z!
b0 [
b0 \
b0 \!
b0 ^
0_
1`!
b0 a!
b0 b!
b1000 c!
b1000 d!
0j!
0n
b0 o
b0 p
b0 q
b0 s
0v
0w
b0 x
0z
b0 }
b0 ~
#20000
0!
0"
0Q"
0R"
#25000
1!
bx ""
bx #"
bx )"
bx +"
0/!
10
01
05
16
x6"
x8"
1>
bx >"
bx @"
bx A
xA"
0B!
1D!
xM
1Q"
0U
1V
0W!
1_
bx b
1d
bx i
b100 u
bx {!
bx |!
#30000
0!
0Q"
#35000
1!
b1 $"
1Q"
0_
b1 `
1a
b1 e!
1f!
b100 u
#40000
0!
0Q"
#45000
1!
b1 *"
1Q"
1_
0a
0f!
b1 p!
b100 u
#50000
0!
0Q"
#55000
1!
b1 )"
b1 +"
1Q"
0_
1a
b1 b
1c
1f!
b0 p!
b100 u
#60000
0!
0Q"
#65000
1!
b1 (
b1 *
b1 +
b1 ?!
1Q"
1_
0a
0c
0f!
b10 g
b10 h!
1j!
1k
b1 p!
b10 r!
b100 u
#70000
0!
0Q"
#75000
1!
1Q"
1c
0j!
0k
1o!
b0 p!
b100 u
b1101001000 ~!
#80000
0!
0Q"
#85000
1!
b1101001000 #"
1?"
b1101001000 @"
1Q"
0c
b1101001000 i
1m
0o!
b100 u
b1101001000 |!
#90000
0!
0Q"
#95000
1!
b1 ,
0?"
1@
b1101001000 B
1G"
1Q"
b11 g
b1101001000 g!
b11 h!
1i!
1j!
1k
0m
b1101001000 q!
b11 r!
b100 u
#100000
0!
0Q"
#105000
1!
0@
1Q"
0i!
0j!
0k
b1 n!
1o!
b1 s
b100 u
b110001010 ~!
#110000
0!
0Q"
#115000
1!
b110001010 #"
1="
1?
1?"
b110001010 @"
1Q"
b110001010 i
1m
b0 n!
0o!
b100 u
b110001010 |!
#120000
0!
0Q"
#125000
1!
b10 ,
0="
0?
0?"
1@
b110001010 B
1Q"
b100 g
b110001010 g!
b100 h!
1i!
1j!
1k
0m
b110001010 q!
b100 r!
b100 u
#130000
0!
0Q"
#135000
1!
0@
1Q"
0i!
0j!
0k
b1 n!
1o!
b10 s
b100 u
b1100001111 ~!
#140000
0!
0Q"
#145000
1!
b1100001111 #"
1="
1?
1?"
b1100001111 @"
1Q"
b1100001111 i
1m
b0 n!
0o!
b100 u
b1100001111 |!
#150000
0!
0Q"
#155000
1!
b11 ,
0="
0?
0?"
1@
b1100001111 B
1Q"
b101 g
b1100001111 g!
b101 h!
1i!
1j!
1k
0m
b1100001111 q!
b101 r!
b100 u
#160000
0!
0Q"
#165000
1!
0@
1Q"
0i!
0j!
0k
b1 n!
1o!
b11 s
b100 u
b1100011110 ~!
#170000
0!
0Q"
#175000
1!
b1100011110 #"
1="
1?
1?"
b1100011110 @"
1Q"
b1100011110 i
1m
b0 n!
0o!
b100 u
b1100011110 |!
#180000
0!
0Q"
#185000
1!
b100 ,
0="
0?
0?"
1@
b1100011110 B
1Q"
b110 g
b1100011110 g!
b110 h!
1i!
1j!
1k
0m
b1100011110 q!
b110 r!
b100 u
#190000
0!
0Q"
#195000
1!
0@
1Q"
0i!
0j!
0k
b1 n!
1o!
b0 s
b100 u
b1001 ~!
#200000
0!
0Q"
#205000
1!
b1001 #"
1="
1?
1?"
b1001 @"
1Q"
b1001 i
1m
b0 n!
0o!
b100 u
b1001 |!
#210000
0!
0Q"
#215000
1!
0="
0?
0?"
1@
b1001 B
1Q"
b1001 g!
1i!
0m
b1001 q!
b100 u
#220000
0!
0Q"
#225000
1!
0@
1Q"
0i!
b1 n!
b100 u
b10 }!
#230000
0!
0Q"
#235000
1!
b10 ""
1="
b10 >"
1?
b10 A
1Q"
b0 n!
b100 u
b10 {!
#240000
0!
0Q"
#245000
1!
b10 ,"
1-"
b10 1"
0="
0?
b10 O
1P
1Q"
b100 u
#250000
0!
0Q"
#255000
1!
0-"
b1 ."
07"
0P
1Q"
b100 u
#260000
0!
0Q"
#265000
1!
b0 ."
06"
17"
08"
0A"
1B"
1H"
0M
1N
1Q"
b100 u
#270000
0!
0Q"
#275000
1!
16"
18"
1A"
0B"
1E"
0H"
b1 J"
1M
0N
1Q"
b100 u
#280000
0!
0Q"
#285000
1!
06
1@
b1010 B
0G"
1Q"
b1010 g!
1i!
b1010 q!
b100 u
#290000
0!
0Q"
#295000
1!
b1011 B
1Q"
b1011 g!
b1 n!
b1011 q!
b100 u
b1110001111 }!
#300000
0!
0Q"
#305000
1!
b1110001111 ""
1="
b1110001111 >"
1?
b1110001111 A
b1100 B
1L"
1Q"
b1100 g!
b1100 q!
b100 u
b1110001111 {!
b11000101 }!
#310000
0!
0Q"
#315000
1!
b11000101 ""
b11000101 >"
1?
b11000101 A
b1101 B
b1 C"
b1 N"
1Q"
b1101 g!
b1101 q!
b100 u
b11000101 {!
b101001111 }!
#320000
0!
0Q"
#325000
1!
b101001111 ""
00
b101001111 >"
1?
0@
b101001111 A
b10 C"
0E"
b10 N"
1Q"
0i!
b100 u
b101001111 {!
b1100000000 }!
#330000
0!
0Q"
#335000
1!
b1100000000 ""
b1100000000 >"
b1100000000 A
b11 C"
b11 N"
1Q"
b0 n!
b100 u
b1100000000 {!
#340000
0!
0Q"
#345000
1!
0="
0?
b0 C"
1D
0L"
b100 N"
1Q"
b100 u
#350000
0!
0Q"
#355000
1!
0D
1Q"
b100 u
#360000
0!
0Q"
#365000
1!
1Q"
b100 u
#370000
0!
0Q"
#375000
1!
1Q"
b100 u
#380000
0!
0Q"
#385000
1!
1Q"
b100 u
#390000
0!
0Q"
#395000
1!
1Q"
b100 u
#400000
0!
0Q"
#405000
1!
1Q"
b100 u
#410000
0!
0Q"
#415000
1!
1Q"
b100 u
#420000
0!
0Q"
#425000
1!
1Q"
b100 u
#430000
0!
0Q"
#435000
1!
1Q"
b0 t
b100 u
#440000
0!
0Q"
#445000
1!
1Q"
b10101010001110001001 q
b100 u
#450000
0!
0Q"
#455000
1!
1Q"
b100 u
#460000
0!
0Q"
#465000
1!
1Q"
b1 t
b100 u
#470000
0!
0Q"
#475000
1!
1Q"
b11001110110010010010 q
b100 u
#480000
0!
0Q"
#485000
1!
1Q"
b100 u
#490000
0!
0Q"
#495000
1!
1Q"
b10 t
b100 u
#500000
0!
0Q"
#505000
1!
1Q"
b101100100000101010110 q
b100 u
#510000
0!
0Q"
#515000
1!
1Q"
b100 u
#520000
0!
0Q"
#525000
1!
1Q"
b11 t
b100 u
#530000
0!
0Q"
#535000
1!
b111111111001010011111 @!
1A!
b111111111001010011111 J
1K
1Q"
b0 q
b0 t
b100 u
#540000
0!
0Q"
#545000
1!
b10 (
b10 *
b0 ,
b1 <
1=
1=!
b0 @!
0A!
b111111111001010011111 C!
b0 E!
b0 F!
b111111111001010011111 I!
b0 J
0K
1K!
1Q"
b10 U!
1V!
1[!
b0 g
bx h!
bx r!
b100 u
#550000
0!
0Q"
#555000
1!
0=
0=!
0>
b1 H!
0K!
1M!
1O!
1Q"
1T!
b0 U!
0V!
b1 Y!
0[!
b1 a!
b100 u
bx ~!
#560000
0!
0Q"
#565000
1!
bx #"
bx @"
0D!
1Q"
bx i
b100 u
bx |!
#570000
0!
0Q"
#575000
1!
1Q"
b10 R!
1S!
b1 X!
b100 u
#580000
0!
0Q"
#585000
1!
b1 /
b1 9"
b111111111001010011111 :
1:"
1;
b0 <
1D!
1L!
1Q"
0S!
1]!
b100 u
b1 x
b111111111001010011111 y
#590000
0!
0Q"
#595000
1!
0:"
0;
1>
b0 C!
1D
b110 F
b11111111111111111111111111111111 I!
0L!
0M!
1P!
1Q
1Q"
b0 ]
0]!
b1 b!
b110 h!
1j!
b110 r!
b100 u
1z
#600000
0!
0Q"
#605000
1!
b111111111001010011111 !!
1#!
b1 )
13!
0D
b1 N!
0O!
0Q
1Q"
0T!
b111111111001010011111 [
b1 \
0j!
1o!
b100 u
0z
b0 {
b0 |
b1001 ~!
#610000
0!
0Q"
#615000
1!
0#!
b1001 #"
b11 (
b11 *
03!
b1 9!
1?"
b1001 @"
b10 N!
1Q"
0V
b1001 i
1m
0o!
b100 u
b1001 |!
b1 ~
#620000
0!
0Q"
#625000
1!
b100 (
b100 *
1<"
0?"
1@
b1001 B
1G"
1H
b11 N!
1Q"
b1001 g!
1i!
0m
b1001 q!
b100 u
#630000
0!
0Q"
#635000
1!
b0 &
b1001 -
17
0<"
0@
0H
b1 I"
b100 N!
1Q"
0i!
b1 n!
b100 u
b10 }!
#640000
0!
0Q"
#645000
1!
b10 ""
b1001 &
b1001 +
16
07
1;"
1="
b10 >"
1?
b1001 ?!
b10 A
1I
b101 N!
1Q"
b0 n!
b100 u
b10 {!
#650000
0!
0Q"
#655000
1!
1-"
b1110001111 .
12
0="
0?
b1 M"
b110 N!
1P
1Q"
b100 u
#660000
0!
0Q"
#665000
1!
b1 ,
0-"
b11000101 .
b1 ."
b10 M"
b111 N!
0P
1Q"
b100 u
#670000
0!
0Q"
#675000
1!
b10 ,
b101001111 .
b0 ."
1B"
b11 M"
1N
b1000 N!
1Q"
b1 s
b100 u
#680000
0!
0Q"
#685000
1!
b11 ,
b1100000000 .
0B"
1D"
0G"
b100 M"
0N
1O!
0P!
1Q"
1T!
b10 s
b100 u
#690000
0!
0Q"
#695000
1!
b100 ,
10
02
0;"
1D
0D"
b111 F
0I
1Q"
b111 h!
1j!
b111 r!
b11 s
b100 u
#700000
0!
0Q"
#705000
1!
0D
1Q"
0j!
1o!
b0 s
b100 u
b10001 ~!
#710000
0!
0Q"
#715000
1!
b10001 #"
1?"
b10001 @"
1Q"
b10001 i
1m
0o!
b100 u
b10001 |!
#720000
0!
0Q"
#725000
1!
0?"
1@
b10001 B
1G"
1Q"
b10001 g!
1i!
0m
b10001 q!
b100 u
#730000
0!
0Q"
#735000
1!
0@
1Q"
0i!
b1 n!
b100 u
b11 }!
#740000
0!
0Q"
#745000
1!
b11 ""
1="
b11 >"
1?
b11 A
1Q"
b0 n!
b100 u
b11 {!
#750000
0!
0Q"
#755000
1!
b11 ,"
1-"
b11 1"
0="
0?
b11 O
1P
1Q"
b100 u
#760000
0!
0Q"
#765000
1!
0-"
b1 ."
07"
0P
1Q"
b100 u
#770000
0!
0Q"
#775000
1!
b0 ."
06"
17"
08"
0A"
1B"
1H"
0M
1N
1Q"
b100 u
#780000
0!
0Q"
#785000
1!
16"
18"
1A"
0B"
1E"
0H"
b10 J"
1M
0N
1Q"
b100 u
#790000
0!
0Q"
#795000
1!
06
1@
b10010 B
0G"
1Q"
b10010 g!
1i!
b10010 q!
b100 u
#800000
0!
0Q"
#805000
1!
b10011 B
1Q"
b10011 g!
b1 n!
b10011 q!
b100 u
b100010101 }!
#810000
0!
0Q"
#815000
1!
b100010101 ""
1="
b100010101 >"
1?
b100010101 A
b10100 B
1L"
1Q"
b10100 g!
b10100 q!
b100 u
b100010101 {!
b1000101001 }!
#820000
0!
0Q"
#825000
1!
b1000101001 ""
b1000101001 >"
1?
b1000101001 A
b10101 B
b1 C"
b101 N"
1Q"
b10101 g!
b10101 q!
b100 u
b1000101001 {!
b111011101 }!
#830000
0!
0Q"
#835000
1!
b111011101 ""
00
b111011101 >"
1?
0@
b111011101 A
b10 C"
0E"
b110 N"
1Q"
0i!
b100 u
b111011101 {!
b1001110100 }!
#840000
0!
0Q"
#845000
1!
b1001110100 ""
b1001110100 >"
b1001110100 A
b11 C"
b111 N"
1Q"
b0 n!
b100 u
b1001110100 {!
#850000
0!
0Q"
#855000
1!
0="
0?
b0 C"
1D
b1000 F
0L"
b1000 N"
1Q"
b1000 h!
1j!
b1000 r!
b100 u
#860000
0!
0Q"
#865000
1!
0D
1Q"
0j!
1o!
b100 u
b0 ~!
#870000
0!
0Q"
#875000
1!
b0 #"
1?"
b0 @"
1Q"
b0 i
1m
0o!
b100 u
b0 |!
#880000
0!
0Q"
#885000
1!
18
0?"
1Q"
0m
b100 u
#890000
0!
0Q"
#895000
1!
1Q"
b100 u
#900000
0!
0Q"
#905000
1!
1Q"
b100 u
#910000
0!
0Q"
#915000
1!
1Q"
b100 u
#920000
0!
0Q"
#925000
1!
1Q"
b100 u
#930000
0!
0Q"
#935000
1!
1Q"
b100 u
#940000
0!
0Q"
#945000
1!
1Q"
b100 u
#950000
0!
0Q"
#955000
1!
1Q"
b100 u
#960000
0!
0Q"
#965000
1!
1Q"
b100 u
#970000
0!
0Q"
#975000
1!
1Q"
b100 u
