base/dump.vcd
$date
   Sun Dec  3 17:12:15 2023
$end
$version
  2023.1
$end
$timescale
  1ps
$end
$scope module distance_tb $end
$var reg 1 , clk_in $end
$var reg 1 - rst_in $end
$var reg 32 # distance_sq_out [31:0] $end
$var reg 1 $ data_valid_out $end
$var reg 32 . vertex_pos_in0 [31:0] $end
$var reg 32 / vertex_pos_in1 [31:0] $end
$var reg 32 0 vertex_pos_in2 [31:0] $end
$var reg 32 1 vertex_pos_in3 [31:0] $end
$var reg 32 2 vertex_pos_in4 [31:0] $end
$var reg 32 3 vertex_pos_in5 [31:0] $end
$var reg 32 4 vertex_pos_in6 [31:0] $end
$var reg 32 5 vertex_pos_in7 [31:0] $end
$var reg 32 6 vertex_pos_in8 [31:0] $end
$var reg 32 7 query_pos_in0 [31:0] $end
$var reg 32 8 query_pos_in1 [31:0] $end
$var reg 32 9 query_pos_in2 [31:0] $end
$var reg 32 : query_pos_in3 [31:0] $end
$var reg 32 ; query_pos_in4 [31:0] $end
$var reg 32 < query_pos_in5 [31:0] $end
$var reg 32 = query_pos_in6 [31:0] $end
$var reg 32 > query_pos_in7 [31:0] $end
$var reg 32 ? query_pos_in8 [31:0] $end
$var reg 1 @ data_valid_in0 $end
$var reg 1 A data_valid_in1 $end
$var reg 1 B data_valid_in2 $end
$var reg 1 C data_valid_in3 $end
$var reg 1 D data_valid_in4 $end
$var reg 1 E data_valid_in5 $end
$var reg 1 F data_valid_in6 $end
$var reg 1 G data_valid_in7 $end
$var reg 1 H data_valid_in8 $end
$scope module distance_calculator $end
$var wire 1 ! clk_in $end
$var wire 1 " rst_in $end
$var reg 32 # distance_sq_out [31:0] $end
$var reg 1 $ data_valid_out $end
$var reg 3 % state [2:0] $end
$var reg 32 & distance [31:0] $end
$var reg 1 ' valid_add_out $end
$var reg 4 ( i [3:0] $end
$var reg 4 ) j [3:0] $end
$var reg 4 * k [3:0] $end
$upscope $end
$scope begin Block98_3 $end
$var reg 32 + i [31:0] $end
$upscope $end
$upscope $end
$enddefinitions $end
#0
$dumpvars
0!
0"
bx #
x$
bx %
bx &
x'
bx (
bx )
bx *
b1001 +
0,
0-
bx .
bx /
bx 0
bx 1
bx 2
bx 3
bx 4
bx 5
bx 6
bx 7
bx 8
bx 9
bx :
bx ;
bx <
bx =
bx >
bx ?
x@
xA
xB
xC
xD
xE
xF
xG
xH
$end
#5000
1!
1,
b0 .
b0 /
b0 0
b0 1
b0 2
b0 3
b0 4
b0 5
b0 6
b0 7
b0 8
b0 9
b0 :
b0 ;
b0 <
b0 =
b0 >
b0 ?
0@
0A
0B
0C
0D
0E
0F
0G
0H
#10000
0!
1"
0,
1-
#15000
1!
b0 #
0$
b0 %
b0 &
b0 (
1,
#20000
0!
0"
0,
0-
b10111 7
b1000011 8
b10 9
b1100011 :
b10001 ;
b1100111 <
b1 =
b110101 >
b10010 ?
#25000
1!
1,
#30000
0!
0,
#35000
1!
1,
#40000
0!
0,
b1011001 .
1@
#45000
1!
b1 (
b0 )
1,
#50000
0!
0,
b1111011 /
0@
1A
#55000
1!
b10 (
b1 )
b0 *
1,
#60000
0!
0,
b11100111 0
0A
1B
#65000
1!
b1000100000100 &
b11 (
b10 )
b1 *
1,
#70000
0!
0,
b1010010 1
0B
1C
#75000
1!
b1110101000100 &
b100 (
b11 )
b10 *
1,
#80000
0!
0,
b111 2
0C
1D
#85000
1!
b1110101000011101 &
b101 (
b100 )
b11 *
1,
#90000
0!
0,
b1100 3
0D
1E
#95000
1!
b1110101100111110 &
b110 (
b101 )
b100 *
1,
#100000
0!
0,
b10100 4
0E
1F
#105000
1!
b1110101110100010 &
b111 (
b110 )
b101 *
1,
#110000
0!
0,
b100111 5
0F
1G
#115000
1!
b10000101111111011 &
b1000 (
b111 )
b110 *
1,
#120000
0!
0,
b10011 6
0G
1H
#125000
1!
b10000110101100100 &
b0 (
b1000 )
b111 *
1,
#130000
0!
0,
0H
#135000
1!
b10000111000101000 &
b0 )
b1000 *
1,
#140000
0!
0,
#145000
1!
b10000111000101001 #
1$
b0 &
b0 *
1,
#150000
0!
0,
#155000
1!
b0 #
0$
1,
