base/dump.vcd
$date
   Fri Nov  3 18:38:39 2023
$end
$version
  2023.1
$end
$timescale
  1ps
$end
$scope module distance_tb $end
$var reg 1 1 clk_in $end
$var reg 1 2 rst_in $end
$var reg 32 # distance_sq_out [31:0] $end
$var reg 1 $ data_valid_out $end
$var reg 32 3 vertex_pos_in0 [31:0] $end
$var reg 32 4 vertex_pos_in1 [31:0] $end
$var reg 32 5 vertex_pos_in2 [31:0] $end
$var reg 32 6 vertex_pos_in3 [31:0] $end
$var reg 32 7 vertex_pos_in4 [31:0] $end
$var reg 32 8 vertex_pos_in5 [31:0] $end
$var reg 32 9 vertex_pos_in6 [31:0] $end
$var reg 32 : vertex_pos_in7 [31:0] $end
$var reg 32 ; vertex_pos_in8 [31:0] $end
$var reg 32 < query_pos_in0 [31:0] $end
$var reg 32 = query_pos_in1 [31:0] $end
$var reg 32 > query_pos_in2 [31:0] $end
$var reg 32 ? query_pos_in3 [31:0] $end
$var reg 32 @ query_pos_in4 [31:0] $end
$var reg 32 A query_pos_in5 [31:0] $end
$var reg 32 B query_pos_in6 [31:0] $end
$var reg 32 C query_pos_in7 [31:0] $end
$var reg 32 D query_pos_in8 [31:0] $end
$var reg 1 E data_valid_in0 $end
$var reg 1 F data_valid_in1 $end
$var reg 1 G data_valid_in2 $end
$var reg 1 H data_valid_in3 $end
$var reg 1 I data_valid_in4 $end
$var reg 1 J data_valid_in5 $end
$var reg 1 K data_valid_in6 $end
$var reg 1 L data_valid_in7 $end
$var reg 1 M data_valid_in8 $end
$scope module distance_calculator $end
$var wire 1 ! clk_in $end
$var wire 1 " rst_in $end
$var reg 32 # distance_sq_out [31:0] $end
$var reg 1 $ data_valid_out $end
$var reg 3 % state [2:0] $end
$var reg 32 & distance [31:0] $end
$var reg 1 ' valid_add_out $end
$var reg 2 ( i [1:0] $end
$var reg 2 ) j [1:0] $end
$scope module add_distances $end
$var wire 1 ! clk_in $end
$var wire 1 " rst_in $end
$var wire 1 * data_valid_in $end
$var reg 32 # distance_sq_out [31:0] $end
$var reg 1 $ data_valid_out $end
$var reg 32 + \genblk1.distance1  [31:0] $end
$var reg 32 , \genblk1.distance2  [31:0] $end
$var reg 32 - \genblk1.total_distance  [31:0] $end
$var reg 1 . \genblk1.add_valid1  $end
$var reg 1 / \genblk1.add_valid2  $end
$scope module genblk1.adder1 $end
$var wire 1 ! clk_in $end
$var wire 1 " rst_in $end
$var wire 1 * data_valid_in $end
$var reg 32 + distance_sq_out [31:0] $end
$var reg 1 . data_valid_out $end
$upscope $end
$scope module genblk1.adder2 $end
$var wire 1 ! clk_in $end
$var wire 1 " rst_in $end
$var wire 1 * data_valid_in $end
$var reg 32 , distance_sq_out [31:0] $end
$var reg 1 / data_valid_out $end
$upscope $end
$upscope $end
$upscope $end
$scope begin Block98_6 $end
$var reg 32 0 i [31:0] $end
$upscope $end
$upscope $end
$enddefinitions $end
#0
$dumpvars
0!
0"
bx #
x$
bx %
bx &
x'
bx (
bx )
x*
bx +
bx ,
bx -
x.
x/
b100 0
01
02
bx 3
bx 4
bx 5
bx 6
bx 7
bx 8
bx 9
bx :
bx ;
bx <
bx =
bx >
bx ?
bx @
bx A
bx B
bx C
bx D
xE
xF
xG
xH
xI
xJ
xK
xL
xM
$end
#5000
1!
b0 #
0$
0.
0/
11
b0 3
b0 4
b0 5
b0 6
b0 <
b0 =
b0 >
b0 ?
0E
0F
0G
0H
#10000
0!
1"
01
12
#15000
1!
b0 %
b0 (
0*
b0 +
b0 ,
11
#20000
0!
0"
01
02
b101 <
b111 =
b1010 >
b110010 ?
#25000
1!
11
#30000
0!
01
#35000
1!
11
#40000
0!
01
b1000 3
1E
#45000
1!
b1 (
b0 )
11
#50000
0!
01
b10 4
0E
1F
#55000
1!
b10 (
b1 )
11
#60000
0!
01
b1111 5
0F
1G
#65000
1!
b11 (
b10 )
11
#70000
0!
01
b1010000 6
0G
1H
#75000
1!
b0 (
b11 )
11
#80000
0!
01
0H
#85000
1!
b0 )
11
#90000
0!
01
#95000
1!
b1 %
1*
11
#100000
0!
01
#105000
1!
b100010 +
b1110011101 ,
1.
1/
11
#110000
0!
01
#115000
1!
b1110111111 #
1$
11
#120000
0!
01
#125000
1!
b0 %
0*
11
#130000
0!
01
#135000
1!
0.
0/
11
#140000
0!
01
#145000
1!
b0 #
0$
11
