base/fifo_tb.vcd
$date
	Sun Nov 12 23:02:55 2023
$end
$version
	Icarus Verilog
$end
$timescale
	1ps
$end
$scope module fifo_tb $end
$var wire 1 ! valid_out $end
$var wire 1 " full $end
$var wire 1 # empty $end
$var wire 32 $ data_out [31:0] $end
$var reg 1 % clk_in $end
$var reg 1 & deq $end
$var reg 1 ' enq $end
$var reg 32 ( enq_data [31:0] $end
$var reg 1 ) rst_in $end
$scope module Q $end
$var wire 1 % clk_in $end
$var wire 1 & deq $end
$var wire 1 ' enq $end
$var wire 32 * enq_data [31:0] $end
$var wire 1 ) rst_in $end
$var reg 32 + data_out [31:0] $end
$var reg 1 # empty $end
$var reg 1 " full $end
$var reg 4 , read_ptr [3:0] $end
$var reg 1 ! valid_out $end
$var reg 4 - write_ptr [3:0] $end
$scope begin $ivl_for_loop0 $end
$var integer 32 . i [31:0] $end
$upscope $end
$upscope $end
$upscope $end
$enddefinitions $end
#0
$dumpvars
b0 .
bx -
bx ,
bx +
bx *
0)
bx (
x'
x&
0%
bx $
x#
x"
x!
$end
#5000
0!
1%
#10000
0%
1)
#15000
0"
1#
b0 -
b0 ,
b1000 .
1%
#20000
0%
0)
#25000
1%
#30000
0%
#35000
1%
#40000
0%
b1000000 (
b1000000 *
1'
#45000
0#
b1 -
1%
#50000
0%
0'
#55000
1%
#60000
0%
#65000
1%
#70000
0%
b10000 (
b10000 *
1'
#75000
b10 -
1%
#80000
0%
0'
#85000
1%
#90000
0%
1&
#95000
b1 ,
1!
b1000000 $
b1000000 +
1%
#100000
0%
0&
#105000
0!
1%
#110000
0%
1&
#115000
1#
b10 ,
1!
b10000 $
b10000 +
1%
#120000
0%
0&
#125000
0!
1%
