base/fifo_tb.vcd
$date
	Mon Nov 13 21:00:58 2023
$end
$version
	Icarus Verilog
$end
$timescale
	1ps
$end
$scope module fifo_tb $end
$var wire 1 ! valid_out $end
$var wire 1 " full $end
$var wire 1 # empty $end
$var wire 32 $ data_out [31:0] $end
$var reg 1 % clk_in $end
$var reg 1 & deq $end
$var reg 1 ' enq $end
$var reg 32 ( enq_data [31:0] $end
$var reg 1 ) rst_in $end
$scope module Q $end
$var wire 1 % clk_in $end
$var wire 1 & deq $end
$var wire 1 ' enq $end
$var wire 32 * enq_data [31:0] $end
$var wire 1 ) rst_in $end
$var reg 32 + data_out [31:0] $end
$var reg 1 # empty $end
$var reg 1 " full $end
$var reg 4 , read_ptr [3:0] $end
$var reg 1 ! valid_out $end
$var reg 4 - write_ptr [3:0] $end
$scope begin $ivl_for_loop5 $end
$var integer 32 . i [31:0] $end
$upscope $end
$upscope $end
$scope begin $ivl_for_loop0 $end
$var integer 32 / i [31:0] $end
$upscope $end
$scope begin $ivl_for_loop1 $end
$var integer 32 0 i [31:0] $end
$upscope $end
$scope begin $ivl_for_loop2 $end
$var integer 32 1 i [31:0] $end
$upscope $end
$scope begin $ivl_for_loop3 $end
$var integer 32 2 i [31:0] $end
$upscope $end
$scope begin $ivl_for_loop4 $end
$var integer 32 3 i [31:0] $end
$upscope $end
$upscope $end
$enddefinitions $end
#0
$dumpvars
b0 3
b0 2
b0 1
b0 0
b0 /
b0 .
bx -
bx ,
bx +
b0 *
0)
b0 (
0'
0&
0%
bx $
x#
x"
x!
$end
#5000
0!
1%
#10000
0%
1)
#15000
b0 -
b0 ,
1#
0"
b0 $
b0 +
b1000 .
1%
#20000
0%
0)
#25000
1%
#30000
0%
#35000
1%
#40000
0%
b1000000 (
b1000000 *
1'
#45000
0#
b1 -
1%
#50000
0%
0'
#55000
1%
#60000
0%
#65000
1%
#70000
0%
b10000 (
b10000 *
1'
#75000
b10 -
1%
#80000
0%
0'
#85000
1%
#90000
0%
1&
#95000
b1 ,
1!
b1000000 $
b1000000 +
1%
#100000
0%
0&
#105000
0!
1%
#110000
0%
1&
#115000
1#
b10 ,
1!
b10000 $
b10000 +
1%
#120000
0%
b1 /
0&
#125000
0!
1%
#130000
0%
#135000
1%
#140000
0%
b1000000 (
b1000000 *
1'
#145000
0#
b11 -
1%
#150000
0%
0'
#155000
1%
#160000
0%
#165000
1%
#170000
0%
b10000 (
b10000 *
1'
#175000
b100 -
1%
#180000
0%
0'
#185000
1%
#190000
0%
1&
#195000
b11 ,
1!
b1000000 $
b1000000 +
1%
#200000
0%
0&
#205000
0!
1%
#210000
0%
1&
#215000
1#
b100 ,
1!
b10000 $
b10000 +
1%
#220000
0%
b10 /
0&
#225000
0!
1%
#230000
0%
#235000
1%
#240000
0%
b1000000 (
b1000000 *
1'
#245000
0#
b101 -
1%
#250000
0%
0'
#255000
1%
#260000
0%
#265000
1%
#270000
0%
b10000 (
b10000 *
1'
#275000
b110 -
1%
#280000
0%
0'
#285000
1%
#290000
0%
1&
#295000
b101 ,
1!
b1000000 $
b1000000 +
1%
#300000
0%
0&
#305000
0!
1%
#310000
0%
1&
#315000
1#
b110 ,
1!
b10000 $
b10000 +
1%
#320000
0%
b11 /
0&
#325000
0!
1%
#330000
0%
#335000
1%
#340000
0%
b1000000 (
b1000000 *
1'
#345000
0#
b111 -
1%
#350000
0%
0'
#355000
1%
#360000
0%
#365000
1%
#370000
0%
b10000 (
b10000 *
1'
#375000
b0 -
1%
#380000
0%
0'
#385000
1%
#390000
0%
1&
#395000
b111 ,
1!
b1000000 $
b1000000 +
1%
#400000
0%
0&
#405000
0!
1%
#410000
0%
1&
#415000
1#
b0 ,
1!
b10000 $
b10000 +
1%
#420000
0%
b100 /
0&
#425000
0!
1%
#430000
0%
#435000
1%
#440000
0%
b1000000 (
b1000000 *
1'
#445000
0#
b1 -
1%
#450000
0%
0'
#455000
1%
#460000
0%
#465000
1%
#470000
0%
b10000 (
b10000 *
1'
#475000
b10 -
1%
#480000
0%
0'
#485000
1%
#490000
0%
1&
#495000
b1 ,
1!
b1000000 $
b1000000 +
1%
#500000
0%
0&
#505000
0!
1%
#510000
0%
1&
#515000
1#
b10 ,
1!
b10000 $
b10000 +
1%
#520000
0%
b101 /
0&
#525000
0!
1%
#530000
0%
#535000
1%
#540000
0%
b1000000 (
b1000000 *
1'
#545000
0#
b11 -
1%
#550000
0%
0'
#555000
1%
#560000
0%
#565000
1%
#570000
0%
b10000 (
b10000 *
1'
#575000
b100 -
1%
#580000
0%
0'
#585000
1%
#590000
0%
1&
#595000
b11 ,
1!
b1000000 $
b1000000 +
1%
#600000
0%
0&
#605000
0!
1%
#610000
0%
1&
#615000
1#
b100 ,
1!
b10000 $
b10000 +
1%
#620000
0%
b110 /
0&
#625000
0!
1%
#630000
0%
#635000
1%
#640000
0%
b1000000 (
b1000000 *
1'
#645000
0#
b101 -
1%
#650000
0%
0'
#655000
1%
#660000
0%
#665000
1%
#670000
0%
b10000 (
b10000 *
1'
#675000
b110 -
1%
#680000
0%
0'
#685000
1%
#690000
0%
1&
#695000
b101 ,
1!
b1000000 $
b1000000 +
1%
#700000
0%
0&
#705000
0!
1%
#710000
0%
1&
#715000
1#
b110 ,
1!
b10000 $
b10000 +
1%
#720000
0%
b111 /
0&
#725000
0!
1%
#730000
0%
#735000
1%
#740000
0%
b1000000 (
b1000000 *
1'
#745000
0#
b111 -
1%
#750000
0%
0'
#755000
1%
#760000
0%
#765000
1%
#770000
0%
b10000 (
b10000 *
1'
#775000
b0 -
1%
#780000
0%
0'
#785000
1%
#790000
0%
1&
#795000
b111 ,
1!
b1000000 $
b1000000 +
1%
#800000
0%
0&
#805000
0!
1%
#810000
0%
1&
#815000
1#
b0 ,
1!
b10000 $
b10000 +
1%
#820000
0%
b1000 /
0&
#825000
0!
1%
#830000
0%
#835000
1%
#840000
0%
b1000000 (
b1000000 *
1'
#845000
0#
b1 -
1%
#850000
0%
0'
#855000
1%
#860000
0%
#865000
1%
#870000
0%
b10000 (
b10000 *
1'
#875000
b10 -
1%
#880000
0%
0'
#885000
1%
#890000
0%
1&
#895000
b1 ,
1!
b1000000 $
b1000000 +
1%
#900000
0%
0&
#905000
0!
1%
#910000
0%
1&
#915000
1#
b10 ,
1!
b10000 $
b10000 +
1%
#920000
0%
b1001 /
0&
#925000
0!
1%
#930000
0%
#935000
1%
#940000
0%
b1000000 (
b1000000 *
1'
#945000
0#
b11 -
1%
#950000
0%
0'
#955000
1%
#960000
0%
#965000
1%
#970000
0%
b10000 (
b10000 *
1'
#975000
b100 -
1%
#980000
0%
0'
#985000
1%
#990000
0%
1&
#995000
b11 ,
1!
b1000000 $
b1000000 +
1%
#1000000
0%
0&
#1005000
0!
1%
#1010000
0%
1&
#1015000
1#
b100 ,
1!
b10000 $
b10000 +
1%
#1020000
0%
b1010 /
0&
#1025000
0!
1%
#1030000
0%
#1035000
1%
#1040000
0%
b0 (
b0 *
1'
#1045000
0#
b101 -
1%
#1050000
0%
b1 0
0'
#1055000
1%
#1060000
0%
#1065000
1%
#1070000
0%
b1 (
b1 *
1'
#1075000
b110 -
1%
#1080000
0%
b10 0
0'
#1085000
1%
#1090000
0%
#1095000
1%
#1100000
0%
b10 (
b10 *
1'
#1105000
b111 -
1%
#1110000
0%
b11 0
0'
#1115000
1%
#1120000
0%
#1125000
1%
#1130000
0%
b11 (
b11 *
1'
#1135000
b0 -
1%
#1140000
0%
b100 0
0'
#1145000
1%
#1150000
0%
#1155000
1%
#1160000
0%
b100 (
b100 *
1'
#1165000
b1 -
1%
#1170000
0%
b101 0
0'
#1175000
1%
#1180000
0%
#1185000
1%
#1190000
0%
b101 (
b101 *
1'
#1195000
b10 -
1%
#1200000
0%
b110 0
0'
#1205000
1%
#1210000
0%
#1215000
1%
#1220000
0%
b110 (
b110 *
1'
#1225000
b11 -
1%
#1230000
0%
b111 0
0'
#1235000
1%
#1240000
0%
#1245000
1%
#1250000
0%
b111 (
b111 *
1'
#1255000
1"
b100 -
1%
#1260000
0%
b1010 0
0'
#1265000
1%
#1270000
0%
1&
#1275000
0"
b101 ,
1!
b0 $
b0 +
1%
#1280000
0%
b1 1
0&
#1285000
0!
1%
#1290000
0%
1&
#1295000
b110 ,
1!
b1 $
b1 +
1%
#1300000
0%
b10 1
0&
#1305000
0!
1%
#1310000
0%
1&
#1315000
b111 ,
1!
b10 $
b10 +
1%
#1320000
0%
b11 1
0&
#1325000
0!
1%
#1330000
0%
1&
#1335000
b0 ,
1!
b11 $
b11 +
1%
#1340000
0%
b100 1
0&
#1345000
0!
1%
#1350000
0%
1&
#1355000
b1 ,
1!
b100 $
b100 +
1%
#1360000
0%
b101 1
0&
#1365000
0!
1%
#1370000
0%
1&
#1375000
b10 ,
1!
b101 $
b101 +
1%
#1380000
0%
b110 1
0&
#1385000
0!
1%
#1390000
0%
1&
#1395000
b11 ,
1!
b110 $
b110 +
1%
#1400000
0%
b111 1
0&
#1405000
0!
1%
#1410000
0%
1&
#1415000
1#
b100 ,
1!
b111 $
b111 +
1%
#1420000
0%
b1010 1
0&
#1425000
0!
1%
#1430000
0%
#1435000
1%
#1440000
0%
b0 (
b0 *
1'
#1445000
0#
b101 -
1%
#1450000
0%
b1 2
0'
#1455000
1%
#1460000
0%
#1465000
1%
#1470000
0%
b100 (
b100 *
1'
#1475000
b110 -
1%
#1480000
0%
b10 2
0'
#1485000
1%
#1490000
0%
#1495000
1%
#1500000
0%
b1000 (
b1000 *
1'
#1505000
b111 -
1%
#1510000
0%
b11 2
0'
#1515000
1%
#1520000
0%
#1525000
1%
#1530000
0%
b1100 (
b1100 *
1'
#1535000
b0 -
1%
#1540000
0%
b100 2
0'
#1545000
1%
#1550000
0%
#1555000
1%
#1560000
0%
b10000 (
b10000 *
1'
#1565000
b1 -
1%
#1570000
0%
b101 2
0'
#1575000
1%
#1580000
0%
#1585000
1%
#1590000
0%
b10100 (
b10100 *
1'
#1595000
b10 -
1%
#1600000
0%
b110 2
0'
#1605000
1%
#1610000
0%
#1615000
1%
#1620000
0%
b11000 (
b11000 *
1'
#1625000
b11 -
1%
#1630000
0%
b111 2
0'
#1635000
1%
#1640000
0%
#1645000
1%
#1650000
0%
b11100 (
b11100 *
1'
#1655000
1"
b100 -
1%
#1660000
0%
b1010 2
0'
#1665000
1%
#1670000
0%
1&
#1675000
0"
b101 ,
1!
b0 $
b0 +
1%
#1680000
0%
b1 3
0&
#1685000
0!
1%
#1690000
0%
1&
#1695000
b110 ,
1!
b100 $
b100 +
1%
#1700000
0%
b10 3
0&
#1705000
0!
1%
#1710000
0%
1&
#1715000
b111 ,
1!
b1000 $
b1000 +
1%
#1720000
0%
b11 3
0&
#1725000
0!
1%
#1730000
0%
1&
#1735000
b0 ,
1!
b1100 $
b1100 +
1%
#1740000
0%
b100 3
0&
#1745000
0!
1%
#1750000
0%
1&
#1755000
b1 ,
1!
b10000 $
b10000 +
1%
#1760000
0%
b101 3
0&
#1765000
0!
1%
#1770000
0%
1&
#1775000
b10 ,
1!
b10100 $
b10100 +
1%
#1780000
0%
b110 3
0&
#1785000
0!
1%
#1790000
0%
1&
#1795000
b11 ,
1!
b11000 $
b11000 +
1%
#1800000
0%
b111 3
0&
#1805000
0!
1%
#1810000
0%
1&
#1815000
1#
b100 ,
1!
b11100 $
b11100 +
1%
#1820000
0%
b1010 3
0&
#1825000
0!
1%
