base/pq_tb.vcd
$date
	Fri Dec  8 12:39:05 2023
$end
$version
	Icarus Verilog
$end
$timescale
	1ps
$end
$scope module pq_tb $end
$var wire 1 ! valid_out $end
$var wire 16 " tag_out [15:0] $end
$var wire 4 # size_out [3:0] $end
$var wire 1 $ full_out $end
$var wire 1 % empty_out $end
$var wire 32 & data_out [31:0] $end
$var reg 1 ' clk_in $end
$var reg 1 ( deq_in $end
$var reg 32 ) enq_data_in [31:0] $end
$var reg 1 * enq_in $end
$var reg 16 + enq_tag_in [15:0] $end
$var reg 1 , rst_in $end
$scope module Q $end
$var wire 1 ' clk_in $end
$var wire 1 ( deq_in $end
$var wire 32 - enq_data_in [31:0] $end
$var wire 1 * enq_in $end
$var wire 16 . enq_tag_in [15:0] $end
$var wire 1 , rst_in $end
$var wire 4 / write_ptr [3:0] $end
$var parameter 32 0 DATA_WIDTH $end
$var parameter 32 1 DEPTH $end
$var parameter 32 2 TAG_WIDTH $end
$var reg 32 3 curval [31:0] $end
$var reg 32 4 data_out [31:0] $end
$var reg 1 5 deq_high $end
$var reg 1 % empty_out $end
$var reg 1 $ full_out $end
$var reg 5 6 i [4:0] $end
$var reg 4 7 prev_read_ptr [3:0] $end
$var reg 1 8 push_lru $end
$var reg 4 9 read_ptr [3:0] $end
$var reg 1 : ready $end
$var reg 1 ; rem_lru $end
$var reg 4 < size_out [3:0] $end
$var reg 16 = tag_out [15:0] $end
$var reg 1 ! valid_out $end
$scope module lru_cache $end
$var wire 1 ' clk_in $end
$var wire 1 ; deq_in $end
$var wire 4 > enq_data_in [3:0] $end
$var wire 1 8 enq_in $end
$var wire 1 , rst_in $end
$var parameter 33 ? DATA_WIDTH $end
$var parameter 32 @ DEPTH $end
$var reg 4 A data_out [3:0] $end
$var reg 1 B empty_out $end
$var reg 1 C full_out $end
$var reg 4 D read_ptr [3:0] $end
$var reg 1 E valid_out $end
$var reg 4 F write_ptr [3:0] $end
$scope begin $ivl_for_loop1 $end
$var integer 32 G i [31:0] $end
$upscope $end
$upscope $end
$scope begin $ivl_for_loop0 $end
$var integer 32 H i [31:0] $end
$upscope $end
$upscope $end
$upscope $end
$enddefinitions $end
$comment Show the parameter values. $end
$dumpall
b1000 @
b100 ?
b10000 2
b1000 1
b100000 0
$end
#0
$dumpvars
b0 H
b0 G
bx F
xE
bx D
xC
xB
bx A
bx >
bx =
bx <
x;
x:
bx 9
x8
bx 7
bx 6
x5
bx 4
bx 3
bx /
b0 .
b0 -
0,
b0 +
0*
b0 )
0(
0'
bx &
x%
x$
bx #
bx "
x!
$end
#5000
0;
08
0!
1'
#10000
0'
1,
#15000
1E
b0 /
b0 A
1C
0B
b0 F
b0 D
b0 #
b0 <
b0 &
b0 4
b0 7
b0 >
05
b11111111111111111111111111111111 3
b0 6
0$
0%
b1000 G
b1000 H
1'
#20000
0'
0,
#25000
0:
b1 6
1%
1'
#30000
0'
1*
b1110 +
b1110 .
#35000
1;
b1 #
b1 <
b10 6
1'
#40000
0'
0*
#45000
b1 /
b1 A
0C
b11 6
0;
b1 D
0%
1'
#50000
0'
#55000
b100 6
1'
#60000
0'
#65000
b101 6
1'
#70000
0'
1*
b100011 +
b100011 .
b1 )
b1 -
#75000
1;
b10 #
b10 <
b110 6
1'
#80000
0'
0*
#85000
b10 /
b10 A
b111 6
0;
b10 D
1'
#90000
0'
#95000
b1000 6
1'
#100000
0'
#105000
1:
b0 6
1'
#110000
0'
1*
b11 +
b11 .
b10 )
b10 -
#115000
1;
b11 #
b11 <
b1110 3
0:
b1 6
b0 9
1'
#120000
0'
0*
#125000
b11 /
b11 A
b10 6
0;
b11 D
1'
#130000
0'
1(
#135000
b10 #
b10 <
b10 7
b10 >
1!
18
b11 "
b11 =
b10 &
b10 4
15
b11 3
b11 6
b10 9
1'
#140000
0'
0(
#145000
05
b11111111111111111111111111111111 3
b100 6
08
0!
b1 F
1'
#150000
0'
1*
b1001011 +
b1001011 .
b11 )
b11 -
#155000
1;
b11 #
b11 <
b101 6
1'
#160000
0'
0*
#165000
b100 /
b100 A
b110 6
0;
b100 D
1'
#170000
0'
1*
b1100 +
b1100 .
b100 )
b100 -
#175000
1;
b100 #
b100 <
b111 6
1'
#180000
0'
0*
#185000
b101 /
b101 A
b1000 6
0;
b101 D
1'
#190000
0'
1*
b11011 +
b11011 .
b101 )
b101 -
#195000
1;
b101 #
b101 <
1:
b0 6
1'
#200000
0'
0*
#205000
b110 /
b110 A
b1110 3
0:
b1 6
0;
b110 D
b0 9
1'
#210000
0'
1(
#215000
b100 #
b100 <
b0 7
b0 >
1!
18
b1110 "
b1110 =
b0 &
b0 4
15
b10 6
1'
#220000
0'
0(
#225000
05
b11111111111111111111111111111111 3
b11 6
08
0!
b10 F
1'
#230000
0'
1(
#235000
b11 #
b11 <
b11 7
b11 >
1!
18
b1001011 "
b1001011 =
b11 &
b11 4
15
b1001011 3
b100 6
b11 9
1'
#240000
0'
0(
#245000
05
b11111111111111111111111111111111 3
b101 6
08
0!
b11 F
b100 9
1'
#250000
0'
1(
#255000
b10 #
b10 <
b101 7
b101 >
1!
18
b11011 "
b11011 =
b101 &
b101 4
15
b11011 3
b110 6
b101 9
1'
#260000
0'
0(
#265000
05
b11111111111111111111111111111111 3
b111 6
08
0!
b100 F
1'
#270000
0'
1(
#275000
15
b1000 6
1'
#280000
0'
0(
#285000
1:
b0 6
1'
#290000
0'
1(
#295000
0:
b1 6
1'
#300000
0'
0(
#305000
b100011 3
b10 6
b1 9
1'
#310000
0'
1*
b1111 +
b1111 .
b110 )
b110 -
#315000
1;
b11 #
b11 <
b11 6
1'
#320000
0'
0*
#325000
b111 /
b111 A
b100 6
0;
b111 D
1'
#330000
0'
1(
#335000
b10 #
b10 <
b100 7
b100 >
1!
18
b1100 "
b1100 =
b100 &
b100 4
b1100 3
b101 6
b100 9
1'
#340000
0'
0(
#345000
05
b11111111111111111111111111111111 3
b110 6
08
0!
b101 F
1'
#350000
0'
1*
b10111101 +
b10111101 .
b111 )
b111 -
#355000
1;
b11 #
b11 <
b1111 3
b111 6
b110 9
1'
#360000
0'
0*
#365000
b10 /
b10 A
b1000 6
0;
b0 D
1'
#370000
0'
1*
b1011010000 +
b1011010000 .
b1000 )
b1000 -
#375000
1;
b100 #
b100 <
1:
b0 6
1'
#380000
0'
0*
#385000
b0 /
b0 A
0:
b1 6
0;
b1 D
1'
#390000
0'
1(
#395000
b11 #
b11 <
b110 7
b110 >
1!
18
b1111 "
b1111 =
b110 &
b110 4
15
b10 6
1'
#400000
0'
0(
#405000
05
b11111111111111111111111111111111 3
b11 6
08
0!
b110 F
1'
#410000
0'
1(
#415000
15
b100 6
1'
#420000
0'
0(
#425000
b101 6
1'
#430000
0'
#435000
b110 6
1'
#440000
0'
#445000
b111 6
1'
#450000
0'
#455000
b10111101 3
b1000 6
b111 9
1'
#460000
0'
#465000
1:
b0 6
1'
#470000
0'
#475000
0:
b1 6
1'
#480000
0'
#485000
b100011 3
b10 6
b1 9
1'
#490000
0'
#495000
b11 6
1'
#500000
0'
#505000
b100 6
1'
#510000
0'
#515000
b101 6
1'
#520000
0'
#525000
b110 6
1'
#530000
0'
#535000
b111 6
1'
#540000
0'
#545000
b1000 6
1'
#550000
0'
#555000
1:
b0 6
1'
#560000
0'
#565000
0:
b1 6
1'
#570000
0'
#575000
b10 6
1'
#580000
0'
#585000
b11 6
1'
#590000
0'
#595000
b100 6
1'
#600000
0'
#605000
b101 6
1'
#610000
0'
#615000
b110 6
1'
