base/pq_tb.vcd
$date
	Wed Dec  6 21:04:19 2023
$end
$version
	Icarus Verilog
$end
$timescale
	1ps
$end
$scope module pq_tb $end
$var wire 1 ! valid_out $end
$var wire 16 " tag_out [15:0] $end
$var wire 4 # size_out [3:0] $end
$var wire 1 $ full_out $end
$var wire 1 % empty_out $end
$var wire 32 & data_out [31:0] $end
$var reg 1 ' clk_in $end
$var reg 1 ( deq_in $end
$var reg 32 ) enq_data_in [31:0] $end
$var reg 1 * enq_in $end
$var reg 16 + enq_tag_in [15:0] $end
$var reg 1 , rst_in $end
$scope module Q $end
$var wire 1 ' clk_in $end
$var wire 1 ( deq_in $end
$var wire 32 - enq_data_in [31:0] $end
$var wire 1 * enq_in $end
$var wire 16 . enq_tag_in [15:0] $end
$var wire 1 , rst_in $end
$var wire 4 / write_ptr [3:0] $end
$var parameter 32 0 DATA_WIDTH $end
$var parameter 32 1 DEPTH $end
$var parameter 32 2 TAG_WIDTH $end
$var reg 32 3 curval [31:0] $end
$var reg 32 4 data_out [31:0] $end
$var reg 1 % empty_out $end
$var reg 1 $ full_out $end
$var reg 4 5 prev_read_ptr [3:0] $end
$var reg 1 6 push_lru $end
$var reg 4 7 read_ptr [3:0] $end
$var reg 1 8 rem_lru $end
$var reg 4 9 size_out [3:0] $end
$var reg 16 : tag_out [15:0] $end
$var reg 1 ! valid_out $end
$scope module lru_cache $end
$var wire 1 ' clk_in $end
$var wire 1 8 deq_in $end
$var wire 4 ; enq_data_in [3:0] $end
$var wire 1 6 enq_in $end
$var wire 1 , rst_in $end
$var parameter 33 < DATA_WIDTH $end
$var parameter 32 = DEPTH $end
$var reg 4 > data_out [3:0] $end
$var reg 1 ? empty_out $end
$var reg 1 @ full_out $end
$var reg 4 A read_ptr [3:0] $end
$var reg 1 B valid_out $end
$var reg 4 C write_ptr [3:0] $end
$scope begin $ivl_for_loop2 $end
$var integer 32 D i [31:0] $end
$upscope $end
$upscope $end
$scope begin $ivl_for_loop0 $end
$var integer 32 E i [31:0] $end
$upscope $end
$scope begin $ivl_for_loop1 $end
$var integer 32 F i [31:0] $end
$upscope $end
$upscope $end
$upscope $end
$enddefinitions $end
$comment Show the parameter values. $end
$dumpall
b1000 =
b100 <
b10000 2
b1000 1
b100000 0
$end
#0
$dumpvars
b0 F
b1000 E
b0 D
bx C
xB
bx A
x@
x?
bx >
bx ;
bx :
bx 9
x8
bx 7
x6
bx 5
bx 4
b11111111111111111111111111111111 3
bx /
b0 .
b0 -
0,
b0 +
0*
b0 )
0(
0'
bx &
x%
x$
bx #
bx "
x!
$end
#5000
08
06
0!
1'
#10000
0'
1,
#15000
1B
b0 /
b0 >
1@
0?
b1000 E
0$
1%
b0 C
b0 A
b0 #
b0 9
b0 &
b0 4
b0 5
b0 ;
b1000 D
b1000 F
1'
#20000
0'
0,
#25000
1'
#30000
0'
1*
b1110 +
b1110 .
#35000
b1110 3
b0 7
b1000 E
0%
18
b1 #
b1 9
1'
#40000
0'
0*
#45000
b1 /
b1 >
0@
08
b1 A
1'
#50000
0'
#55000
1'
#60000
0'
#65000
1'
#70000
0'
1*
b100011 +
b100011 .
b1 )
b1 -
#75000
b1000 E
b1110 3
18
b10 #
b10 9
1'
#80000
0'
0*
#85000
b10 /
b10 >
08
b10 A
1'
#90000
0'
#95000
1'
#100000
0'
#105000
1'
#110000
0'
1*
b11 +
b11 .
b10 )
b10 -
#115000
b10 7
b1000 E
b11 3
18
b11 #
b11 9
1'
#120000
0'
0*
#125000
b11 /
b11 >
08
b11 A
1'
#130000
0'
1(
#135000
b0 7
b1000 E
b1110 3
b10 #
b10 9
b10 5
b10 ;
1!
16
b11 "
b11 :
b10 &
b10 4
1'
#140000
0'
0(
#145000
06
0!
b1 C
1'
#150000
0'
1*
b1001011 +
b1001011 .
b11 )
b11 -
#155000
b1000 E
b1110 3
18
b11 #
b11 9
1'
#160000
0'
0*
#165000
b100 /
b100 >
08
b100 A
1'
#170000
0'
1*
b1100 +
b1100 .
b100 )
b100 -
#175000
b100 7
b1000 E
b1100 3
18
b100 #
b100 9
1'
#180000
0'
0*
#185000
b101 /
b101 >
08
b101 A
1'
#190000
0'
1*
b11011 +
b11011 .
b101 )
b101 -
#195000
b100 7
b1000 E
b1100 3
18
b101 #
b101 9
1'
#200000
0'
0*
#205000
b110 /
b110 >
08
b110 A
1'
#210000
0'
1(
#215000
b0 7
b1000 E
b1110 3
b100 #
b100 9
b100 5
b100 ;
1!
16
b1100 "
b1100 :
b100 &
b100 4
1'
#220000
0'
0(
#225000
06
0!
b10 C
1'
#230000
0'
1(
#235000
b101 7
b1000 E
b11011 3
b11 #
b11 9
b0 5
b0 ;
1!
16
b1110 "
b1110 :
b0 &
b0 4
1'
#240000
0'
0(
#245000
06
0!
b11 C
1'
#250000
0'
1(
#255000
b1 7
b1000 E
b100011 3
b10 #
b10 9
b101 5
b101 ;
1!
16
b11011 "
b11011 :
b101 &
b101 4
1'
#260000
0'
0(
#265000
06
0!
b100 C
1'
#270000
0'
1(
#275000
b11 7
b1000 E
b1001011 3
b1 #
b1 9
b1 5
b1 ;
1!
16
b100011 "
b100011 :
b1 &
b1 4
1'
#280000
0'
0(
#285000
06
0!
b101 C
1'
#290000
0'
1(
#295000
b1000 E
b11111111111111111111111111111111 3
1%
b0 #
b0 9
b11 5
b11 ;
1!
16
b1001011 "
b1001011 :
b11 &
b11 4
1'
#300000
0'
0(
#305000
1@
06
0!
b110 C
1'
#310000
0'
1*
b1111 +
b1111 .
b110 )
b110 -
#315000
b1111 3
b110 7
b1000 E
0%
18
b1 #
b1 9
1'
#320000
0'
0*
#325000
b111 /
b111 >
0@
08
b111 A
1'
#330000
0'
1(
#335000
b1000 E
b11111111111111111111111111111111 3
1%
b0 #
b0 9
b110 5
b110 ;
1!
16
b1111 "
b1111 :
b110 &
b110 4
1'
#340000
0'
0(
#345000
1@
06
0!
b111 C
1'
#350000
0'
1*
b10111101 +
b10111101 .
b111 )
b111 -
#355000
b10111101 3
b111 7
b1000 E
0%
18
b1 #
b1 9
1'
#360000
0'
0*
#365000
b10 /
b10 >
0@
08
b0 A
1'
#370000
0'
1*
b1011010000 +
b1011010000 .
b1000 )
b1000 -
#375000
b111 7
b1000 E
b10111101 3
18
b10 #
b10 9
1'
#380000
0'
0*
#385000
b100 /
b100 >
08
b1 A
1'
#390000
0'
1(
#395000
b10 7
b1000 E
b1011010000 3
b1 #
b1 9
b111 5
b111 ;
1!
16
b10111101 "
b10111101 :
b111 &
b111 4
1'
#400000
0'
0(
#405000
06
0!
b0 C
1'
#410000
0'
1(
#415000
b1000 E
b11111111111111111111111111111111 3
1%
b0 #
b0 9
b10 5
b10 ;
1!
16
b1011010000 "
b1011010000 :
b1000 &
b1000 4
1'
#420000
0'
0(
#425000
1@
06
0!
b1 C
1'
